#FIG 3.2  Produced by xfig version 3.2.5c
Landscape
Center
Metric
A4      
100.00
Single
-2
1200 2
1 3 0 0 -1 31 51 -1 30 0.000 1 0.0000 1800 1800 450 450 1800 1800 2250 1800
1 3 0 0 0 13 53 -1 36 0.000 1 0.0000 1800 1800 1350 1350 1800 1800 3150 1800
1 3 0 1 18 20 52 -1 36 0.000 1 0.0000 1800 1800 901 901 1800 1800 2701 1800
2 1 0 1 0 7 50 -1 -1 0.000 0 0 -1 1 0 2
	1 1 1.00 60.00 120.00
	 2925 810 2475 1170
4 1 0 50 -1 16 10 0.0000 4 15 135 2745 2340 ...\001
4 1 0 50 -1 16 7 0.0000 4 90 90 945 1035 ls\001
4 1 0 50 -1 16 7 0.0000 4 120 210 720 1440 pwd\001
4 1 0 50 -1 16 7 0.0000 4 90 120 675 1890 sh\001
4 1 0 50 -1 16 7 0.0000 4 60 120 810 2340 cc\001
4 1 0 50 -1 16 7 0.0000 4 120 180 1035 2700 gdb\001
4 1 0 50 -1 16 7 0.0000 4 120 240 1485 2925 gedit\001
4 1 0 50 -1 16 7 0.0000 4 90 90 2115 2925 vi\001
4 1 0 50 -1 16 7 0.0000 4 90 285 2520 2700 make\001
4 1 0 50 -1 16 7 0.0000 4 90 570 1440 2340 connexions\001
4 1 0 50 -1 16 7 0.0000 4 90 525 1890 2475 processus\001
4 1 0 50 -1 16 7 0.0000 4 90 270 2250 1350 tubes\001
4 1 0 50 -1 16 7 0.0000 4 120 555 1485 1305 r\351pertoires\001
4 1 0 50 -1 16 7 0.0000 4 120 390 2340 2205 signaux\001
4 1 0 50 -1 16 7 0.0000 4 90 285 2430 1710 droits\001
4 1 0 50 -1 16 7 0.0000 4 90 375 1170 1620 fichiers\001
4 0 0 50 -1 16 7 0.0000 4 120 630 1440 1620 interruptions\001
4 0 0 50 -1 16 8 0.0000 4 135 600 2970 720 primitives\001
4 0 0 50 -1 16 8 0.0000 4 135 615 2970 885 syst\350me\001
4 2 0 50 -1 16 7 0.0000 4 90 570 2205 1980 processeur\001
4 0 0 50 -1 16 7 0.0000 4 90 465 1440 2070 m\351moire\001
4 2 0 50 -1 16 7 0.0000 4 120 330 2025 2160 disque\001
4 2 0 50 -1 16 7 0.0000 4 90 345 2070 1530 r\351seau\001
4 1 0 50 -1 16 7 0.0000 4 105 315 1170 1980 temps\001
4 1 0 50 -1 18 10 0.0000 4 150 975 1800 720 applications\001
4 1 0 50 -1 18 10 0.0000 4 120 495 1800 1125 noyau\001
4 1 0 50 -1 18 10 0.0000 4 120 630 1800 1845 mat\351riel\001
