> strace head -5 README
execve("/usr/bin/head", ["head", "-5", "README"], 0x7ffdd7bf6110 /* 63 vars */) = 0
brk(NULL)                               = 0x55f190216000
...
openat(AT_FDCWD, "/lib/x86_64-linux-gnu/libc.so.6", O_RDONLY|O_CLOEXEC) = 3
read(3, "\177ELF\2\1\1\3\0\0\0...\1\0\0\0\360\215\2\0\0\0\0\0"..., 832) = 832
...
fstat(3, {st_mode=S_IFREG|0755, st_size=1995896, ...}) = 0
mmap(NULL, 8192, PROT_READ|PROT_WRITE, MAP_PRIVATE, -1, 0) = 0x7f49d93f1000
...
openat(AT_FDCWD, "README", O_RDONLY)    = 3
read(3, "This is the top level of the Fre"..., 8192) = 2426
...
fstat(1, {st_mode=S_IFCHR|0600, st_rdev=makedev(0x88, 0x6), ...}) = 0
write(1, "This is the top level of the Fre"..., 66) = 66
...
close(3)                                = 0
close(1)                                = 0
close(2)                                = 0
exit_group(0)                           = ?
+++ exited with 0 +++
