#FIG 3.2  Produced by xfig version 3.2.7b
Portrait
Center
Metric
Letter
100.00
Single
-2
1200 2
6 1215 2385 3195 3060
2 1 0 1 0 7 50 -1 -1 0.000 0 0 -1 1 0 2
	1 1 1.00 45.00 75.00
	 1305 2745 1305 2385
2 1 0 1 0 7 50 -1 -1 0.000 0 0 -1 1 0 2
	1 1 1.00 45.00 75.00
	 1755 2610 1755 2385
4 0 0 50 -1 16 7 0.0000 4 120 1290 1215 2865 Page Descriptor Register\001
4 0 0 50 -1 16 7 0.0000 4 120 1170 1665 2700 Page Address Register\001
4 0 0 50 -1 16 7 0.0000 4 105 1980 1215 3015 <limite, valide/invalide, no access/r/w>\001
-6
1 3 0 1 0 6 51 -1 30 0.000 1 0.0000 1710 1260 90 90 1710 1260 1800 1260
1 3 0 1 0 6 51 -1 30 0.000 1 0.0000 2700 1080 90 90 2700 1080 2700 990
1 3 0 1 0 0 55 -1 20 0.000 1 0.0000 2745 1125 90 90 2745 1125 2835 1125
1 3 0 1 0 0 55 -1 20 0.000 1 0.0000 1755 1305 90 90 1755 1305 1845 1305
2 2 0 1 0 1 51 -1 34 0.000 0 0 -1 0 0 5
	 2610 450 3780 450 3780 630 2610 630 2610 450
2 1 0 1 0 7 50 -1 -1 0.000 0 0 -1 0 0 2
	 990 450 990 630
2 2 0 1 0 2 51 -1 34 0.000 0 0 -1 0 0 5
	 810 450 1800 450 1800 630 810 630 810 450
2 1 0 1 0 7 50 -1 -1 0.000 0 0 -1 0 0 2
	 1440 450 1440 630
2 1 0 1 0 7 50 -1 -1 0.000 0 0 -1 0 0 2
	 3420 450 3420 630
2 1 0 1 0 7 50 -1 -1 0.000 0 0 -1 0 0 2
	 1080 1800 1980 1800
2 1 0 1 0 7 50 -1 -1 0.000 0 0 -1 0 0 2
	 1080 1980 1980 1980
2 1 0 1 0 7 50 -1 -1 0.000 0 0 -1 0 0 2
	 1080 2160 1980 2160
2 1 0 1 0 7 50 -1 -1 0.000 0 0 -1 0 0 2
	 1530 1620 1530 2340
2 1 0 1 0 7 50 -1 -1 0.000 0 0 -1 1 0 2
	1 1 1.00 45.00 75.00
	 1800 1260 1980 1260
2 2 0 1 0 0 55 -1 20 0.000 0 0 -1 0 0 5
	 855 495 1845 495 1845 675 855 675 855 495
2 2 0 1 0 0 55 -1 20 0.000 0 0 -1 0 0 5
	 2655 495 3825 495 3825 675 2655 675 2655 495
2 1 0 1 0 7 50 -1 -1 0.000 0 0 -1 0 0 3
	 1665 1215 1755 1260 1665 1305
2 1 0 1 0 7 50 -1 -1 0.000 0 0 -1 0 0 2
	 2700 1035 2700 1125
2 1 0 1 0 7 50 -1 -1 0.000 0 0 -1 0 0 2
	 2655 1080 2745 1080
2 1 0 1 1 7 30 -1 -1 0.000 0 0 -1 1 0 2
	1 1 1.00 60.00 120.00
	 720 -270 720 270
2 1 0 1 1 7 30 -1 -1 0.000 0 0 -1 1 0 2
	1 1 1.00 60.00 120.00
	 3870 270 3870 -270
2 2 0 1 0 19 51 -1 36 0.000 0 0 -1 0 0 5
	 1080 1620 1980 1620 1980 2340 1080 2340 1080 1620
2 2 0 1 0 0 55 -1 20 0.000 0 0 -1 0 0 5
	 1125 1665 2025 1665 2025 2385 1125 2385 1125 1665
3 0 0 1 0 7 50 -1 -1 0.000 0 1 0 8
	1 1 1.00 45.00 75.00
	 1620 540 1620 810 1620 900 1710 900 3510 900 3600 900
	 3600 810 3600 675
	 0.000 1.000 1.000 1.000 1.000 1.000 1.000 0.000
3 0 0 1 0 7 50 -1 -1 0.000 0 1 0 5
	1 1 1.00 45.00 75.00
	 1215 540 1215 990 1215 1080 1305 1080 2610 1080
	 0.000 1.000 1.000 1.000 0.000
3 0 0 1 0 7 50 -1 -1 0.000 0 1 0 5
	1 1 1.00 45.00 75.00
	 1935 1890 2610 1890 2700 1890 2700 1800 2700 1170
	 0.000 1.000 1.000 1.000 0.000
3 0 0 1 0 7 50 -1 -1 0.000 0 1 0 5
	1 1 1.00 45.00 75.00
	 1215 1845 1215 1440 1215 1305 1305 1305 1620 1305
	 0.000 1.000 1.000 1.000 0.000
3 0 0 1 0 7 50 -1 -1 0.000 0 1 0 8
	1 1 1.00 45.00 75.00
	 900 540 810 540 720 540 720 675 720 1755 720 1890
	 810 1890 945 1890
	 0.000 1.000 1.000 1.000 1.000 1.000 1.000 0.000
3 0 0 1 0 7 50 -1 -1 0.000 0 1 0 6
	1 1 1.00 45.00 75.00
	 1215 540 1215 990 1215 1080 1215 1215 1305 1215 1620 1215
	 0.000 1.000 1.000 1.000 1.000 0.000
3 0 0 1 0 7 50 -1 -1 0.000 0 1 0 6
	1 1 1.00 45.00 75.00
	 2790 1080 2835 1080 2925 1080 3015 1080 3015 990 3015 675
	 0.000 1.000 1.000 1.000 1.000 0.000
4 1 0 50 -1 16 8 0.0000 4 105 75 900 405 3\001
4 1 0 50 -1 16 8 0.0000 4 105 75 1620 405 6\001
4 1 0 50 -1 16 8 0.0000 4 105 75 1215 405 7\001
4 1 0 50 -1 16 8 0.0000 4 105 75 3600 405 6\001
4 1 0 50 -1 16 8 0.0000 4 105 150 3015 405 12\001
4 0 0 50 -1 17 7 0.0000 4 105 555 1980 1305 Exception !\001
4 1 0 40 -1 16 8 0.0000 4 105 150 1305 1575 16\001
4 1 0 40 -1 16 8 0.0000 4 105 150 1710 1575 16\001
4 1 0 40 -1 16 6 0.0000 4 90 270 1305 1935 limite\001
4 2 0 50 -1 17 7 0.0000 4 120 1275 3780 2340 2 jeux de registres (U, S)\001
4 2 0 50 -1 16 6 0.0000 4 75 60 1035 1755 0\001
4 2 0 50 -1 16 6 0.0000 4 75 60 1035 1935 1\001
4 1 0 40 -1 16 6 0.0000 4 90 240 1755 1935 base\001
4 0 0 50 -1 16 6 0.0000 4 75 120 810 810 15\001
4 1 0 50 -1 16 6 0.0000 4 75 60 1755 810 0\001
4 0 0 50 -1 16 6 0.0000 4 75 120 2610 810 17\001
4 1 0 50 -1 16 6 0.0000 4 75 60 3735 810 0\001
4 1 0 50 -1 16 6 0.0000 4 75 60 1485 810 5\001
4 1 0 50 -1 16 6 0.0000 4 75 120 1035 810 12\001
4 0 1 30 -1 16 7 0.0000 4 90 210 765 1170 0 01\001
4 0 1 30 -1 16 7 0.0000 4 90 480 1260 1035 0 011 100\001
4 0 1 30 -1 16 7 0.0000 4 90 1110 765 -45 0 010 011 100 101 110\001
4 0 1 30 -1 16 7 0.0000 4 90 420 765 -180 0023456\001
4 2 0 50 -1 16 6 0.0000 4 75 60 1035 2295 7\001
4 1 0 50 -1 16 8 0.0000 4 15 225 1305 2070 . . .\001
4 1 0 50 -1 16 8 0.0000 4 15 225 1710 2070 . . .\001
4 1 0 50 -1 16 8 0.0000 4 105 75 1170 1350 7\001
4 1 0 50 -1 16 8 0.0000 4 135 990 1350 225 Adresse logique\001
4 1 0 50 -1 16 8 0.0000 4 135 1110 3195 225 Adresse physique\001
4 1 1 30 -1 16 7 0.0000 4 90 180 1305 1935 037\001
4 0 1 30 -1 16 7 0.0000 4 90 480 1260 1530 0 011 111\001
4 0 1 30 -1 16 7 0.0000 4 120 270 2115 1440 (non)\001
4 1 1 30 -1 16 7 0.0000 4 90 300 1755 1935 00130\001
4 1 0 50 -1 16 8 0.0000 4 105 150 2115 1845 12\001
4 0 1 30 -1 16 7 0.0000 4 90 810 2745 1800 000 001 011 000\001
4 0 1 30 -1 16 7 0.0000 4 90 810 3015 1170 000 001 110 100\001
4 2 1 30 -1 16 7 0.0000 4 90 1230 3825 -45 000 001 110 100 101 110\001
4 2 1 30 -1 16 7 0.0000 4 90 420 3825 -180 0016456\001
4 0 1 30 -1 16 7 0.0000 4 90 390 1845 855 101 110\001
