#FIG 3.2  Produced by xfig version 3.2.5c
Portrait
Center
Metric
A4      
100.00
Single
-2
1200 2
2 1 0 1 0 7 50 0 -1 0.000 0 0 -1 0 0 2
	 2250 450 2250 675
2 1 0 1 0 7 50 0 -1 0.000 0 0 -1 0 0 2
	 1530 450 1530 675
2 2 0 1 -1 1 51 0 38 0.000 0 0 0 0 0 5
	 4050 675 450 675 450 450 4050 450 4050 675
2 2 0 1 -1 0 52 0 20 0.000 0 0 0 0 0 5
	 4095 720 495 720 495 495 4095 495 4095 720
4 1 0 50 0 16 6 0.0000 4 75 420 3150 585 Interface\001
4 1 0 50 0 16 6 0.0000 4 75 120 3150 405 64\001
4 1 0 50 0 16 6 0.0000 4 60 60 1001 405 n\001
4 1 0 50 0 16 6 0.0000 4 75 390 1001 585 Network\001
4 1 0 50 0 16 6 0.0000 4 75 345 1890 585 Subnet\001
4 1 0 50 0 16 6 0.0000 4 75 210 1890 405 64-n\001
