#FIG 3.2  Produced by xfig version 3.2.5c
Portrait
Center
Metric
A4      
100.00
Single
-2
1200 2
0 32 #c6b797
0 33 #eff8ff
0 34 #dccba6
0 35 #404040
0 36 #808080
0 37 #c0c0c0
0 38 #e0e0e0
0 39 #8e8f8e
0 40 #aaaaaa
0 41 #555555
0 42 #bebebe
0 43 #515151
0 44 #e7e3e7
0 45 #000049
0 46 #797979
0 47 #303430
0 48 #414141
0 49 #c7b696
0 50 #8e8e8e
0 51 #414541
0 52 #8e8e8e
0 53 #cccccc
0 54 #868286
0 55 #c7c3c7
0 56 #444444
0 57 #868686
0 58 #c7c7c7
0 59 #e7e7e7
0 60 #f7f7f7
0 61 #9e9e9e
0 62 #717571
0 63 #effbff
0 64 #666666
0 65 #000000
0 66 #ffffff
0 67 #dd9d93
0 68 #f1ece0
0 69 #c3c3c3
0 70 #e2c8a8
0 71 #e1e1e1
0 72 #d2d2d2
0 73 #ededed
0 74 #da7a1a
0 75 #f1e41a
0 76 #887dc2
0 77 #d6d6d6
0 78 #8c8ca5
0 79 #4a4a4a
0 80 #5a5a5a
0 81 #636363
0 82 #b79b73
0 83 #4193ff
0 84 #bf703b
0 85 #db7700
0 86 #dab800
0 87 #006400
0 88 #5a6b3b
0 89 #d3d3d3
0 90 #8e8ea4
0 91 #f3b95d
0 92 #89996b
0 93 #646464
0 94 #b7e6ff
0 95 #86c0ec
0 96 #bdbdbd
0 97 #d39552
0 98 #98d2fe
0 99 #8c6b6b
0 100 #eeeeee
0 101 #848484
0 102 #7b7b7b
0 103 #005a00
0 104 #e77373
0 105 #ffcb31
0 106 #29794a
0 107 #de2821
0 108 #2159c6
0 109 #f8f8f8
0 110 #e6e6e6
0 111 #a5b5c6
0 112 #6b6b94
0 113 #846b6b
0 114 #529c4a
0 115 #d6e7e7
0 116 #526363
0 117 #186b4a
0 118 #21845a
0 119 #f3eed3
0 120 #f5ae5d
0 121 #95ce99
0 122 #b5157d
0 123 #5a6b39
0 124 #8c9c6b
0 125 #8c9c7b
0 126 #184a18
0 127 #adadad
0 128 #f7bd5a
0 129 #636b9c
0 130 #de0000
0 131 #adadad
0 132 #f7bd5a
0 133 #adadad
0 134 #f7bd5a
0 135 #636b9c
0 136 #526b29
0 137 #949494
0 138 #006300
0 139 #9ca5b5
0 140 #ff9400
0 141 #ff9400
0 142 #00634a
0 143 #7b844a
0 144 #63737b
0 145 #e7bd7b
0 146 #184a18
0 147 #f7bd5a
0 148 #dedede
0 149 #f76b00
0 150 #565151
0 151 #d7d7d7
0 152 #85807d
0 153 #3a3a3a
0 154 #4573aa
0 155 #aeaeae
0 156 #7b79a5
0 157 #73758c
0 158 #635dce
# Desktop computer
6 2295 2160 2655 2616
6 2325 2167 2629 2447
2 2 0 1 0 38 20 0 20 0.000 2 0 7 0 0 5
	 2325 2167 2629 2167 2629 2421 2325 2421 2325 2167
2 2 0 0 0 35 19 0 22 0.000 1 0 -1 0 0 5
	 2566 2193 2540 2193 2540 2396 2566 2396 2566 2193
2 2 0 0 0 35 19 0 24 0.000 1 0 -1 0 0 5
	 2540 2193 2515 2193 2515 2396 2540 2396 2540 2193
2 2 0 0 0 35 19 0 26 0.000 1 0 -1 0 0 5
	 2515 2193 2477 2193 2477 2396 2515 2396 2515 2193
2 2 0 0 0 35 19 0 28 0.000 1 0 -1 0 0 5
	 2477 2193 2439 2193 2439 2396 2477 2396 2477 2193
2 2 0 0 0 35 19 0 30 0.000 1 0 -1 0 0 5
	 2439 2193 2413 2193 2413 2396 2439 2396 2439 2193
2 2 0 0 0 35 19 0 33 0.000 1 0 -1 0 0 5
	 2413 2193 2388 2193 2388 2396 2413 2396 2413 2193
2 2 0 0 0 35 19 0 33 0.000 1 0 -1 0 0 5
	 2388 2193 2363 2193 2363 2396 2388 2396 2388 2193
2 2 0 1 0 36 20 0 20 0.000 2 0 7 0 0 5
	 2413 2421 2540 2421 2540 2434 2413 2434 2413 2421
2 2 0 1 0 36 20 0 20 0.000 2 0 -1 0 0 5
	 2401 2434 2553 2434 2553 2447 2401 2447 2401 2434
2 2 0 0 0 35 19 0 20 0.000 1 0 7 0 0 5
	 2591 2193 2566 2193 2566 2396 2591 2396 2591 2193
3 5 0 0 0 37 18 0 20 0.000 0 0 0 4
	 2350 2193 2350 2396 2363 2383 2363 2206
	 0.000 0.000 0.000 0.000
3 5 0 0 0 7 18 0 20 0.000 0 0 0 5
	 2350 2396 2363 2383 2480 2388 2591 2383 2604 2396
	 0.000 0.000 -1.000 0.000 0.000
3 5 0 0 0 37 18 0 20 0.000 0 0 0 4
	 2604 2193 2604 2396 2591 2383 2591 2206
	 0.000 0.000 0.000 0.000
3 5 0 0 0 36 18 0 20 0.000 0 0 0 5
	 2350 2193 2363 2206 2480 2200 2591 2206 2604 2193
	 0.000 0.000 -1.000 0.000 0.000
-6
6 2299 2536 2655 2612
2 3 0 1 0 38 20 0 20 0.000 2 0 7 0 0 7
	 2337 2536 2617 2536 2655 2599 2655 2612 2299 2612 2299 2599
	 2337 2536
2 1 0 1 0 37 19 0 20 0.000 2 0 -1 0 0 4
	 2299 2599 2299 2612 2655 2612 2655 2599
2 3 0 0 0 7 19 0 20 0.000 2 0 -1 0 0 5
	 2350 2548 2325 2586 2553 2586 2540 2548 2350 2548
2 2 0 0 0 36 18 0 20 0.000 2 0 -1 0 0 5
	 2325 2586 2553 2586 2553 2591 2325 2591 2325 2586
2 3 0 0 0 37 18 0 20 0.000 2 0 -1 0 0 9
	 2345 2548 2325 2586 2363 2586 2368 2574 2359 2574 2364 2561
	 2356 2561 2363 2548 2345 2548
2 3 0 0 0 37 18 0 20 0.000 2 0 -1 0 0 10
	 2553 2586 2515 2586 2515 2574 2523 2574 2522 2561 2528 2561
	 2529 2561 2527 2548 2543 2548 2553 2586
2 3 0 0 0 7 19 0 20 0.000 2 0 -1 0 0 5
	 2604 2548 2553 2548 2566 2586 2629 2586 2604 2548
2 3 0 0 0 37 18 0 20 0.000 2 0 -1 0 0 7
	 2629 2586 2618 2586 2604 2556 2555 2556 2553 2548 2609 2548
	 2629 2586
2 2 0 0 0 36 18 0 20 0.000 2 0 -1 0 0 5
	 2566 2586 2629 2586 2629 2591 2566 2591 2566 2586
2 3 0 0 0 36 18 0 20 0.000 2 0 -1 0 0 5
	 2566 2587 2566 2591 2553 2552 2553 2549 2566 2587
-6
6 2331 2447 2623 2523
6 2519 2460 2608 2485
6 2519 2460 2608 2485
2 1 0 1 36 -1 19 0 -1 0.000 2 0 -1 0 0 5
	 2519 2473 2519 2466 2546 2466 2546 2460 2580 2460
2 1 0 1 36 -1 19 0 -1 0.000 2 0 -1 0 0 3
	 2546 2485 2546 2473 2580 2473
2 1 0 1 36 -1 19 0 -1 0.000 2 0 -1 0 0 2
	 2580 2466 2608 2466
2 1 0 1 7 -1 19 0 -1 0.000 2 0 -1 0 0 2
	 2580 2460 2580 2466
2 1 0 1 7 -1 19 0 -1 0.000 2 0 -1 0 0 2
	 2519 2473 2546 2473
2 1 0 1 7 -1 19 0 -1 0.000 2 0 -1 0 0 5
	 2546 2485 2580 2485 2580 2473 2608 2473 2608 2466
2 1 0 1 36 -1 19 0 -1 0.000 2 0 -1 0 0 3
	 2587 2485 2601 2485 2601 2479
2 1 0 1 7 -1 19 0 -1 0.000 2 0 -1 0 0 3
	 2587 2485 2587 2479 2601 2479
-6
-6
2 2 0 1 0 35 20 0 20 0.000 2 0 -1 0 0 5
	 2331 2523 2369 2523 2369 2516 2331 2516 2331 2523
2 2 0 1 0 35 20 0 20 0.000 2 0 -1 0 0 5
	 2585 2523 2623 2523 2623 2516 2585 2516 2585 2523
2 2 0 1 0 38 20 0 20 0.000 2 0 -1 0 0 5
	 2331 2447 2623 2447 2623 2517 2331 2517 2331 2447
-6
-6
# Server box
6 540 765 810 1235
6 570 935 780 1165
6 570 935 780 955
2 2 0 0 0 38 19 0 20 0.000 0 1 -1 0 0 5
	 570 945 780 945 780 955 570 955 570 945
2 2 0 0 0 35 19 0 20 0.000 0 1 -1 0 0 5
	 570 935 780 935 780 945 570 945 570 935
-6
6 570 965 780 985
2 2 0 0 0 38 19 0 20 0.000 0 1 -1 0 0 5
	 570 975 780 975 780 985 570 985 570 975
2 2 0 0 0 35 19 0 20 0.000 0 1 -1 0 0 5
	 570 965 780 965 780 975 570 975 570 965
-6
6 570 995 780 1015
2 2 0 0 0 38 19 0 20 0.000 0 1 -1 0 0 5
	 570 1005 780 1005 780 1015 570 1015 570 1005
2 2 0 0 0 35 19 0 20 0.000 0 1 -1 0 0 5
	 570 995 780 995 780 1005 570 1005 570 995
-6
6 570 1025 780 1045
2 2 0 0 0 38 19 0 20 0.000 0 1 -1 0 0 5
	 570 1035 780 1035 780 1045 570 1045 570 1035
2 2 0 0 0 35 19 0 20 0.000 0 1 -1 0 0 5
	 570 1025 780 1025 780 1035 570 1035 570 1025
-6
6 570 1055 780 1075
2 2 0 0 0 38 19 0 20 0.000 0 1 -1 0 0 5
	 570 1065 780 1065 780 1075 570 1075 570 1065
2 2 0 0 0 35 19 0 20 0.000 0 1 -1 0 0 5
	 570 1055 780 1055 780 1065 570 1065 570 1055
-6
6 570 1085 780 1105
2 2 0 0 0 38 19 0 20 0.000 0 1 -1 0 0 5
	 570 1095 780 1095 780 1105 570 1105 570 1095
2 2 0 0 0 35 19 0 20 0.000 0 1 -1 0 0 5
	 570 1085 780 1085 780 1095 570 1095 570 1085
-6
6 570 1115 780 1135
2 2 0 0 0 38 19 0 20 0.000 0 1 -1 0 0 5
	 570 1125 780 1125 780 1135 570 1135 570 1125
2 2 0 0 0 35 19 0 20 0.000 0 1 -1 0 0 5
	 570 1115 780 1115 780 1125 570 1125 570 1115
-6
6 570 1145 780 1165
2 2 0 0 0 38 19 0 20 0.000 0 1 -1 0 0 5
	 570 1155 780 1155 780 1165 570 1165 570 1155
2 2 0 0 0 35 19 0 20 0.000 0 1 -1 0 0 5
	 570 1145 780 1145 780 1155 570 1155 570 1145
-6
-6
6 570 805 780 885
6 570 865 780 885
2 2 0 0 0 38 19 0 20 0.000 0 1 -1 0 0 5
	 570 875 780 875 780 885 570 885 570 875
2 2 0 0 0 35 19 0 20 0.000 0 1 -1 0 0 5
	 570 865 780 865 780 875 570 875 570 865
-6
6 570 835 780 855
2 2 0 0 0 38 19 0 20 0.000 0 1 -1 0 0 5
	 570 845 780 845 780 855 570 855 570 845
2 2 0 0 0 35 19 0 20 0.000 0 1 -1 0 0 5
	 570 835 780 835 780 845 570 845 570 835
-6
6 570 805 780 825
2 2 0 0 0 38 19 0 20 0.000 0 1 -1 0 0 5
	 570 815 780 815 780 825 570 825 570 815
2 2 0 0 0 35 19 0 20 0.000 0 1 -1 0 0 5
	 570 805 780 805 780 815 570 815 570 805
-6
-6
2 2 0 1 0 35 19 0 20 0.000 0 1 -1 0 0 5
	 540 1195 810 1195 810 1235 540 1235 540 1195
2 1 0 1 0 37 19 0 20 0.000 0 1 -1 0 0 2
	 540 905 810 905
2 2 0 1 0 37 20 0 20 0.000 0 1 -1 0 0 5
	 540 765 810 765 810 1235 540 1235 540 765
-6
# Server box
6 990 2160 1260 2630
6 1020 2330 1230 2560
6 1020 2330 1230 2350
2 2 0 0 0 38 19 0 20 0.000 0 1 -1 0 0 5
	 1020 2340 1230 2340 1230 2350 1020 2350 1020 2340
2 2 0 0 0 35 19 0 20 0.000 0 1 -1 0 0 5
	 1020 2330 1230 2330 1230 2340 1020 2340 1020 2330
-6
6 1020 2360 1230 2380
2 2 0 0 0 38 19 0 20 0.000 0 1 -1 0 0 5
	 1020 2370 1230 2370 1230 2380 1020 2380 1020 2370
2 2 0 0 0 35 19 0 20 0.000 0 1 -1 0 0 5
	 1020 2360 1230 2360 1230 2370 1020 2370 1020 2360
-6
6 1020 2390 1230 2410
2 2 0 0 0 38 19 0 20 0.000 0 1 -1 0 0 5
	 1020 2400 1230 2400 1230 2410 1020 2410 1020 2400
2 2 0 0 0 35 19 0 20 0.000 0 1 -1 0 0 5
	 1020 2390 1230 2390 1230 2400 1020 2400 1020 2390
-6
6 1020 2420 1230 2440
2 2 0 0 0 38 19 0 20 0.000 0 1 -1 0 0 5
	 1020 2430 1230 2430 1230 2440 1020 2440 1020 2430
2 2 0 0 0 35 19 0 20 0.000 0 1 -1 0 0 5
	 1020 2420 1230 2420 1230 2430 1020 2430 1020 2420
-6
6 1020 2450 1230 2470
2 2 0 0 0 38 19 0 20 0.000 0 1 -1 0 0 5
	 1020 2460 1230 2460 1230 2470 1020 2470 1020 2460
2 2 0 0 0 35 19 0 20 0.000 0 1 -1 0 0 5
	 1020 2450 1230 2450 1230 2460 1020 2460 1020 2450
-6
6 1020 2480 1230 2500
2 2 0 0 0 38 19 0 20 0.000 0 1 -1 0 0 5
	 1020 2490 1230 2490 1230 2500 1020 2500 1020 2490
2 2 0 0 0 35 19 0 20 0.000 0 1 -1 0 0 5
	 1020 2480 1230 2480 1230 2490 1020 2490 1020 2480
-6
6 1020 2510 1230 2530
2 2 0 0 0 38 19 0 20 0.000 0 1 -1 0 0 5
	 1020 2520 1230 2520 1230 2530 1020 2530 1020 2520
2 2 0 0 0 35 19 0 20 0.000 0 1 -1 0 0 5
	 1020 2510 1230 2510 1230 2520 1020 2520 1020 2510
-6
6 1020 2540 1230 2560
2 2 0 0 0 38 19 0 20 0.000 0 1 -1 0 0 5
	 1020 2550 1230 2550 1230 2560 1020 2560 1020 2550
2 2 0 0 0 35 19 0 20 0.000 0 1 -1 0 0 5
	 1020 2540 1230 2540 1230 2550 1020 2550 1020 2540
-6
-6
6 1020 2200 1230 2280
6 1020 2260 1230 2280
2 2 0 0 0 38 19 0 20 0.000 0 1 -1 0 0 5
	 1020 2270 1230 2270 1230 2280 1020 2280 1020 2270
2 2 0 0 0 35 19 0 20 0.000 0 1 -1 0 0 5
	 1020 2260 1230 2260 1230 2270 1020 2270 1020 2260
-6
6 1020 2230 1230 2250
2 2 0 0 0 38 19 0 20 0.000 0 1 -1 0 0 5
	 1020 2240 1230 2240 1230 2250 1020 2250 1020 2240
2 2 0 0 0 35 19 0 20 0.000 0 1 -1 0 0 5
	 1020 2230 1230 2230 1230 2240 1020 2240 1020 2230
-6
6 1020 2200 1230 2220
2 2 0 0 0 38 19 0 20 0.000 0 1 -1 0 0 5
	 1020 2210 1230 2210 1230 2220 1020 2220 1020 2210
2 2 0 0 0 35 19 0 20 0.000 0 1 -1 0 0 5
	 1020 2200 1230 2200 1230 2210 1020 2210 1020 2200
-6
-6
2 2 0 1 0 35 19 0 20 0.000 0 1 -1 0 0 5
	 990 2590 1260 2590 1260 2630 990 2630 990 2590
2 1 0 1 0 37 19 0 20 0.000 0 1 -1 0 0 2
	 990 2300 1260 2300
2 2 0 1 0 37 20 0 20 0.000 0 1 -1 0 0 5
	 990 2160 1260 2160 1260 2630 990 2630 990 2160
-6
# Router small icon
# drawn by P. David
6 1125 1440 1620 1935
1 3 0 1 7 1 50 -1 20 0.000 1 0.0000 1350 1665 225 225 1350 1665 1575 1665
1 3 0 0 1 0 51 -1 20 0.000 1 0.0000 1395 1710 225 225 1395 1710 1620 1710
2 1 0 2 6 7 49 -1 -1 0.000 0 0 7 1 0 3
	1 1 1.00 45.00 60.00
	 1395 1485 1395 1620 1530 1620
2 1 0 2 6 7 49 -1 -1 0.000 0 0 7 1 0 3
	1 1 1.00 45.00 60.00
	 1530 1710 1395 1710 1395 1845
2 1 0 2 6 7 49 -1 -1 0.000 0 0 7 1 0 3
	1 1 1.00 45.00 60.00
	 1305 1845 1305 1710 1170 1710
2 1 0 2 6 7 49 -1 -1 0.000 0 0 7 1 0 3
	1 1 1.00 45.00 60.00
	 1170 1620 1305 1620 1305 1485
-6
2 1 0 1 -1 -1 60 0 -1 0.000 0 0 -1 0 0 2
	 675 2025 2925 2025
2 1 0 1 -1 -1 70 0 -1 0.000 0 0 -1 0 0 2
	 1350 1800 1350 2025
2 1 0 1 -1 -1 70 0 -1 0.000 0 0 -1 0 0 2
	 225 1350 2025 1350
2 1 0 1 -1 -1 70 0 -1 0.000 0 0 -1 0 0 2
	 1350 1350 1350 1575
2 1 0 1 -1 -1 70 0 -1 0.000 0 0 -1 0 0 2
	 2475 2025 2475 2205
2 1 0 1 -1 -1 70 0 -1 0.000 0 0 -1 0 0 2
	 675 1125 675 1350
2 1 0 1 -1 -1 70 0 -1 0.000 0 0 -1 0 0 2
	 1125 2025 1125 2250
4 2 -1 0 0 16 8 0.0000 4 105 810 945 2340 Serveur local\001
4 2 -1 0 0 16 8 0.0000 4 105 675 945 2475 d'adresses\001
4 0 -1 0 0 16 8 0.0000 4 105 1200 855 1080 Serveur d'adresses\001
4 2 -1 0 0 16 8 0.0000 4 105 525 2250 2340 Noeud \340\001
4 2 -1 0 0 16 8 0.0000 4 135 615 2250 2475 configurer\001
4 0 -1 0 0 16 8 0.0000 4 105 495 1665 1710 Routeur\001
