#FIG 3.2  Produced by xfig version 3.2.5c
Portrait
Center
Metric
A4      
100.00
Single
-2
1200 2
2 1 0 1 -1 7 50 0 -1 0.000 0 0 7 0 0 2
	 1125 225 1125 450
2 1 0 1 -1 7 50 0 -1 0.000 0 0 7 0 0 2
	 2025 225 2025 450
2 1 0 1 -1 7 50 0 -1 0.000 0 0 7 0 0 2
	 225 450 3825 450
2 1 0 1 -1 7 50 0 -1 0.000 0 0 7 0 0 2
	 2025 450 2025 675
2 1 0 1 -1 7 50 0 -1 0.000 0 0 7 0 0 2
	 225 675 3825 675
2 1 0 1 -1 7 50 0 -1 0.000 0 0 7 0 0 2
	 225 1125 3825 1125
2 1 0 1 -1 7 50 0 -1 0.000 0 0 7 0 0 4
	 225 1350 225 225 3825 225 3825 1350
2 1 1 1 -1 7 50 0 -1 4.000 0 0 7 0 0 2
	 225 1350 225 1665
2 1 1 1 -1 7 50 0 -1 4.000 0 0 7 0 0 2
	 3825 1350 3825 1665
2 1 0 1 -1 7 50 0 -1 0.000 0 0 7 0 0 4
	 225 1665 225 1755 3825 1755 3825 1665
2 2 0 0 -1 6 51 -1 36 0.000 0 0 -1 0 0 5
	 225 225 3825 225 3825 1755 225 1755 225 225
2 2 0 0 -1 0 52 -1 20 0.000 0 0 -1 0 0 5
	 270 270 3870 270 3870 1800 270 1800 270 270
4 1 -1 50 0 16 8 0.0000 4 105 675 2925 405 Checksum\001
4 1 -1 50 0 16 8 0.0000 4 90 150 3825 180 31\001
4 1 -1 50 0 16 8 0.0000 4 90 150 2925 180 24\001
4 1 -1 50 0 16 8 0.0000 4 90 150 2025 180 16\001
4 1 -1 50 0 16 8 0.0000 4 90 75 1125 180 8\001
4 1 -1 50 0 16 8 0.0000 4 90 75 225 180 0\001
4 1 -1 50 0 16 8 0.0000 4 135 315 675 405 Type\001
4 1 -1 50 0 16 8 0.0000 4 105 405 2025 945 Nonce\001
4 1 -1 50 0 16 8 0.0000 4 135 345 2925 630 Flags\001
4 1 -1 50 0 16 8 0.0000 4 105 330 1575 405 Code\001
4 1 -1 50 0 16 8 0.0000 4 135 375 1125 630 Qtype\001
4 1 -1 50 0 16 8 0.0000 4 105 300 2025 1305 Data\001
