#FIG 3.2  Produced by xfig version 3.2.5c
Portrait
Center
Metric
A4      
100.00
Single
-2
1200 2
2 2 0 1 -1 6 51 0 38 0.000 0 0 0 0 0 5
	 3825 675 225 675 225 225 3825 225 3825 675
2 1 0 1 -1 -1 50 0 -1 0.000 0 0 -1 0 0 2
	 3645 225 3645 450
2 1 0 1 -1 -1 50 0 -1 0.000 0 0 -1 0 0 2
	 3330 225 3330 450
2 1 0 1 -1 -1 50 0 -1 0.000 0 0 -1 0 0 2
	 2025 225 2025 450
2 1 0 1 -1 -1 50 0 -1 0.000 0 0 -1 0 0 2
	 1125 225 1125 450
2 1 0 1 -1 -1 50 0 -1 0.000 0 0 -1 0 0 2
	 225 450 3825 450
2 2 0 1 -1 0 52 0 20 0.000 0 0 0 0 0 5
	 3870 720 270 720 270 270 3870 270 3870 720
4 1 -1 50 0 16 8 0.0000 4 105 600 1575 405 Reserved\001
4 1 -1 50 0 16 8 0.0000 4 105 795 675 405 Next Header\001
4 1 -1 50 0 16 8 0.0000 4 135 1035 2700 405 Fragment Offset\001
4 1 -1 50 0 16 8 0.0000 4 105 255 3465 405 Res\001
4 1 -1 50 0 16 8 0.0000 4 105 120 3735 405 M\001
4 1 -1 50 0 16 8 0.0000 4 105 795 2025 630 Identification\001
4 0 -1 50 0 16 8 0.0000 4 90 150 2025 180 16\001
4 0 -1 50 0 16 8 0.0000 4 90 75 1125 180 8\001
4 0 -1 50 0 16 8 0.0000 4 90 75 225 180 0\001
4 0 -1 50 0 16 8 0.0000 4 90 150 2925 180 24\001
4 2 -1 50 0 16 8 0.0000 4 90 150 3825 180 31\001
