#FIG 3.2
Portrait
Center
Metric
A4      
100.00
Single
-2
1200 2
2 2 0 1 -1 -1 0 0 -1 0.000 0 0 0 0 0 5
	 900 2700 900 2025 450 2025 450 2700 900 2700
2 1 0 1 -1 -1 0 0 -1 0.000 0 0 -1 0 0 2
	 450 2250 900 2250
2 2 0 1 -1 -1 0 0 -1 0.000 0 0 0 0 0 5
	 2250 2700 2250 2025 1800 2025 1800 2700 2250 2700
2 1 0 1 -1 -1 0 0 -1 0.000 0 0 -1 0 0 2
	 1800 2250 2250 2250
2 2 0 1 -1 -1 0 0 -1 0.000 0 0 0 0 0 5
	 3600 2700 3600 2025 3150 2025 3150 2700 3600 2700
2 1 0 1 -1 -1 0 0 -1 0.000 0 0 -1 0 0 2
	 3150 2250 3600 2250
2 2 0 1 -1 -1 0 0 -1 0.000 0 0 0 0 0 5
	 900 1575 900 1350 450 1350 450 1575 900 1575
2 2 0 1 -1 -1 0 0 -1 0.000 0 0 0 0 0 5
	 1575 900 1575 675 1125 675 1125 900 1575 900
2 1 0 1 -1 -1 0 0 -1 0.000 0 0 -1 0 0 2
	 405 1125 1485 1125
2 1 0 1 -1 -1 0 0 -1 0.000 0 0 -1 0 0 2
	 1350 900 1350 1125
2 1 0 1 -1 -1 0 0 -1 0.000 0 0 -1 0 0 2
	 1350 450 1350 675
2 1 0 1 -1 -1 0 0 -1 0.000 0 0 -1 0 0 2
	 675 1125 675 1350
2 1 0 1 -1 -1 0 0 -1 0.000 0 0 -1 0 0 2
	 990 450 3420 450
2 2 0 1 -1 -1 0 0 -1 0.000 0 0 0 0 0 5
	 2925 900 2925 675 2475 675 2475 900 2925 900
2 2 0 1 -1 -1 0 0 -1 0.000 0 0 0 0 0 5
	 3600 1575 3600 1350 3150 1350 3150 1575 3600 1575
2 1 0 1 -1 -1 0 0 -1 0.000 0 0 -1 0 0 2
	 2565 1125 3645 1125
2 1 0 1 -1 -1 0 0 -1 0.000 0 0 -1 0 0 2
	 2700 900 2700 1125
2 1 0 1 -1 -1 0 0 -1 0.000 0 0 -1 0 0 2
	 2700 450 2700 675
2 1 0 1 -1 -1 0 0 -1 0.000 0 0 -1 0 0 2
	 3375 1125 3375 1350
4 1 -1 0 0 16 8 0.0000 4 90 165 1350 855 V4\001
4 1 -1 0 0 16 8 0.0000 4 90 165 1710 855 R1\001
4 1 -1 0 0 16 8 0.0000 4 90 165 2340 855 R2\001
4 1 -1 0 0 16 8 0.0000 4 90 165 2700 855 V4\001
4 1 -1 0 0 16 8 0.0000 4 90 165 3375 1530 V4\001
4 1 -1 0 0 16 8 0.0000 4 90 90 3735 1530 B\001
4 1 -1 0 0 16 8 0.0000 4 105 360 675 1530 V6/V4\001
4 1 -1 0 0 16 8 0.0000 4 90 90 315 1530 A\001
4 1 -1 0 0 16 8 0.0000 4 90 270 675 2205 IPv4\001
4 1 -1 0 0 16 8 0.0000 4 105 255 675 2520 Data\001
4 1 -1 0 0 16 8 0.0000 4 105 255 2025 2520 Data\001
4 1 -1 0 0 16 8 0.0000 4 90 270 2025 2205 IPv4\001
4 1 -1 0 0 16 8 0.0000 4 90 270 3375 2205 IPv4\001
4 1 -1 0 0 16 8 0.0000 4 105 255 3375 2520 Data\001
