#FIG 3.2  Produced by xfig version 3.2.5c
Portrait
Center
Metric
A4      
100.00
Single
-3
1200 2
2 1 0 1 -1 -1 50 0 -1 0.000 0 0 -1 0 0 2
	 2025 225 2025 675
2 1 0 1 -1 -1 50 0 -1 0.000 0 0 -1 0 0 2
	 225 450 3825 450
2 1 0 1 -1 -1 50 0 -1 0.000 0 0 -1 0 0 2
	 1125 450 1125 675
2 1 0 1 -1 -1 50 0 -1 0.000 0 0 -1 0 0 2
	 225 675 3825 675
2 1 0 1 -1 -1 50 0 -1 0.000 0 0 -1 0 0 2
	 225 900 3825 900
2 1 0 1 -1 -1 50 0 -1 0.000 0 0 -1 0 0 2
	 2025 900 2025 1350
2 1 0 1 -1 -1 50 0 -1 0.000 0 0 -1 0 0 2
	 225 1125 3825 1125
2 1 0 1 -1 -1 50 0 -1 0.000 0 0 -1 0 0 2
	 225 1350 3825 1350
2 1 0 1 -1 -1 50 0 -1 0.000 0 0 -1 0 0 2
	 225 1575 3825 1575
2 1 0 1 -1 6 51 0 38 0.000 0 0 -1 0 0 2
	 3825 225 3825 1800
2 2 0 1 0 6 51 -1 38 0.000 0 0 -1 0 0 5
	 225 225 3825 225 3825 1800 225 1800 225 225
2 2 0 1 0 0 52 -1 20 0.000 0 0 -1 0 0 5
	 270 270 3870 270 3870 1845 270 1845 270 270
4 0 -1 50 0 16 10 0.0000 4 120 90 225 180 0\001
4 0 -1 50 0 16 10 0.0000 4 120 90 675 180 4\001
4 0 -1 50 0 16 10 0.0000 4 120 90 1125 180 8\001
4 1 -1 50 0 16 8 0.0000 4 135 915 1125 405 Hardware type\001
4 0 -1 50 0 16 10 0.0000 4 120 180 2025 180 16\001
4 0 -1 50 0 16 10 0.0000 4 120 180 2925 180 24\001
4 2 -1 50 0 16 10 0.0000 4 120 180 3825 180 31\001
4 1 -1 50 0 16 8 0.0000 4 135 825 2925 405 Protocol type\001
4 1 -1 50 0 16 8 0.0000 4 135 600 2925 630 Operation\001
4 1 -1 50 0 16 8 0.0000 4 105 315 1575 630 PLen\001
4 1 -1 50 0 16 8 0.0000 4 105 330 675 630 HLen\001
4 1 -1 50 0 16 8 0.0000 4 135 1440 2025 855 Sender HA (octets 0-3)\001
4 1 -1 50 0 16 8 0.0000 4 135 1440 1125 1080 Sender HA (octets 4-5)\001
4 1 -1 50 0 16 8 0.0000 4 135 1410 2925 1305 Target HA (octets 0-1)\001
4 1 -1 50 0 4 8 0.0000 0 135 1380 1125 1305 Sender IP (octets 2-3)\001
4 1 -1 50 0 16 8 0.0000 4 135 1410 2025 1530 Target HA (octets 2-5)\001
4 1 -1 50 0 16 8 0.0000 4 135 1350 2025 1755 Target IP (octets 0-3)\001
4 1 -1 50 0 16 8 0.0000 4 135 1380 2925 1080 Sender IP (octets 0-1)\001
