#FIG 3.2  Produced by xfig version 3.2.5b
Portrait
Center
Metric
A4      
100.00
Single
-2
1200 2
2 1 0 1 -1 -1 0 0 -1 0.000 0 0 -1 0 0 2
	 135 225 2025 225
2 1 0 1 -1 -1 0 0 -1 0.000 0 0 -1 0 0 2
	 1350 225 1350 450
2 1 0 1 -1 -1 0 0 -1 0.000 0 0 -1 0 0 4
	 1575 675 2385 585 2205 765 2970 675
2 1 0 1 -1 -1 0 0 -1 0.000 0 0 -1 0 0 2
	 450 225 450 450
2 2 0 1 -1 -1 0 0 -1 0.000 0 0 0 0 0 5
	 1575 900 1575 450 1125 450 1125 900 1575 900
2 2 0 1 -1 -1 0 0 -1 0.000 0 0 0 0 0 5
	 675 900 675 450 225 450 225 900 675 900
4 1 -1 0 0 16 14 0.0000 4 180 165 450 765 A\001
4 1 -1 0 0 16 14 0.0000 4 180 165 1350 765 B\001
4 0 -1 0 0 16 10 0.0000 4 150 1275 225 180 Ethernet (1 Gb/s)\001
4 0 -1 0 0 16 10 0.0000 4 120 675 2205 990 100 Mb/s\001
4 0 -1 0 0 16 10 0.0000 4 165 1695 1935 540 Liaison longue distance\001
