#FIG 3.2
Portrait
Center
Metric
A4      
100.00
Single
-2
1200 2
2 2 0 1 -1 -1 0 0 -1 0.000 0 0 0 0 0 5
	 675 675 675 225 225 225 225 675 675 675
2 2 0 1 -1 -1 0 0 -1 0.000 0 0 0 0 0 5
	 1800 675 1800 225 1350 225 1350 675 1800 675
2 2 0 1 -1 -1 0 0 -1 0.000 0 0 0 0 0 5
	 1575 1575 1575 1125 1125 1125 1125 1575 1575 1575
2 1 0 1 -1 -1 0 0 -1 0.000 0 0 -1 0 0 2
	 90 900 2205 900
2 1 0 1 -1 -1 0 0 -1 0.000 0 0 -1 0 0 2
	 450 675 450 900
2 1 0 1 -1 -1 0 0 -1 0.000 0 0 -1 0 0 2
	 1575 675 1575 900
2 1 0 1 -1 -1 0 0 -1 0.000 0 0 -1 0 0 2
	 1350 900 1350 1125
2 1 0 1 -1 -1 0 0 -1 0.000 0 0 -1 0 0 2
	 1350 1575 1350 1800
2 1 0 1 -1 -1 0 0 -1 0.000 0 0 -1 0 0 2
	 900 1800 3150 1800
2 1 0 1 -1 -1 0 0 -1 0.000 0 0 -1 0 0 2
	 2700 1575 2700 1800
2 2 0 1 -1 -1 0 0 -1 0.000 0 0 0 0 0 5
	 2925 1575 2925 1125 2475 1125 2475 1575 2925 1575
4 1 -1 0 0 16 14 0.0000 4 165 165 450 540 A\001
4 1 -1 0 0 16 14 0.0000 4 165 135 1575 540 B\001
4 1 -1 0 0 16 14 0.0000 4 165 150 1350 1440 C\001
4 1 -1 0 0 16 14 0.0000 4 165 150 2700 1440 D\001
