#FIG 3.2  Produced by xfig version 3.2.5c
Portrait
Center
Metric
A4      
100.00
Single
-2
1200 2
0 32 #c6b797
0 33 #eff8ff
0 34 #dccba6
0 35 #404040
0 36 #808080
0 37 #c0c0c0
0 38 #e0e0e0
0 39 #8e8f8e
0 40 #aaaaaa
0 41 #555555
0 42 #c7c3c7
0 43 #565151
0 44 #8e8e8e
0 45 #d7d7d7
0 46 #85807d
0 47 #d2d2d2
0 48 #3a3a3a
0 49 #4573aa
0 50 #aeaeae
0 51 #7b79a5
0 52 #444444
0 53 #73758c
0 54 #f7f7f7
0 55 #414541
0 56 #635dce
0 57 #bebebe
0 58 #515151
0 59 #e7e3e7
0 60 #000049
0 61 #797979
0 62 #303430
0 63 #414141
0 64 #c7b696
# Desktop computer
6 2610 450 3000 945
6 2642 458 2973 761
2 2 0 1 0 38 20 0 20 0.000 2 0 7 0 0 5
	 2642 458 2973 458 2973 734 2642 734 2642 458
2 2 0 0 0 35 19 0 22 0.000 1 0 -1 0 0 5
	 2903 485 2876 485 2876 706 2903 706 2903 485
2 2 0 0 0 35 19 0 24 0.000 1 0 -1 0 0 5
	 2876 485 2848 485 2848 706 2876 706 2876 485
2 2 0 0 0 35 19 0 26 0.000 1 0 -1 0 0 5
	 2848 485 2807 485 2807 706 2848 706 2848 485
2 2 0 0 0 35 19 0 28 0.000 1 0 -1 0 0 5
	 2807 485 2766 485 2766 706 2807 706 2807 485
2 2 0 0 0 35 19 0 30 0.000 1 0 -1 0 0 5
	 2766 485 2739 485 2739 706 2766 706 2766 485
2 2 0 0 0 35 19 0 33 0.000 1 0 -1 0 0 5
	 2739 485 2710 485 2710 706 2739 706 2739 485
2 2 0 0 0 35 19 0 33 0.000 1 0 -1 0 0 5
	 2710 485 2683 485 2683 706 2710 706 2710 485
2 2 0 1 0 36 20 0 20 0.000 2 0 7 0 0 5
	 2739 734 2876 734 2876 747 2739 747 2739 734
2 2 0 1 0 36 20 0 20 0.000 2 0 -1 0 0 5
	 2725 747 2890 747 2890 761 2725 761 2725 747
2 2 0 0 0 35 19 0 20 0.000 1 0 7 0 0 5
	 2931 485 2903 485 2903 706 2931 706 2931 485
3 5 0 0 0 37 18 0 20 0.000 0 0 0 4
	 2669 485 2669 706 2683 692 2683 499
	 0.000 0.000 0.000 0.000
3 5 0 0 0 7 18 0 20 0.000 0 0 0 5
	 2669 706 2683 692 2810 698 2931 692 2944 706
	 0.000 0.000 -1.000 0.000 0.000
3 5 0 0 0 37 18 0 20 0.000 0 0 0 4
	 2944 485 2944 706 2931 692 2931 499
	 0.000 0.000 0.000 0.000
3 5 0 0 0 36 18 0 20 0.000 0 0 0 5
	 2669 485 2683 499 2810 494 2931 499 2944 485
	 0.000 0.000 -1.000 0.000 0.000
-6
6 2614 857 2999 941
2 3 0 1 0 38 20 0 20 0.000 2 0 7 0 0 7
	 2656 857 2958 857 2999 927 2999 941 2614 941 2614 927
	 2656 857
2 1 0 1 0 37 19 0 20 0.000 2 0 -1 0 0 4
	 2614 927 2614 941 2999 941 2999 927
2 3 0 0 0 7 19 0 20 0.000 2 0 -1 0 0 5
	 2669 872 2642 913 2890 913 2876 872 2669 872
2 2 0 0 0 36 18 0 20 0.000 2 0 -1 0 0 5
	 2642 913 2890 913 2890 918 2642 918 2642 913
2 3 0 0 0 37 18 0 20 0.000 2 0 -1 0 0 9
	 2664 872 2642 913 2683 913 2689 899 2679 899 2685 886
	 2676 886 2683 872 2664 872
2 3 0 0 0 37 18 0 20 0.000 2 0 -1 0 0 10
	 2890 913 2848 913 2848 899 2857 899 2856 886 2862 886
	 2864 886 2861 872 2879 872 2890 913
2 3 0 0 0 7 19 0 20 0.000 2 0 -1 0 0 5
	 2944 872 2890 872 2903 913 2973 913 2944 872
2 3 0 0 0 37 18 0 20 0.000 2 0 -1 0 0 7
	 2973 913 2960 913 2944 880 2892 880 2890 872 2950 872
	 2973 913
2 2 0 0 0 36 18 0 20 0.000 2 0 -1 0 0 5
	 2903 913 2973 913 2973 918 2903 918 2903 913
2 3 0 0 0 36 18 0 20 0.000 2 0 -1 0 0 5
	 2903 913 2903 918 2890 876 2890 872 2903 913
-6
6 2649 761 2965 844
6 2853 776 2949 803
6 2853 776 2949 803
2 1 0 1 36 -1 19 0 -1 0.000 2 0 -1 0 0 5
	 2853 789 2853 782 2882 782 2882 776 2919 776
2 1 0 1 36 -1 19 0 -1 0.000 2 0 -1 0 0 3
	 2882 803 2882 789 2919 789
2 1 0 1 36 -1 19 0 -1 0.000 2 0 -1 0 0 2
	 2919 782 2949 782
2 1 0 1 7 -1 19 0 -1 0.000 2 0 -1 0 0 2
	 2919 776 2919 782
2 1 0 1 7 -1 19 0 -1 0.000 2 0 -1 0 0 2
	 2853 789 2882 789
2 1 0 1 7 -1 19 0 -1 0.000 2 0 -1 0 0 5
	 2882 803 2919 803 2919 789 2949 789 2949 782
2 1 0 1 36 -1 19 0 -1 0.000 2 0 -1 0 0 3
	 2926 803 2942 803 2942 797
2 1 0 1 7 -1 19 0 -1 0.000 2 0 -1 0 0 3
	 2926 803 2926 797 2942 797
-6
-6
2 2 0 1 0 35 20 0 20 0.000 2 0 -1 0 0 5
	 2649 844 2690 844 2690 837 2649 837 2649 844
2 2 0 1 0 35 20 0 20 0.000 2 0 -1 0 0 5
	 2924 844 2965 844 2965 837 2924 837 2924 844
2 2 0 1 0 38 20 0 20 0.000 2 0 -1 0 0 5
	 2649 761 2965 761 2965 837 2649 837 2649 761
-6
-6
# Desktop computer
6 810 405 1200 900
6 842 413 1173 716
2 2 0 1 0 38 20 0 20 0.000 2 0 7 0 0 5
	 842 413 1173 413 1173 689 842 689 842 413
2 2 0 0 0 35 19 0 22 0.000 1 0 -1 0 0 5
	 1103 440 1076 440 1076 661 1103 661 1103 440
2 2 0 0 0 35 19 0 24 0.000 1 0 -1 0 0 5
	 1076 440 1048 440 1048 661 1076 661 1076 440
2 2 0 0 0 35 19 0 26 0.000 1 0 -1 0 0 5
	 1048 440 1007 440 1007 661 1048 661 1048 440
2 2 0 0 0 35 19 0 28 0.000 1 0 -1 0 0 5
	 1007 440 966 440 966 661 1007 661 1007 440
2 2 0 0 0 35 19 0 30 0.000 1 0 -1 0 0 5
	 966 440 939 440 939 661 966 661 966 440
2 2 0 0 0 35 19 0 33 0.000 1 0 -1 0 0 5
	 939 440 910 440 910 661 939 661 939 440
2 2 0 0 0 35 19 0 33 0.000 1 0 -1 0 0 5
	 910 440 883 440 883 661 910 661 910 440
2 2 0 1 0 36 20 0 20 0.000 2 0 7 0 0 5
	 939 689 1076 689 1076 702 939 702 939 689
2 2 0 1 0 36 20 0 20 0.000 2 0 -1 0 0 5
	 925 702 1090 702 1090 716 925 716 925 702
2 2 0 0 0 35 19 0 20 0.000 1 0 7 0 0 5
	 1131 440 1103 440 1103 661 1131 661 1131 440
3 5 0 0 0 37 18 0 20 0.000 0 0 0 4
	 869 440 869 661 883 647 883 454
	 0.000 0.000 0.000 0.000
3 5 0 0 0 7 18 0 20 0.000 0 0 0 5
	 869 661 883 647 1010 653 1131 647 1144 661
	 0.000 0.000 -1.000 0.000 0.000
3 5 0 0 0 37 18 0 20 0.000 0 0 0 4
	 1144 440 1144 661 1131 647 1131 454
	 0.000 0.000 0.000 0.000
3 5 0 0 0 36 18 0 20 0.000 0 0 0 5
	 869 440 883 454 1010 449 1131 454 1144 440
	 0.000 0.000 -1.000 0.000 0.000
-6
6 814 812 1199 896
2 3 0 1 0 38 20 0 20 0.000 2 0 7 0 0 7
	 856 812 1158 812 1199 882 1199 896 814 896 814 882
	 856 812
2 1 0 1 0 37 19 0 20 0.000 2 0 -1 0 0 4
	 814 882 814 896 1199 896 1199 882
2 3 0 0 0 7 19 0 20 0.000 2 0 -1 0 0 5
	 869 827 842 868 1090 868 1076 827 869 827
2 2 0 0 0 36 18 0 20 0.000 2 0 -1 0 0 5
	 842 868 1090 868 1090 873 842 873 842 868
2 3 0 0 0 37 18 0 20 0.000 2 0 -1 0 0 9
	 864 827 842 868 883 868 889 854 879 854 885 841
	 876 841 883 827 864 827
2 3 0 0 0 37 18 0 20 0.000 2 0 -1 0 0 10
	 1090 868 1048 868 1048 854 1057 854 1056 841 1062 841
	 1064 841 1061 827 1079 827 1090 868
2 3 0 0 0 7 19 0 20 0.000 2 0 -1 0 0 5
	 1144 827 1090 827 1103 868 1173 868 1144 827
2 3 0 0 0 37 18 0 20 0.000 2 0 -1 0 0 7
	 1173 868 1160 868 1144 835 1092 835 1090 827 1150 827
	 1173 868
2 2 0 0 0 36 18 0 20 0.000 2 0 -1 0 0 5
	 1103 868 1173 868 1173 873 1103 873 1103 868
2 3 0 0 0 36 18 0 20 0.000 2 0 -1 0 0 5
	 1103 868 1103 873 1090 831 1090 827 1103 868
-6
6 849 716 1165 799
6 1053 731 1149 758
6 1053 731 1149 758
2 1 0 1 36 -1 19 0 -1 0.000 2 0 -1 0 0 5
	 1053 744 1053 737 1082 737 1082 731 1119 731
2 1 0 1 36 -1 19 0 -1 0.000 2 0 -1 0 0 3
	 1082 758 1082 744 1119 744
2 1 0 1 36 -1 19 0 -1 0.000 2 0 -1 0 0 2
	 1119 737 1149 737
2 1 0 1 7 -1 19 0 -1 0.000 2 0 -1 0 0 2
	 1119 731 1119 737
2 1 0 1 7 -1 19 0 -1 0.000 2 0 -1 0 0 2
	 1053 744 1082 744
2 1 0 1 7 -1 19 0 -1 0.000 2 0 -1 0 0 5
	 1082 758 1119 758 1119 744 1149 744 1149 737
2 1 0 1 36 -1 19 0 -1 0.000 2 0 -1 0 0 3
	 1126 758 1142 758 1142 752
2 1 0 1 7 -1 19 0 -1 0.000 2 0 -1 0 0 3
	 1126 758 1126 752 1142 752
-6
-6
2 2 0 1 0 35 20 0 20 0.000 2 0 -1 0 0 5
	 849 799 890 799 890 792 849 792 849 799
2 2 0 1 0 35 20 0 20 0.000 2 0 -1 0 0 5
	 1124 799 1165 799 1165 792 1124 792 1124 799
2 2 0 1 0 38 20 0 20 0.000 2 0 -1 0 0 5
	 849 716 1165 716 1165 792 849 792 849 716
-6
-6
# Desktop computer
6 675 1665 1065 2160
6 707 1673 1038 1976
2 2 0 1 0 38 20 0 20 0.000 2 0 7 0 0 5
	 707 1673 1038 1673 1038 1949 707 1949 707 1673
2 2 0 0 0 35 19 0 22 0.000 1 0 -1 0 0 5
	 968 1700 941 1700 941 1921 968 1921 968 1700
2 2 0 0 0 35 19 0 24 0.000 1 0 -1 0 0 5
	 941 1700 913 1700 913 1921 941 1921 941 1700
2 2 0 0 0 35 19 0 26 0.000 1 0 -1 0 0 5
	 913 1700 872 1700 872 1921 913 1921 913 1700
2 2 0 0 0 35 19 0 28 0.000 1 0 -1 0 0 5
	 872 1700 831 1700 831 1921 872 1921 872 1700
2 2 0 0 0 35 19 0 30 0.000 1 0 -1 0 0 5
	 831 1700 804 1700 804 1921 831 1921 831 1700
2 2 0 0 0 35 19 0 33 0.000 1 0 -1 0 0 5
	 804 1700 775 1700 775 1921 804 1921 804 1700
2 2 0 0 0 35 19 0 33 0.000 1 0 -1 0 0 5
	 775 1700 748 1700 748 1921 775 1921 775 1700
2 2 0 1 0 36 20 0 20 0.000 2 0 7 0 0 5
	 804 1949 941 1949 941 1962 804 1962 804 1949
2 2 0 1 0 36 20 0 20 0.000 2 0 -1 0 0 5
	 790 1962 955 1962 955 1976 790 1976 790 1962
2 2 0 0 0 35 19 0 20 0.000 1 0 7 0 0 5
	 996 1700 968 1700 968 1921 996 1921 996 1700
3 5 0 0 0 37 18 0 20 0.000 0 0 0 4
	 734 1700 734 1921 748 1907 748 1714
	 0.000 0.000 0.000 0.000
3 5 0 0 0 7 18 0 20 0.000 0 0 0 5
	 734 1921 748 1907 875 1913 996 1907 1009 1921
	 0.000 0.000 -1.000 0.000 0.000
3 5 0 0 0 37 18 0 20 0.000 0 0 0 4
	 1009 1700 1009 1921 996 1907 996 1714
	 0.000 0.000 0.000 0.000
3 5 0 0 0 36 18 0 20 0.000 0 0 0 5
	 734 1700 748 1714 875 1709 996 1714 1009 1700
	 0.000 0.000 -1.000 0.000 0.000
-6
6 679 2072 1064 2156
2 3 0 1 0 38 20 0 20 0.000 2 0 7 0 0 7
	 721 2072 1023 2072 1064 2142 1064 2156 679 2156 679 2142
	 721 2072
2 1 0 1 0 37 19 0 20 0.000 2 0 -1 0 0 4
	 679 2142 679 2156 1064 2156 1064 2142
2 3 0 0 0 7 19 0 20 0.000 2 0 -1 0 0 5
	 734 2087 707 2128 955 2128 941 2087 734 2087
2 2 0 0 0 36 18 0 20 0.000 2 0 -1 0 0 5
	 707 2128 955 2128 955 2133 707 2133 707 2128
2 3 0 0 0 37 18 0 20 0.000 2 0 -1 0 0 9
	 729 2087 707 2128 748 2128 754 2114 744 2114 750 2101
	 741 2101 748 2087 729 2087
2 3 0 0 0 37 18 0 20 0.000 2 0 -1 0 0 10
	 955 2128 913 2128 913 2114 922 2114 921 2101 927 2101
	 929 2101 926 2087 944 2087 955 2128
2 3 0 0 0 7 19 0 20 0.000 2 0 -1 0 0 5
	 1009 2087 955 2087 968 2128 1038 2128 1009 2087
2 3 0 0 0 37 18 0 20 0.000 2 0 -1 0 0 7
	 1038 2128 1025 2128 1009 2095 957 2095 955 2087 1015 2087
	 1038 2128
2 2 0 0 0 36 18 0 20 0.000 2 0 -1 0 0 5
	 968 2128 1038 2128 1038 2133 968 2133 968 2128
2 3 0 0 0 36 18 0 20 0.000 2 0 -1 0 0 5
	 968 2128 968 2133 955 2091 955 2087 968 2128
-6
6 714 1976 1030 2059
6 918 1991 1014 2018
6 918 1991 1014 2018
2 1 0 1 36 -1 19 0 -1 0.000 2 0 -1 0 0 5
	 918 2004 918 1997 947 1997 947 1991 984 1991
2 1 0 1 36 -1 19 0 -1 0.000 2 0 -1 0 0 3
	 947 2018 947 2004 984 2004
2 1 0 1 36 -1 19 0 -1 0.000 2 0 -1 0 0 2
	 984 1997 1014 1997
2 1 0 1 7 -1 19 0 -1 0.000 2 0 -1 0 0 2
	 984 1991 984 1997
2 1 0 1 7 -1 19 0 -1 0.000 2 0 -1 0 0 2
	 918 2004 947 2004
2 1 0 1 7 -1 19 0 -1 0.000 2 0 -1 0 0 5
	 947 2018 984 2018 984 2004 1014 2004 1014 1997
2 1 0 1 36 -1 19 0 -1 0.000 2 0 -1 0 0 3
	 991 2018 1007 2018 1007 2012
2 1 0 1 7 -1 19 0 -1 0.000 2 0 -1 0 0 3
	 991 2018 991 2012 1007 2012
-6
-6
2 2 0 1 0 35 20 0 20 0.000 2 0 -1 0 0 5
	 714 2059 755 2059 755 2052 714 2052 714 2059
2 2 0 1 0 35 20 0 20 0.000 2 0 -1 0 0 5
	 989 2059 1030 2059 1030 2052 989 2052 989 2059
2 2 0 1 0 38 20 0 20 0.000 2 0 -1 0 0 5
	 714 1976 1030 1976 1030 2052 714 2052 714 1976
-6
-6
6 1665 450 2160 945
# Router small icon
# drawn by P. David
6 1665 450 2160 945
1 3 0 1 7 1 50 -1 20 0.000 1 0.0000 1890 675 225 225 1890 675 2115 675
1 3 0 0 0 0 51 -1 20 0.000 1 0.0000 1935 720 225 225 1935 720 2160 720
2 1 0 2 6 7 49 -1 -1 0.000 0 0 7 1 0 3
	1 1 1.00 45.00 60.00
	 1935 495 1935 630 2070 630
2 1 0 2 6 7 49 -1 -1 0.000 0 0 7 1 0 3
	1 1 1.00 45.00 60.00
	 2070 720 1935 720 1935 855
2 1 0 2 6 7 49 -1 -1 0.000 0 0 7 1 0 3
	1 1 1.00 45.00 60.00
	 1845 855 1845 720 1710 720
2 1 0 2 6 7 49 -1 -1 0.000 0 0 7 1 0 3
	1 1 1.00 45.00 60.00
	 1710 630 1845 630 1845 495
-6
-6
6 1440 1350 1935 1845
# Router small icon
# drawn by P. David
6 1440 1350 1935 1845
1 3 0 1 7 1 50 -1 20 0.000 1 0.0000 1665 1575 225 225 1665 1575 1890 1575
1 3 0 0 0 0 51 -1 20 0.000 1 0.0000 1710 1620 225 225 1710 1620 1935 1620
2 1 0 2 6 7 49 -1 -1 0.000 0 0 7 1 0 3
	1 1 1.00 45.00 60.00
	 1710 1395 1710 1530 1845 1530
2 1 0 2 6 7 49 -1 -1 0.000 0 0 7 1 0 3
	1 1 1.00 45.00 60.00
	 1845 1620 1710 1620 1710 1755
2 1 0 2 6 7 49 -1 -1 0.000 0 0 7 1 0 3
	1 1 1.00 45.00 60.00
	 1620 1755 1620 1620 1485 1620
2 1 0 2 6 7 49 -1 -1 0.000 0 0 7 1 0 3
	1 1 1.00 45.00 60.00
	 1485 1530 1620 1530 1620 1395
-6
-6
6 1440 2250 1935 2745
# Router small icon
# drawn by P. David
6 1440 2250 1935 2745
1 3 0 1 7 1 50 -1 20 0.000 1 0.0000 1665 2475 225 225 1665 2475 1890 2475
1 3 0 0 0 0 51 -1 20 0.000 1 0.0000 1710 2520 225 225 1710 2520 1935 2520
2 1 0 2 6 7 49 -1 -1 0.000 0 0 7 1 0 3
	1 1 1.00 45.00 60.00
	 1710 2295 1710 2430 1845 2430
2 1 0 2 6 7 49 -1 -1 0.000 0 0 7 1 0 3
	1 1 1.00 45.00 60.00
	 1845 2520 1710 2520 1710 2655
2 1 0 2 6 7 49 -1 -1 0.000 0 0 7 1 0 3
	1 1 1.00 45.00 60.00
	 1620 2655 1620 2520 1485 2520
2 1 0 2 6 7 49 -1 -1 0.000 0 0 7 1 0 3
	1 1 1.00 45.00 60.00
	 1485 2430 1620 2430 1620 2295
-6
-6
6 2025 1890 3825 3060
1 2 0 1 0 11 50 -1 36 0.000 1 0.0000 2778 2777 398 240 2381 2537 3176 3018
1 2 0 1 0 11 50 -1 36 0.000 1 0.0000 2538 2296 199 283 2737 2579 2339 2014
1 2 0 1 0 11 50 -1 36 0.000 1 0.0000 2872 2170 282 241 2590 2411 3155 1930
1 2 0 1 0 11 50 -1 36 0.000 1 0.0000 3124 2066 220 115 2904 2181 3344 1951
1 2 0 1 0 11 50 -1 36 0.000 1 0.0000 3532 2547 272 261 3260 2286 3804 2809
1 2 0 1 0 11 50 -1 36 0.000 1 0.0000 3207 2788 261 251 2946 2537 3469 3039
1 2 0 1 0 11 50 -1 36 0.000 1 0.0000 3344 2254 314 199 3030 2453 3658 2055
1 2 0 1 0 11 50 -1 36 0.000 1 0.0000 3417 2725 240 209 3176 2516 3658 2934
1 2 0 1 0 11 51 -1 36 0.000 1 0.0000 2444 2474 398 314 2046 2474 2842 2474
2 2 0 0 7 11 40 -1 36 0.000 0 0 -1 0 0 5
	 2276 2265 3595 2265 3595 2725 2276 2725 2276 2265
2 2 0 0 7 11 40 -1 36 0.000 0 0 -1 0 0 5
	 2758 2055 3302 2055 3302 2348 2758 2348 2758 2055
2 2 0 0 7 11 40 -1 36 0.000 0 0 -1 0 0 5
	 3051 2767 3239 2767 3239 2934 3051 2934 3051 2767
2 2 0 0 7 11 40 -1 36 0.000 0 0 -1 0 0 5
	 2883 2600 3511 2600 3511 2872 2883 2872 2883 2600
2 2 0 0 7 11 40 -1 36 0.000 0 0 -1 0 0 5
	 2548 2097 2695 2097 2695 2328 2548 2328 2548 2097
2 2 0 0 7 11 40 -1 36 0.000 0 0 -1 0 0 5
	 3427 2537 3678 2537 3678 2704 3427 2704 3427 2537
2 2 0 0 7 11 40 -1 36 0.000 0 0 -1 0 0 5
	 2883 2014 2988 2014 2988 2118 2883 2118 2883 2014
4 1 -1 30 0 17 14 0.0000 4 180 795 2925 2565 Internet\001
-6
2 1 0 1 -1 -1 0 0 -1 0.000 0 0 -1 0 0 2
	 1890 900 1890 1125
2 1 0 1 -1 -1 55 0 -1 0.000 0 0 -1 0 0 2
	 1890 2475 2475 2475
2 1 0 1 -1 -1 50 0 -1 0.000 0 0 -1 0 0 2
	 1440 225 3015 225
2 1 0 1 -1 -1 50 0 -1 0.000 0 0 -1 0 0 2
	 1890 225 1890 450
2 1 0 1 -1 -1 50 0 -1 0.000 0 0 -1 0 0 2
	 2790 225 2790 450
2 1 0 1 -1 -1 50 0 -1 0.000 0 0 -1 0 0 2
	 990 900 990 1125
2 1 0 1 -1 -1 50 0 -1 0.000 0 0 -1 0 0 2
	 585 1125 2115 1125
2 1 0 1 -1 -1 50 0 -1 0.000 0 0 -1 0 0 2
	 1665 1125 1665 1350
2 1 0 1 -1 -1 50 0 -1 0.000 0 0 -1 0 0 2
	 1215 1260 1215 2790
2 1 0 1 -1 -1 50 0 -1 0.000 0 0 -1 0 0 2
	 1215 1575 1440 1575
2 1 0 1 -1 -1 50 0 -1 0.000 0 0 -1 0 0 2
	 1215 2475 1440 2475
2 1 0 1 -1 -1 50 0 -1 0.000 0 0 -1 0 0 2
	 990 2025 1215 2025
4 0 -1 50 0 16 7 0.0000 4 90 630 2835 405 192.25.81.20\001
4 2 -1 50 0 16 7 0.0000 4 90 570 1845 405 192.25.81.1\001
4 2 -1 50 0 16 7 0.0000 4 90 510 945 1080 128.93.1.1\001
4 2 -1 50 0 16 7 0.0000 4 90 690 1395 1530 132.227.60.30\001
4 1 -1 50 0 16 7 0.0000 4 90 750 765 2430 132.227.60.135\001
4 2 -1 50 0 16 7 0.0000 4 90 630 1395 2655 132.227.60.3\001
4 0 -1 50 0 16 7 0.0000 4 90 510 1710 1305 128.93.2.4\001
4 0 -1 50 0 16 7 0.0000 4 90 510 1935 1080 128.93.2.5\001
4 1 -1 50 0 16 12 0.0000 4 150 135 585 1935 A\001
4 1 -1 50 0 16 12 0.0000 4 150 150 720 675 G\001
4 1 -1 50 0 16 12 0.0000 4 150 60 3060 675 I\001
4 1 -1 50 0 16 12 0.0000 4 150 135 1575 720 H\001
4 1 -1 50 0 16 12 0.0000 4 150 135 1665 2205 B\001
4 1 -1 50 0 16 12 0.0000 4 150 120 2025 1665 F\001
