#FIG 3.2  Produced by xfig version 3.2.5c
Portrait
Center
Metric
A4      
100.00
Single
-2
1200 2
6 0 1305 1440 1545
4 2 1 8 0 16 7 0.0000 4 135 1440 1440 1545 l'arbre couvrant\001
4 2 1 8 0 16 7 0.0000 4 135 1440 1440 1440 liaisons formant\001
-6
6 450 1890 945 2385
2 2 0 1 -1 11 52 0 36 0.000 0 0 -1 0 0 5
	 450 1890 900 1890 900 2340 450 2340 450 1890
2 2 0 1 -1 0 55 0 20 0.000 0 0 -1 0 0 5
	 495 1935 945 1935 945 2385 495 2385 495 1935
2 2 0 1 0 6 51 -1 36 0.000 0 0 -1 0 0 5
	 450 2025 495 2025 495 2205 450 2205 450 2025
2 2 0 1 0 6 51 -1 36 0.000 0 0 -1 0 0 5
	 855 2025 900 2025 900 2205 855 2205 855 2025
2 2 0 1 0 6 51 -1 36 0.000 0 0 -1 0 0 5
	 585 1890 765 1890 765 1935 585 1935 585 1890
2 2 0 1 0 6 51 -1 36 0.000 0 0 -1 0 0 5
	 585 2340 765 2340 765 2295 585 2295 585 2340
-6
6 1800 1890 2295 2385
2 2 0 1 -1 11 52 0 36 0.000 0 0 -1 0 0 5
	 1800 1890 2250 1890 2250 2340 1800 2340 1800 1890
2 2 0 1 -1 0 55 0 20 0.000 0 0 -1 0 0 5
	 1845 1935 2295 1935 2295 2385 1845 2385 1845 1935
2 2 0 1 0 6 51 -1 36 0.000 0 0 -1 0 0 5
	 1800 2025 1845 2025 1845 2205 1800 2205 1800 2025
2 2 0 1 0 6 51 -1 36 0.000 0 0 -1 0 0 5
	 2205 2025 2250 2025 2250 2205 2205 2205 2205 2025
2 2 0 1 0 6 51 -1 36 0.000 0 0 -1 0 0 5
	 1935 1890 2115 1890 2115 1935 1935 1935 1935 1890
2 2 0 1 0 6 51 -1 36 0.000 0 0 -1 0 0 5
	 1935 2340 2115 2340 2115 2295 1935 2295 1935 2340
-6
6 1800 540 2295 1035
2 2 0 1 -1 11 52 0 36 0.000 0 0 -1 0 0 5
	 1800 540 2250 540 2250 990 1800 990 1800 540
2 2 0 1 -1 0 55 0 20 0.000 0 0 -1 0 0 5
	 1845 585 2295 585 2295 1035 1845 1035 1845 585
2 2 0 1 0 6 51 -1 36 0.000 0 0 -1 0 0 5
	 1800 675 1845 675 1845 855 1800 855 1800 675
2 2 0 1 0 6 51 -1 36 0.000 0 0 -1 0 0 5
	 2205 675 2250 675 2250 855 2205 855 2205 675
2 2 0 1 0 6 51 -1 36 0.000 0 0 -1 0 0 5
	 1935 540 2115 540 2115 585 1935 585 1935 540
2 2 0 1 0 6 51 -1 36 0.000 0 0 -1 0 0 5
	 1935 990 2115 990 2115 945 1935 945 1935 990
-6
6 450 540 945 1035
2 2 0 1 -1 11 52 0 36 0.000 0 0 -1 0 0 5
	 450 540 900 540 900 990 450 990 450 540
2 2 0 1 -1 0 55 0 20 0.000 0 0 -1 0 0 5
	 495 585 945 585 945 1035 495 1035 495 585
2 2 0 1 0 6 51 -1 36 0.000 0 0 -1 0 0 5
	 450 675 495 675 495 855 450 855 450 675
2 2 0 1 0 6 51 -1 36 0.000 0 0 -1 0 0 5
	 855 675 900 675 900 855 855 855 855 675
2 2 0 1 0 6 51 -1 36 0.000 0 0 -1 0 0 5
	 585 540 765 540 765 585 585 585 585 540
2 2 0 1 0 6 51 -1 36 0.000 0 0 -1 0 0 5
	 585 990 765 990 765 945 585 945 585 990
-6
2 1 0 1 0 6 50 -1 36 0.000 0 0 -1 0 0 2
	 900 765 1800 765
2 1 0 1 0 6 50 -1 36 0.000 0 0 -1 0 0 2
	 675 990 675 1890
2 1 0 1 0 6 50 -1 36 0.000 0 0 -1 0 0 2
	 2025 990 2025 1890
2 1 0 1 0 6 50 -1 36 0.000 0 0 -1 0 0 2
	 360 360 990 360
2 1 0 1 0 6 50 -1 36 0.000 0 0 -1 0 0 2
	 450 765 270 765
2 1 0 1 0 6 50 -1 36 0.000 0 0 -1 0 0 2
	 270 450 270 1080
2 1 0 1 0 6 50 -1 36 0.000 0 0 -1 0 0 2
	 2025 360 2025 540
2 1 0 1 0 6 50 -1 36 0.000 0 0 -1 0 0 2
	 2430 765 2250 765
2 1 0 1 0 6 50 -1 36 0.000 0 0 -1 0 0 2
	 2430 2115 2250 2115
2 1 0 1 0 6 50 -1 36 0.000 0 0 -1 0 0 2
	 450 2115 270 2115
2 1 0 1 0 6 50 -1 36 0.000 0 0 -1 0 0 2
	 675 2340 675 2520
2 1 0 1 0 6 50 -1 36 0.000 0 0 -1 0 0 2
	 2025 2340 2025 2520
2 1 0 1 0 6 50 -1 36 0.000 0 0 -1 0 0 2
	 2430 450 2430 1080
2 1 0 1 0 6 50 -1 36 0.000 0 0 -1 0 0 2
	 2430 1800 2430 2430
2 1 0 1 0 6 50 -1 36 0.000 0 0 -1 0 0 2
	 270 1800 270 2430
2 1 0 1 0 6 50 -1 36 0.000 0 0 -1 0 0 2
	 1710 360 2340 360
2 1 0 1 0 6 50 -1 36 0.000 0 0 -1 0 0 2
	 360 2520 990 2520
2 1 0 1 0 6 50 -1 36 0.000 0 0 -1 0 0 2
	 1710 2520 2340 2520
2 1 0 1 0 6 50 -1 36 0.000 0 0 -1 0 0 2
	 900 2115 1800 2115
2 1 0 1 0 6 50 -1 36 0.000 0 0 -1 0 0 2
	 675 360 675 540
2 1 0 3 4 7 10 -1 -1 0.000 0 0 7 1 0 2
	1 1 1.00 60.00 79.50
	 540 720 1755 720
2 1 0 3 4 7 10 -1 -1 0.000 0 0 7 1 0 2
	1 1 1.00 60.00 79.50
	 1890 720 2385 720
2 1 0 3 4 7 10 0 -1 0.000 0 0 7 1 0 2
	1 1 1.00 60.00 79.50
	 2070 1980 2070 2475
2 1 0 3 4 7 10 0 -1 0.000 0 0 7 1 0 2
	1 1 1.00 60.00 79.50
	 810 2160 315 2160
3 0 1 1 1 7 8 -1 -1 3.000 0 1 0 4
	1 0 1.00 60.00 79.50
	 1485 1485 1665 1395 1710 1125 1395 810
	 0.000 1.000 1.000 0.000
3 0 1 1 1 7 8 -1 -1 3.000 0 1 0 3
	1 0 1.00 60.00 79.50
	 1485 1485 1755 1575 1980 1440
	 0.000 1.000 0.000
3 0 1 1 1 7 8 -1 -1 3.000 0 1 0 4
	1 0 1.00 60.00 79.50
	 1485 1485 1620 1620 1665 1800 1440 2070
	 0.000 1.000 1.000 0.000
3 0 0 3 4 7 10 -1 -1 0.000 0 1 0 2
	1 1 1.00 60.00 79.50
	 180 720 405 720
	 0.000 0.000
3 0 0 3 4 7 10 0 -1 0.000 0 1 0 4
	1 1 1.00 60.00 79.50
	 540 720 675 720 720 675 720 405
	 0.000 1.000 1.000 0.000
3 0 0 3 4 7 10 0 -1 0.000 0 1 0 5
	1 1 1.00 60.00 79.50
	 1890 720 2025 720 2070 675 2070 585 2070 405
	 0.000 1.000 1.000 1.000 0.000
3 0 0 3 4 7 10 0 -1 0.000 0 1 0 5
	1 1 1.00 60.00 79.50
	 1890 720 2025 720 2070 765 2070 900 2070 1890
	 0.000 1.000 1.000 1.000 0.000
3 0 0 3 4 7 10 0 -1 0.000 0 1 0 4
	1 1 1.00 60.00 79.50
	 2070 1980 2070 2115 2115 2160 2385 2160
	 0.000 1.000 1.000 0.000
3 0 0 3 4 7 10 0 -1 0.000 0 1 0 5
	1 1 1.00 60.00 79.50
	 2070 1980 2070 2115 2025 2160 1890 2160 945 2160
	 0.000 1.000 1.000 1.000 0.000
3 0 0 3 4 7 10 0 -1 0.000 0 1 0 4
	1 1 1.00 60.00 79.50
	 810 2160 675 2160 630 2205 630 2475
	 0.000 1.000 1.000 0.000
