#FIG 3.2  Produced by xfig version 3.2.5c
Portrait
Center
Metric
A4      
100.00
Single
-2
1200 2
2 1 0 1 -1 7 50 0 -1 0.000 0 0 -1 0 0 2
	 1845 1485 1845 1575
2 1 0 1 -1 7 50 0 -1 0.000 0 0 -1 0 0 4
	 450 1440 450 1575 3150 1575 3150 1440
2 1 1 1 -1 7 50 0 -1 2.000 0 0 -1 0 0 2
	 3240 1125 3150 1440
2 1 0 1 -1 7 50 0 -1 0.000 0 0 -1 0 0 4
	 1440 990 1440 1125 3240 1125 3240 990
2 1 0 1 -1 7 50 0 -1 0.000 0 0 -1 0 0 2
	 1665 1035 1665 1125
2 1 0 1 -1 7 50 0 -1 0.000 0 0 -1 0 0 7
	 1890 1665 1935 1710 2475 1710 2520 1755 2565 1710 3105 1710
	 3150 1665
2 1 0 1 -1 7 50 0 -1 0.000 0 0 -1 0 0 7
	 1665 945 1710 900 2385 900 2430 855 2475 900 3195 900
	 3240 945
2 2 0 0 0 13 51 -1 36 0.000 0 0 -1 0 0 5
	 1440 990 3240 990 3240 1125 1440 1125 1440 990
2 2 0 0 0 11 51 -1 36 0.000 0 0 -1 0 0 5
	 450 1440 3150 1440 3150 1575 450 1575 450 1440
2 2 0 0 0 0 52 -1 20 0.000 0 0 -1 0 0 5
	 1485 1035 3285 1035 3285 1170 1485 1170 1485 1035
2 2 0 0 0 0 52 -1 20 0.000 0 0 -1 0 0 5
	 495 1485 3195 1485 3195 1620 495 1620 495 1485
2 1 1 1 -1 7 50 0 -1 2.000 0 0 -1 0 0 2
	 1941 1127 1851 1442
2 1 0 1 -1 7 50 0 -1 0.000 0 0 -1 0 0 7
	 450 1665 495 1710 1080 1710 1125 1755 1170 1710 1755 1710
	 1800 1665
4 1 -1 50 0 16 5 0.0000 4 90 1065 1125 1530 pr\351fixe = 01:00:5E:0 (hexa)\001
4 1 -1 50 0 16 5 0.0000 4 60 180 1549 1093 1110\001
4 1 -1 50 0 16 5 0.0000 4 75 690 2480 1090 num\351ro de groupe\001
4 0 -1 50 0 16 6 0.0000 4 75 825 450 1395 adresse Ethernet\001
4 1 -1 50 0 16 6 0.0000 4 75 330 2430 810 28 bits\001
4 2 -1 50 0 16 6 0.0000 4 75 525 1395 1080 adresse IP\001
4 1 -1 50 0 16 6 0.0000 4 75 330 1125 1890 25 bits\001
4 1 -1 50 0 16 6 0.0000 4 75 330 2520 1890 23 bits\001
