#FIG 3.2  Produced by xfig version 3.2.7b
Portrait
Center
Metric
A4
100.00
Single
-2
1200 2
2 2 0 1 0 6 51 -1 38 0.000 0 0 -1 0 0 5
	 225 225 3825 225 3825 675 225 675 225 225
2 1 0 1 -1 6 50 0 38 0.000 0 0 7 0 0 2
	 225 450 3825 450
2 1 0 1 -1 6 50 0 38 0.000 0 0 7 0 0 2
	 2025 225 2025 450
2 1 0 1 -1 6 50 0 38 0.000 0 0 7 0 0 2
	 1125 225 1125 450
2 2 0 1 0 0 52 -1 20 0.000 0 0 -1 0 0 5
	 270 270 3870 270 3870 720 270 720 270 270
4 1 -1 50 0 16 8 0.0000 4 135 315 675 405 Type\001
4 1 -1 50 0 16 8 0.0000 4 105 585 1575 405 Max time\001
4 1 -1 50 0 16 8 0.0000 4 105 675 2925 405 Checksum\001
4 1 -1 50 0 16 8 0.0000 4 135 915 2025 630 Group address\001
4 0 -1 50 0 16 8 0.0000 4 105 75 1125 180 8\001
4 0 -1 50 0 16 8 0.0000 4 105 75 675 180 4\001
4 0 -1 50 0 16 8 0.0000 4 105 75 225 180 0\001
4 0 -1 50 0 16 8 0.0000 4 105 150 2925 180 24\001
4 0 -1 50 0 16 8 0.0000 4 105 150 2025 180 16\001
4 2 -1 50 0 16 8 0.0000 4 105 150 3825 180 31\001
