#FIG 3.2  Produced by xfig version 3.2.8b
Portrait
Center
Metric
A4
100.00
Single
-2
1200 2
2 1 0 1 -1 7 50 0 -1 0.000 0 0 -1 0 0 4
	 450 1215 450 1350 2475 1350 2475 1215
2 1 1 1 -1 7 50 0 -1 2.000 0 0 -1 0 0 2
	 990 1035 900 1260
2 1 1 1 -1 7 50 0 -1 2.000 0 0 -1 0 0 2
	 2565 1035 2475 1215
2 1 0 1 -1 7 50 0 -1 0.000 0 0 -1 0 0 2
	 900 1260 900 1350
2 1 0 1 -1 7 50 0 -1 0.000 0 0 -1 0 0 4
	 990 900 990 1035 2565 1035 2565 900
2 1 0 1 -1 7 50 0 -1 0.000 0 0 -1 0 0 2
	 1440 945 1440 1035
2 2 0 0 0 0 52 -1 20 0.000 0 0 -1 0 0 5
	 1035 945 2610 945 2610 1080 1035 1080 1035 945
2 2 0 0 0 0 52 -1 20 0.000 0 0 -1 0 0 5
	 495 1260 2520 1260 2520 1395 495 1395 495 1260
2 2 0 0 0 11 51 -1 34 0.000 0 0 -1 0 0 5
	 990 900 2565 900 2565 1035 990 1035 990 900
2 2 0 0 0 11 51 -1 30 0.000 0 0 -1 0 0 5
	 450 1215 2475 1215 2475 1350 450 1350 450 1215
4 1 -1 50 0 16 6 0.0000 4 90 360 675 1305 R1->R2\001
4 1 -1 50 0 16 6 0.0000 4 90 255 1215 990 A->G\001
4 1 -1 50 0 17 6 0.0000 4 120 1080 2025 990 datagramme multicast\001
4 1 -1 50 0 17 6 0.0000 4 120 990 1710 1305 datagramme unicast\001
