#FIG 3.2
Portrait
Center
Metric
A4      
100.00
Single
-2
1200 2
6 585 675 765 1215
2 1 0 1 -1 7 0 0 -1 0.000 0 0 -1 0 0 2
	 675 675 675 855
2 2 0 1 -1 7 0 0 -1 0.000 0 0 -1 0 0 5
	 585 855 765 855 765 1035 585 1035 585 855
2 1 0 1 -1 7 0 0 -1 0.000 0 0 -1 0 0 2
	 675 1035 675 1215
-6
6 1035 675 1215 1215
2 1 0 1 -1 7 0 0 -1 0.000 0 0 -1 0 0 2
	 1125 675 1125 855
2 2 0 1 -1 7 0 0 -1 0.000 0 0 -1 0 0 5
	 1035 855 1215 855 1215 1035 1035 1035 1035 855
2 1 0 1 -1 7 0 0 -1 0.000 0 0 -1 0 0 2
	 1125 1035 1125 1215
-6
6 1485 675 1665 1215
2 1 0 1 -1 7 0 0 -1 0.000 0 0 -1 0 0 2
	 1575 675 1575 855
2 2 0 1 -1 7 0 0 -1 0.000 0 0 -1 0 0 5
	 1485 855 1665 855 1665 1035 1485 1035 1485 855
2 1 0 1 -1 7 0 0 -1 0.000 0 0 -1 0 0 2
	 1575 1035 1575 1215
-6
2 1 0 1 -1 7 0 0 -1 0.000 0 0 -1 0 0 2
	 315 495 315 675
2 1 0 1 -1 7 0 0 -1 0.000 0 0 -1 0 0 2
	 135 675 810 675
2 2 0 1 -1 7 0 0 -1 0.000 0 0 -1 0 0 5
	 225 315 405 315 405 495 225 495 225 315
2 1 0 1 -1 7 0 0 -1 0.000 0 0 -1 0 0 2
	 495 1215 1260 1215
2 1 0 1 -1 7 0 0 -1 0.000 0 0 -1 0 0 2
	 1395 1215 2250 1215
2 2 0 1 -1 7 0 0 -1 0.000 0 0 -1 0 0 5
	 1935 855 2115 855 2115 1035 1935 1035 1935 855
2 1 0 1 -1 7 0 0 -1 0.000 0 0 -1 0 0 2
	 2025 1035 2025 1215
2 1 0 1 -1 7 0 0 -1 0.000 0 0 -1 0 0 2
	 990 675 1710 675
3 0 0 1 -1 7 0 0 -1 0.000 0 1 0 34
	1 1 1.00 30.00 60.00
	 360 450 360 540 360 585 405 630 450 630 630 630
	 675 630 720 675 720 720 720 1080 720 1125 765 1170
	 810 1170 990 1170 1035 1170 1080 1125 1080 1080 1080 720
	 1080 675 1125 630 1170 630 1530 630 1575 630 1620 675
	 1620 720 1620 1035 1620 1125 1665 1170 1710 1170 1890 1170
	 1935 1170 1980 1125 1980 1080 1980 900
	 0.000 1.000 1.000 1.000 1.000 1.000 1.000 1.000
	 1.000 1.000 1.000 1.000 1.000 1.000 1.000 1.000
	 1.000 1.000 1.000 1.000 1.000 1.000 1.000 1.000
	 1.000 1.000 1.000 1.000 1.000 1.000 1.000 1.000
	 1.000 0.000
3 0 0 1 -1 7 0 0 -1 0.000 0 1 0 33
	1 1 1.00 30.00 60.00
	 2070 990 2070 1170 2070 1215 2025 1260 1980 1260 1620 1260
	 1575 1260 1530 1215 1530 1170 1530 810 1530 765 1485 720
	 1260 720 1215 720 1170 765 1170 810 1170 1170 1170 1215
	 1125 1260 1080 1260 720 1260 675 1260 630 1215 630 1170
	 630 810 630 765 585 720 540 720 360 720 315 720
	 270 675 270 630 270 360
	 0.000 1.000 1.000 1.000 1.000 1.000 1.000 1.000
	 1.000 1.000 1.000 1.000 1.000 1.000 1.000 1.000
	 1.000 1.000 1.000 1.000 1.000 1.000 1.000 1.000
	 1.000 1.000 1.000 1.000 1.000 1.000 1.000 1.000
	 0.000
3 0 1 1 -1 7 0 0 -1 2.000 0 1 0 4
	0 0 1.00 30.00 60.00
	 675 225 630 270 585 405 630 585
	 0.000 1.000 1.000 0.000
3 0 1 1 -1 7 0 0 -1 2.000 0 1 0 4
	0 0 1.00 30.00 60.00
	 855 360 810 405 900 675 765 810
	 0.000 1.000 1.000 0.000
3 0 1 1 -1 7 0 0 -1 2.000 0 1 0 4
	0 0 1.00 30.00 60.00
	 1080 450 990 540 945 675 1035 810
	 0.000 1.000 1.000 0.000
3 0 1 1 -1 7 0 0 -1 2.000 0 1 0 4
	0 0 1.00 30.00 60.00
	 1890 630 1890 720 1845 765 1755 855
	 0.000 1.000 1.000 0.000
3 0 1 1 -1 7 0 0 -1 2.000 0 1 0 4
	0 0 1.00 30.00 60.00
	 1485 1440 1440 1440 1440 1350 1665 1305
	 0.000 1.000 1.000 0.000
3 0 1 1 -1 7 0 0 -1 2.000 0 1 0 4
	0 0 1.00 30.00 60.00
	 1080 1575 1035 1395 1260 1305 1440 1080
	 0.000 1.000 1.000 0.000
3 0 1 1 -1 7 0 0 -1 2.000 0 1 0 4
	0 0 1.00 30.00 60.00
	 450 1710 405 1575 540 1395 990 1080
	 0.000 1.000 1.000 0.000
3 0 1 1 -1 7 0 0 -1 2.000 0 1 0 4
	0 0 1.00 30.00 60.00
	 180 1845 90 1710 135 1440 540 1080
	 0.000 1.000 1.000 0.000
4 0 -1 0 0 16 7 0.0000 4 75 75 450 450 S\001
4 0 -1 0 0 16 7 0.0000 4 75 75 2160 990 D\001
4 2 -1 0 0 16 7 0.0000 4 75 135 540 990 R1\001
4 2 -1 0 0 16 7 0.0000 4 75 135 990 990 R2\001
4 2 -1 0 0 16 7 0.0000 4 75 135 1440 990 R3\001
4 0 -1 0 0 16 6 0.0000 4 75 1125 720 225 1- demande de chemin S->D\001
4 0 -1 0 0 16 6 0.0000 4 90 1005 900 360 2- R1 m\351morise la session\001
4 0 -1 0 0 16 6 0.0000 4 90 1395 1125 495 3- R2 ignore et route le datagramme\001
4 0 -1 0 0 16 6 0.0000 4 90 1005 1710 630 4- R3 m\351morise la session\001
4 0 -1 0 0 16 6 0.0000 4 90 540 1125 1620 6- R3 r\351serve\001
4 0 -1 0 0 16 6 0.0000 4 90 1395 495 1755 7- R2 ignore et route le datagramme\001
4 0 -1 0 0 16 6 0.0000 4 90 540 225 1890 8- R1 r\351serve\001
4 0 -1 0 0 16 6 0.0000 4 90 1305 1530 1485 5- demande de r\351servation D->S\001
