#FIG 3.2
Portrait
Center
Metric
A4      
100.00
Single
-2
1200 2
2 1 0 1 -1 7 0 0 -1 0.000 0 0 -1 0 0 2
	 360 1125 2115 1125
2 2 0 1 -1 7 0 0 -1 0.000 0 0 -1 0 0 5
	 540 630 810 630 810 900 540 900 540 630
2 1 0 1 -1 7 0 0 -1 0.000 0 0 -1 0 0 2
	 1575 900 1575 1125
2 2 0 1 -1 7 0 0 -1 0.000 0 0 -1 0 0 5
	 1215 1350 1485 1350 1485 1620 1215 1620 1215 1350
2 1 0 1 -1 7 0 0 -1 0.000 0 0 -1 0 0 2
	 675 900 675 1125
2 2 0 1 -1 7 0 0 -1 0.000 0 0 -1 0 0 5
	 1440 630 1710 630 1710 900 1440 900 1440 630
2 1 0 1 -1 7 0 0 -1 0.000 0 0 -1 0 0 2
	 1350 1125 1350 1350
2 1 0 1 -1 7 0 0 -1 0.000 0 0 -1 0 0 2
	 1350 1620 1350 1812
2 1 0 1 -1 7 0 0 -1 0.000 0 0 -1 0 0 2
	 1575 2220 1575 2430
2 2 0 1 -1 7 0 0 -1 0.000 0 0 -1 0 0 5
	 1440 2430 1710 2430 1710 2700 1440 2700 1440 2430
2 1 0 1 -1 7 0 0 -1 0.000 0 0 -1 0 0 2
	 1575 2700 1575 2925
2 1 0 1 -1 7 0 0 -1 0.000 0 0 -1 0 0 2
	 585 2925 1935 2925
2 1 0 1 -1 7 0 0 -1 0.000 0 0 -1 0 0 2
	 900 2700 900 2925
2 2 0 1 -1 7 0 0 -1 0.000 0 0 -1 0 0 5
	 765 2430 1035 2430 1035 2700 765 2700 765 2430
3 1 0 1 -1 7 0 0 -1 0.000 0 0 0 10
	 1620 1800 1755 1935 1800 2205 1620 2250 1350 2115 855 2250
	 675 1935 900 1710 1125 1890 1350 1800
	 1.000 1.000 1.000 1.000 1.000 1.000 1.000 1.000
	 1.000 1.000
3 0 0 1 -1 7 0 0 -1 0.000 0 1 0 10
	1 1 1.00 30.00 60.00
	 720 765 720 990 720 1035 765 1080 810 1080 1440 1080
	 1485 1080 1530 1035 1530 990 1530 765
	 0.000 1.000 1.000 1.000 1.000 1.000 1.000 1.000
	 1.000 0.000
3 0 0 1 -1 7 0 0 -1 0.000 0 1 0 22
	1 1 1.00 30.00 60.00
	 1620 765 1620 1080 1620 1125 1575 1170 1530 1170 1485 1170
	 1440 1170 1395 1215 1395 1260 1395 1575 1395 1845 1620 1935
	 1620 2115 1620 2790 1620 2835 1575 2880 1530 2880 1035 2880
	 990 2880 945 2835 945 2790 945 2565
	 0.000 1.000 1.000 1.000 1.000 1.000 1.000 1.000
	 1.000 1.000 1.000 1.000 1.000 1.000 1.000 1.000
	 1.000 1.000 1.000 1.000 1.000 0.000
3 2 1 1 -1 7 0 0 -1 2.000 0 0 1 4
	0 0 1.00 40.00 80.00
	 1665 1035 1890 900 1935 630 1800 495
	 0.000 -1.000 -1.000 0.000
3 2 1 1 -1 7 0 0 -1 2.000 0 0 1 4
	0 0 1.00 40.00 80.00
	 1125 1035 1260 855 1305 630 1260 495
	 0.000 -1.000 -1.000 0.000
4 1 -1 0 0 16 7 0.0000 4 105 315 1260 450 1 Mb/s\001
4 1 -1 0 0 16 7 0.0000 4 105 420 1800 450 256 Kb/s\001
4 1 -1 0 0 17 9 0.0000 4 90 435 1260 2070 Internet\001
