#FIG 3.2  Produced by xfig version 3.2.8b
Landscape
Center
Metric
A4
100.00
Single
-2
1200 2
2 1 0 1 0 0 50 0 -1 0.000 0 0 0 0 0 2
	 5625 3600 6075 4275
2 1 0 1 0 0 50 0 -1 0.000 0 0 0 0 0 2
	 5625 3600 5400 4275
2 1 0 1 0 0 50 0 -1 0.000 0 0 0 0 0 2
	 4725 2700 5625 3375
2 1 0 1 0 0 50 0 -1 0.000 0 0 0 0 0 2
	 4725 2700 4725 3300
2 1 0 1 0 0 50 0 -1 0.000 0 0 0 0 0 2
	 4725 2700 3975 3300
2 1 0 1 0 0 50 0 -1 0.000 0 0 0 0 0 2
	 4725 1800 4725 2400
2 1 0 1 0 0 50 0 -1 0.000 0 0 0 0 0 2
	 4725 1800 5325 2400
2 1 0 1 0 0 50 0 -1 0.000 0 0 0 0 0 2
	 4725 1800 4125 2400
2 1 0 1 0 0 50 0 -1 0.000 0 0 0 0 0 2
	 3600 450 4725 1575
2 1 0 1 0 0 50 0 -1 0.000 0 0 0 0 0 2
	 3600 450 2475 1575
2 1 0 1 0 0 50 0 -1 0.000 0 0 0 0 0 2
	 2475 1800 2475 2400
2 1 0 1 0 0 50 0 -1 0.000 0 0 0 0 0 2
	 2475 2700 2475 3300
2 1 0 1 0 0 50 0 -1 0.000 0 0 0 0 0 2
	 2475 3600 2475 4275
2 1 0 1 0 0 50 0 -1 0.000 0 0 0 0 0 2
	 3975 3600 3525 4275
2 1 0 1 0 0 50 0 -1 0.000 0 0 0 0 0 2
	 3975 3600 4425 4275
2 1 2 1 0 0 50 0 -1 3.000 0 0 0 1 0 2
	0 0 1.00 60.00 120.00
	 825 6150 4650 3600
2 1 0 1 0 0 50 0 -1 0.000 0 0 0 0 0 2
	 2475 4575 675 5175
2 1 0 1 0 0 50 0 -1 0.000 0 0 0 0 0 2
	 2475 4575 1575 5175
2 1 0 1 0 0 50 0 -1 0.000 0 0 0 0 0 2
	 2475 4575 2475 5175
2 1 0 1 0 0 50 0 -1 0.000 0 0 0 0 0 2
	 675 5475 675 6075
2 1 0 1 0 0 50 0 -1 0.000 0 0 0 0 0 2
	 2475 5475 2475 6075
2 1 0 1 0 0 50 0 -1 0.000 0 0 0 0 0 2
	 2475 5475 3225 6075
2 1 2 1 0 0 50 0 -1 3.000 0 0 0 1 0 2
	0 0 1.00 60.00 120.00
	 2550 6225 4200 4575
2 1 2 1 0 0 50 0 -1 3.000 0 0 0 1 0 2
	0 0 1.00 60.00 120.00
	 3300 6150 3600 4650
4 1 0 50 0 12 10 0.0000 4 15 105 3600 375 .\001
4 0 0 50 -1 17 9 0.0000 4 150 1125 900 6210 RR de type PTR\001
4 1 1 50 0 16 12 0.0000 4 150 375 2475 1725 arpa\001
4 1 1 50 0 16 12 0.0000 4 150 585 2475 2625 in-addr\001
4 1 1 50 0 16 12 0.0000 4 135 315 2475 3525 134\001
4 1 1 50 0 16 12 0.0000 4 135 315 2475 4500 157\001
4 1 1 50 0 16 12 0.0000 4 150 525 3600 4500 bambi\001
4 1 1 50 0 16 12 0.0000 4 150 825 4425 4500 cendrillon\001
4 1 1 50 0 16 12 0.0000 4 150 465 5475 4500 eclair\001
4 1 1 50 0 16 12 0.0000 4 150 480 6075 4500 moka\001
4 1 1 50 0 16 12 0.0000 4 105 270 5625 3525 ccr\001
4 1 1 50 0 16 12 0.0000 4 150 465 4725 3525 shiva\001
4 1 1 50 0 16 12 0.0000 4 195 255 3975 3525 lptl\001
4 1 1 50 0 16 12 0.0000 4 150 585 4125 2625 unistra\001
4 1 1 50 0 16 12 0.0000 4 195 615 4725 2625 jussieu\001
4 1 1 50 0 16 12 0.0000 4 150 360 5400 2625 inria\001
4 1 1 50 0 16 12 0.0000 4 150 120 4725 1725 fr\001
4 1 1 50 0 16 12 0.0000 4 135 105 2475 5400 8\001
4 1 1 50 0 16 12 0.0000 4 135 105 1575 5400 1\001
4 1 1 50 0 16 12 0.0000 4 135 105 675 5400 0\001
4 1 1 50 0 16 12 0.0000 4 135 315 675 6300 129\001
4 1 1 50 0 16 12 0.0000 4 135 210 2475 6300 24\001
4 1 1 50 0 16 12 0.0000 4 135 210 3225 6300 33\001
