#FIG 3.2  Produced by xfig version 3.2.5c
Landscape
Center
Metric
Letter  
100.00
Single
-2
1200 2
0 32 #c6b797
0 33 #eff8ff
0 34 #dccba6
0 35 #404040
0 36 #808080
0 37 #c0c0c0
0 38 #e0e0e0
0 39 #8e8f8e
0 40 #aaaaaa
0 41 #555555
0 42 #c7c3c7
0 43 #565151
0 44 #8e8e8e
0 45 #d7d7d7
0 46 #85807d
0 47 #d2d2d2
0 48 #3a3a3a
0 49 #4573aa
0 50 #aeaeae
0 51 #7b79a5
0 52 #444444
0 53 #73758c
0 54 #f7f7f7
0 55 #414541
0 56 #635dce
0 57 #bebebe
0 58 #515151
0 59 #e7e3e7
0 60 #000049
0 61 #797979
0 62 #303430
0 63 #414141
0 64 #c7b696
# Server box
6 2610 1530 3060 2313
6 2660 1813 3010 2196
6 2660 1813 3010 1846
2 2 0 0 0 38 19 0 20 0.000 0 1 -1 0 0 5
	 2660 1830 3010 1830 3010 1846 2660 1846 2660 1830
2 2 0 0 0 35 19 0 20 0.000 0 1 -1 0 0 5
	 2660 1813 3010 1813 3010 1830 2660 1830 2660 1813
-6
6 2660 1863 3010 1897
2 2 0 0 0 38 19 0 20 0.000 0 1 -1 0 0 5
	 2660 1880 3010 1880 3010 1897 2660 1897 2660 1880
2 2 0 0 0 35 19 0 20 0.000 0 1 -1 0 0 5
	 2660 1863 3010 1863 3010 1880 2660 1880 2660 1863
-6
6 2660 1913 3010 1946
2 2 0 0 0 38 19 0 20 0.000 0 1 -1 0 0 5
	 2660 1930 3010 1930 3010 1946 2660 1946 2660 1930
2 2 0 0 0 35 19 0 20 0.000 0 1 -1 0 0 5
	 2660 1913 3010 1913 3010 1930 2660 1930 2660 1913
-6
6 2660 1963 3010 1996
2 2 0 0 0 38 19 0 20 0.000 0 1 -1 0 0 5
	 2660 1980 3010 1980 3010 1996 2660 1996 2660 1980
2 2 0 0 0 35 19 0 20 0.000 0 1 -1 0 0 5
	 2660 1963 3010 1963 3010 1980 2660 1980 2660 1963
-6
6 2660 2013 3010 2046
2 2 0 0 0 38 19 0 20 0.000 0 1 -1 0 0 5
	 2660 2030 3010 2030 3010 2046 2660 2046 2660 2030
2 2 0 0 0 35 19 0 20 0.000 0 1 -1 0 0 5
	 2660 2013 3010 2013 3010 2030 2660 2030 2660 2013
-6
6 2660 2063 3010 2096
2 2 0 0 0 38 19 0 20 0.000 0 1 -1 0 0 5
	 2660 2080 3010 2080 3010 2096 2660 2096 2660 2080
2 2 0 0 0 35 19 0 20 0.000 0 1 -1 0 0 5
	 2660 2063 3010 2063 3010 2080 2660 2080 2660 2063
-6
6 2660 2113 3010 2146
2 2 0 0 0 38 19 0 20 0.000 0 1 -1 0 0 5
	 2660 2130 3010 2130 3010 2146 2660 2146 2660 2130
2 2 0 0 0 35 19 0 20 0.000 0 1 -1 0 0 5
	 2660 2113 3010 2113 3010 2130 2660 2130 2660 2113
-6
6 2660 2163 3010 2196
2 2 0 0 0 38 19 0 20 0.000 0 1 -1 0 0 5
	 2660 2180 3010 2180 3010 2196 2660 2196 2660 2180
2 2 0 0 0 35 19 0 20 0.000 0 1 -1 0 0 5
	 2660 2163 3010 2163 3010 2180 2660 2180 2660 2163
-6
-6
6 2660 1597 3010 1730
6 2660 1697 3010 1730
2 2 0 0 0 38 19 0 20 0.000 0 1 -1 0 0 5
	 2660 1713 3010 1713 3010 1730 2660 1730 2660 1713
2 2 0 0 0 35 19 0 20 0.000 0 1 -1 0 0 5
	 2660 1697 3010 1697 3010 1713 2660 1713 2660 1697
-6
6 2660 1647 3010 1680
2 2 0 0 0 38 19 0 20 0.000 0 1 -1 0 0 5
	 2660 1663 3010 1663 3010 1680 2660 1680 2660 1663
2 2 0 0 0 35 19 0 20 0.000 0 1 -1 0 0 5
	 2660 1647 3010 1647 3010 1663 2660 1663 2660 1647
-6
6 2660 1597 3010 1630
2 2 0 0 0 38 19 0 20 0.000 0 1 -1 0 0 5
	 2660 1613 3010 1613 3010 1630 2660 1630 2660 1613
2 2 0 0 0 35 19 0 20 0.000 0 1 -1 0 0 5
	 2660 1597 3010 1597 3010 1613 2660 1613 2660 1597
-6
-6
2 2 0 1 0 35 19 0 20 0.000 0 1 -1 0 0 5
	 2610 2246 3060 2246 3060 2313 2610 2313 2610 2246
2 1 0 1 0 37 19 0 20 0.000 0 1 -1 0 0 2
	 2610 1763 3060 1763
2 2 0 1 0 37 20 0 20 0.000 0 1 -1 0 0 5
	 2610 1530 3060 1530 3060 2313 2610 2313 2610 1530
-6
# Desktop computer
6 450 1620 900 2190
6 487 1629 868 1978
2 2 0 1 0 38 20 0 20 0.000 2 0 7 0 0 5
	 487 1629 868 1629 868 1947 487 1947 487 1629
2 2 0 0 0 35 19 0 22 0.000 1 0 -1 0 0 5
	 788 1661 757 1661 757 1915 788 1915 788 1661
2 2 0 0 0 35 19 0 24 0.000 1 0 -1 0 0 5
	 757 1661 725 1661 725 1915 757 1915 757 1661
2 2 0 0 0 35 19 0 26 0.000 1 0 -1 0 0 5
	 725 1661 677 1661 677 1915 725 1915 725 1661
2 2 0 0 0 35 19 0 28 0.000 1 0 -1 0 0 5
	 677 1661 630 1661 630 1915 677 1915 677 1661
2 2 0 0 0 35 19 0 30 0.000 1 0 -1 0 0 5
	 630 1661 598 1661 598 1915 630 1915 630 1661
2 2 0 0 0 35 19 0 33 0.000 1 0 -1 0 0 5
	 598 1661 566 1661 566 1915 598 1915 598 1661
2 2 0 0 0 35 19 0 33 0.000 1 0 -1 0 0 5
	 566 1661 534 1661 534 1915 566 1915 566 1661
2 2 0 1 0 36 20 0 20 0.000 2 0 7 0 0 5
	 598 1947 757 1947 757 1963 598 1963 598 1947
2 2 0 1 0 36 20 0 20 0.000 2 0 -1 0 0 5
	 582 1963 773 1963 773 1978 582 1978 582 1963
2 2 0 0 0 35 19 0 20 0.000 1 0 7 0 0 5
	 820 1661 788 1661 788 1915 820 1915 820 1661
3 5 0 0 0 37 18 0 20 0.000 0 0 0 4
	 519 1661 519 1915 534 1899 534 1677
	 0.000 0.000 0.000 0.000
3 5 0 0 0 7 18 0 20 0.000 0 0 0 5
	 519 1915 534 1899 681 1906 820 1899 836 1915
	 0.000 0.000 -1.000 0.000 0.000
3 5 0 0 0 37 18 0 20 0.000 0 0 0 4
	 836 1661 836 1915 820 1899 820 1677
	 0.000 0.000 0.000 0.000
3 5 0 0 0 36 18 0 20 0.000 0 0 0 5
	 519 1661 534 1677 681 1670 820 1677 836 1661
	 0.000 0.000 -1.000 0.000 0.000
-6
6 455 2090 900 2185
2 3 0 1 0 38 20 0 20 0.000 2 0 7 0 0 7
	 503 2090 852 2090 900 2169 900 2185 455 2185 455 2169
	 503 2090
2 1 0 1 0 37 19 0 20 0.000 2 0 -1 0 0 4
	 455 2169 455 2185 900 2185 900 2169
2 3 0 0 0 7 19 0 20 0.000 2 0 -1 0 0 5
	 519 2107 487 2153 773 2153 757 2107 519 2107
2 2 0 0 0 36 18 0 20 0.000 2 0 -1 0 0 5
	 487 2153 773 2153 773 2159 487 2159 487 2153
2 3 0 0 0 37 18 0 20 0.000 2 0 -1 0 0 9
	 513 2107 487 2153 534 2153 541 2137 530 2137 536 2121
	 526 2121 534 2107 513 2107
2 3 0 0 0 37 18 0 20 0.000 2 0 -1 0 0 10
	 773 2153 725 2153 725 2137 735 2137 734 2121 741 2121
	 743 2121 740 2107 760 2107 773 2153
2 3 0 0 0 7 19 0 20 0.000 2 0 -1 0 0 5
	 836 2107 773 2107 788 2153 868 2153 836 2107
2 3 0 0 0 37 18 0 20 0.000 2 0 -1 0 0 7
	 868 2153 853 2153 836 2115 776 2115 772 2107 843 2107
	 868 2153
2 2 0 0 0 36 18 0 20 0.000 2 0 -1 0 0 5
	 788 2153 868 2153 868 2159 788 2159 788 2153
2 3 0 0 0 36 18 0 20 0.000 2 0 -1 0 0 5
	 788 2153 788 2159 772 2110 772 2107 788 2153
-6
6 495 1978 860 2074
6 730 1995 841 2027
6 730 1995 841 2027
2 1 0 1 36 -1 19 0 -1 0.000 2 0 -1 0 0 5
	 730 2011 730 2003 764 2003 764 1995 806 1995
2 1 0 1 36 -1 19 0 -1 0.000 2 0 -1 0 0 3
	 764 2027 764 2011 806 2011
2 1 0 1 36 -1 19 0 -1 0.000 2 0 -1 0 0 2
	 806 2003 841 2003
2 1 0 1 7 -1 19 0 -1 0.000 2 0 -1 0 0 2
	 806 1995 806 2003
2 1 0 1 7 -1 19 0 -1 0.000 2 0 -1 0 0 2
	 730 2011 764 2011
2 1 0 1 7 -1 19 0 -1 0.000 2 0 -1 0 0 5
	 764 2027 806 2027 806 2011 841 2011 841 2003
2 1 0 1 36 -1 19 0 -1 0.000 2 0 -1 0 0 3
	 815 2027 832 2027 832 2019
2 1 0 1 7 -1 19 0 -1 0.000 2 0 -1 0 0 3
	 815 2027 815 2019 832 2019
-6
-6
2 2 0 1 0 35 20 0 20 0.000 2 0 -1 0 0 5
	 495 2074 542 2074 542 2066 495 2066 495 2074
2 2 0 1 0 35 20 0 20 0.000 2 0 -1 0 0 5
	 812 2074 860 2074 860 2066 812 2066 812 2074
2 2 0 1 0 38 20 0 20 0.000 2 0 -1 0 0 5
	 495 1978 860 1978 860 2066 495 2066 495 1978
-6
-6
# Server box
6 4949 810 5399 1593
6 4999 1093 5349 1476
6 4999 1093 5349 1126
2 2 0 0 0 38 19 0 20 0.000 0 1 -1 0 0 5
	 4999 1110 5349 1110 5349 1126 4999 1126 4999 1110
2 2 0 0 0 35 19 0 20 0.000 0 1 -1 0 0 5
	 4999 1093 5349 1093 5349 1110 4999 1110 4999 1093
-6
6 4999 1143 5349 1177
2 2 0 0 0 38 19 0 20 0.000 0 1 -1 0 0 5
	 4999 1160 5349 1160 5349 1177 4999 1177 4999 1160
2 2 0 0 0 35 19 0 20 0.000 0 1 -1 0 0 5
	 4999 1143 5349 1143 5349 1160 4999 1160 4999 1143
-6
6 4999 1193 5349 1226
2 2 0 0 0 38 19 0 20 0.000 0 1 -1 0 0 5
	 4999 1210 5349 1210 5349 1226 4999 1226 4999 1210
2 2 0 0 0 35 19 0 20 0.000 0 1 -1 0 0 5
	 4999 1193 5349 1193 5349 1210 4999 1210 4999 1193
-6
6 4999 1243 5349 1276
2 2 0 0 0 38 19 0 20 0.000 0 1 -1 0 0 5
	 4999 1260 5349 1260 5349 1276 4999 1276 4999 1260
2 2 0 0 0 35 19 0 20 0.000 0 1 -1 0 0 5
	 4999 1243 5349 1243 5349 1260 4999 1260 4999 1243
-6
6 4999 1293 5349 1326
2 2 0 0 0 38 19 0 20 0.000 0 1 -1 0 0 5
	 4999 1310 5349 1310 5349 1326 4999 1326 4999 1310
2 2 0 0 0 35 19 0 20 0.000 0 1 -1 0 0 5
	 4999 1293 5349 1293 5349 1310 4999 1310 4999 1293
-6
6 4999 1343 5349 1376
2 2 0 0 0 38 19 0 20 0.000 0 1 -1 0 0 5
	 4999 1360 5349 1360 5349 1376 4999 1376 4999 1360
2 2 0 0 0 35 19 0 20 0.000 0 1 -1 0 0 5
	 4999 1343 5349 1343 5349 1360 4999 1360 4999 1343
-6
6 4999 1393 5349 1426
2 2 0 0 0 38 19 0 20 0.000 0 1 -1 0 0 5
	 4999 1410 5349 1410 5349 1426 4999 1426 4999 1410
2 2 0 0 0 35 19 0 20 0.000 0 1 -1 0 0 5
	 4999 1393 5349 1393 5349 1410 4999 1410 4999 1393
-6
6 4999 1443 5349 1476
2 2 0 0 0 38 19 0 20 0.000 0 1 -1 0 0 5
	 4999 1460 5349 1460 5349 1476 4999 1476 4999 1460
2 2 0 0 0 35 19 0 20 0.000 0 1 -1 0 0 5
	 4999 1443 5349 1443 5349 1460 4999 1460 4999 1443
-6
-6
6 4999 877 5349 1010
6 4999 977 5349 1010
2 2 0 0 0 38 19 0 20 0.000 0 1 -1 0 0 5
	 4999 993 5349 993 5349 1010 4999 1010 4999 993
2 2 0 0 0 35 19 0 20 0.000 0 1 -1 0 0 5
	 4999 977 5349 977 5349 993 4999 993 4999 977
-6
6 4999 927 5349 960
2 2 0 0 0 38 19 0 20 0.000 0 1 -1 0 0 5
	 4999 943 5349 943 5349 960 4999 960 4999 943
2 2 0 0 0 35 19 0 20 0.000 0 1 -1 0 0 5
	 4999 927 5349 927 5349 943 4999 943 4999 927
-6
6 4999 877 5349 910
2 2 0 0 0 38 19 0 20 0.000 0 1 -1 0 0 5
	 4999 893 5349 893 5349 910 4999 910 4999 893
2 2 0 0 0 35 19 0 20 0.000 0 1 -1 0 0 5
	 4999 877 5349 877 5349 893 4999 893 4999 877
-6
-6
2 2 0 1 0 35 19 0 20 0.000 0 1 -1 0 0 5
	 4949 1526 5399 1526 5399 1593 4949 1593 4949 1526
2 1 0 1 0 37 19 0 20 0.000 0 1 -1 0 0 2
	 4949 1043 5399 1043
2 2 0 1 0 37 20 0 20 0.000 0 1 -1 0 0 5
	 4949 810 5399 810 5399 1593 4949 1593 4949 810
-6
# Server box
6 4950 2340 5400 3123
6 5000 2623 5350 3006
6 5000 2623 5350 2656
2 2 0 0 0 38 19 0 20 0.000 0 1 -1 0 0 5
	 5000 2640 5350 2640 5350 2656 5000 2656 5000 2640
2 2 0 0 0 35 19 0 20 0.000 0 1 -1 0 0 5
	 5000 2623 5350 2623 5350 2640 5000 2640 5000 2623
-6
6 5000 2673 5350 2707
2 2 0 0 0 38 19 0 20 0.000 0 1 -1 0 0 5
	 5000 2690 5350 2690 5350 2707 5000 2707 5000 2690
2 2 0 0 0 35 19 0 20 0.000 0 1 -1 0 0 5
	 5000 2673 5350 2673 5350 2690 5000 2690 5000 2673
-6
6 5000 2723 5350 2756
2 2 0 0 0 38 19 0 20 0.000 0 1 -1 0 0 5
	 5000 2740 5350 2740 5350 2756 5000 2756 5000 2740
2 2 0 0 0 35 19 0 20 0.000 0 1 -1 0 0 5
	 5000 2723 5350 2723 5350 2740 5000 2740 5000 2723
-6
6 5000 2773 5350 2806
2 2 0 0 0 38 19 0 20 0.000 0 1 -1 0 0 5
	 5000 2790 5350 2790 5350 2806 5000 2806 5000 2790
2 2 0 0 0 35 19 0 20 0.000 0 1 -1 0 0 5
	 5000 2773 5350 2773 5350 2790 5000 2790 5000 2773
-6
6 5000 2823 5350 2856
2 2 0 0 0 38 19 0 20 0.000 0 1 -1 0 0 5
	 5000 2840 5350 2840 5350 2856 5000 2856 5000 2840
2 2 0 0 0 35 19 0 20 0.000 0 1 -1 0 0 5
	 5000 2823 5350 2823 5350 2840 5000 2840 5000 2823
-6
6 5000 2873 5350 2906
2 2 0 0 0 38 19 0 20 0.000 0 1 -1 0 0 5
	 5000 2890 5350 2890 5350 2906 5000 2906 5000 2890
2 2 0 0 0 35 19 0 20 0.000 0 1 -1 0 0 5
	 5000 2873 5350 2873 5350 2890 5000 2890 5000 2873
-6
6 5000 2923 5350 2956
2 2 0 0 0 38 19 0 20 0.000 0 1 -1 0 0 5
	 5000 2940 5350 2940 5350 2956 5000 2956 5000 2940
2 2 0 0 0 35 19 0 20 0.000 0 1 -1 0 0 5
	 5000 2923 5350 2923 5350 2940 5000 2940 5000 2923
-6
6 5000 2973 5350 3006
2 2 0 0 0 38 19 0 20 0.000 0 1 -1 0 0 5
	 5000 2990 5350 2990 5350 3006 5000 3006 5000 2990
2 2 0 0 0 35 19 0 20 0.000 0 1 -1 0 0 5
	 5000 2973 5350 2973 5350 2990 5000 2990 5000 2973
-6
-6
6 5000 2407 5350 2540
6 5000 2507 5350 2540
2 2 0 0 0 38 19 0 20 0.000 0 1 -1 0 0 5
	 5000 2523 5350 2523 5350 2540 5000 2540 5000 2523
2 2 0 0 0 35 19 0 20 0.000 0 1 -1 0 0 5
	 5000 2507 5350 2507 5350 2523 5000 2523 5000 2507
-6
6 5000 2457 5350 2490
2 2 0 0 0 38 19 0 20 0.000 0 1 -1 0 0 5
	 5000 2473 5350 2473 5350 2490 5000 2490 5000 2473
2 2 0 0 0 35 19 0 20 0.000 0 1 -1 0 0 5
	 5000 2457 5350 2457 5350 2473 5000 2473 5000 2457
-6
6 5000 2407 5350 2440
2 2 0 0 0 38 19 0 20 0.000 0 1 -1 0 0 5
	 5000 2423 5350 2423 5350 2440 5000 2440 5000 2423
2 2 0 0 0 35 19 0 20 0.000 0 1 -1 0 0 5
	 5000 2407 5350 2407 5350 2423 5000 2423 5000 2407
-6
-6
2 2 0 1 0 35 19 0 20 0.000 0 1 -1 0 0 5
	 4950 3056 5400 3056 5400 3123 4950 3123 4950 3056
2 1 0 1 0 37 19 0 20 0.000 0 1 -1 0 0 2
	 4950 2573 5400 2573
2 2 0 1 0 37 20 0 20 0.000 0 1 -1 0 0 5
	 4950 2340 5400 2340 5400 3123 4950 3123 4950 2340
-6
6 4620 1770 5085 2175
4 2 0 50 -1 16 8 0.0000 4 75 540 5085 1845 serveurs\001
4 2 0 50 -1 16 8 0.0000 4 105 420 5085 2010 faisant\001
4 2 0 50 -1 16 8 0.0000 4 105 465 5085 2175 autorit\351\001
-6
# Desktop computer
6 450 900 900 1470
6 487 909 868 1258
2 2 0 1 0 38 20 0 20 0.000 2 0 7 0 0 5
	 487 909 868 909 868 1227 487 1227 487 909
2 2 0 0 0 35 19 0 22 0.000 1 0 -1 0 0 5
	 788 941 757 941 757 1195 788 1195 788 941
2 2 0 0 0 35 19 0 24 0.000 1 0 -1 0 0 5
	 757 941 725 941 725 1195 757 1195 757 941
2 2 0 0 0 35 19 0 26 0.000 1 0 -1 0 0 5
	 725 941 677 941 677 1195 725 1195 725 941
2 2 0 0 0 35 19 0 28 0.000 1 0 -1 0 0 5
	 677 941 630 941 630 1195 677 1195 677 941
2 2 0 0 0 35 19 0 30 0.000 1 0 -1 0 0 5
	 630 941 598 941 598 1195 630 1195 630 941
2 2 0 0 0 35 19 0 33 0.000 1 0 -1 0 0 5
	 598 941 566 941 566 1195 598 1195 598 941
2 2 0 0 0 35 19 0 33 0.000 1 0 -1 0 0 5
	 566 941 534 941 534 1195 566 1195 566 941
2 2 0 1 0 36 20 0 20 0.000 2 0 7 0 0 5
	 598 1227 757 1227 757 1243 598 1243 598 1227
2 2 0 1 0 36 20 0 20 0.000 2 0 -1 0 0 5
	 582 1243 773 1243 773 1258 582 1258 582 1243
2 2 0 0 0 35 19 0 20 0.000 1 0 7 0 0 5
	 820 941 788 941 788 1195 820 1195 820 941
3 5 0 0 0 37 18 0 20 0.000 0 0 0 4
	 519 941 519 1195 534 1179 534 957
	 0.000 0.000 0.000 0.000
3 5 0 0 0 7 18 0 20 0.000 0 0 0 5
	 519 1195 534 1179 681 1186 820 1179 836 1195
	 0.000 0.000 -1.000 0.000 0.000
3 5 0 0 0 37 18 0 20 0.000 0 0 0 4
	 836 941 836 1195 820 1179 820 957
	 0.000 0.000 0.000 0.000
3 5 0 0 0 36 18 0 20 0.000 0 0 0 5
	 519 941 534 957 681 950 820 957 836 941
	 0.000 0.000 -1.000 0.000 0.000
-6
6 455 1370 900 1465
2 3 0 1 0 38 20 0 20 0.000 2 0 7 0 0 7
	 503 1370 852 1370 900 1449 900 1465 455 1465 455 1449
	 503 1370
2 1 0 1 0 37 19 0 20 0.000 2 0 -1 0 0 4
	 455 1449 455 1465 900 1465 900 1449
2 3 0 0 0 7 19 0 20 0.000 2 0 -1 0 0 5
	 519 1387 487 1433 773 1433 757 1387 519 1387
2 2 0 0 0 36 18 0 20 0.000 2 0 -1 0 0 5
	 487 1433 773 1433 773 1439 487 1439 487 1433
2 3 0 0 0 37 18 0 20 0.000 2 0 -1 0 0 9
	 513 1387 487 1433 534 1433 541 1417 530 1417 536 1401
	 526 1401 534 1387 513 1387
2 3 0 0 0 37 18 0 20 0.000 2 0 -1 0 0 10
	 773 1433 725 1433 725 1417 735 1417 734 1401 741 1401
	 743 1401 740 1387 760 1387 773 1433
2 3 0 0 0 7 19 0 20 0.000 2 0 -1 0 0 5
	 836 1387 773 1387 788 1433 868 1433 836 1387
2 3 0 0 0 37 18 0 20 0.000 2 0 -1 0 0 7
	 868 1433 853 1433 836 1395 776 1395 772 1387 843 1387
	 868 1433
2 2 0 0 0 36 18 0 20 0.000 2 0 -1 0 0 5
	 788 1433 868 1433 868 1439 788 1439 788 1433
2 3 0 0 0 36 18 0 20 0.000 2 0 -1 0 0 5
	 788 1433 788 1439 772 1390 772 1387 788 1433
-6
6 495 1258 860 1354
6 730 1275 841 1307
6 730 1275 841 1307
2 1 0 1 36 -1 19 0 -1 0.000 2 0 -1 0 0 5
	 730 1291 730 1283 764 1283 764 1275 806 1275
2 1 0 1 36 -1 19 0 -1 0.000 2 0 -1 0 0 3
	 764 1307 764 1291 806 1291
2 1 0 1 36 -1 19 0 -1 0.000 2 0 -1 0 0 2
	 806 1283 841 1283
2 1 0 1 7 -1 19 0 -1 0.000 2 0 -1 0 0 2
	 806 1275 806 1283
2 1 0 1 7 -1 19 0 -1 0.000 2 0 -1 0 0 2
	 730 1291 764 1291
2 1 0 1 7 -1 19 0 -1 0.000 2 0 -1 0 0 5
	 764 1307 806 1307 806 1291 841 1291 841 1283
2 1 0 1 36 -1 19 0 -1 0.000 2 0 -1 0 0 3
	 815 1307 832 1307 832 1299
2 1 0 1 7 -1 19 0 -1 0.000 2 0 -1 0 0 3
	 815 1307 815 1299 832 1299
-6
-6
2 2 0 1 0 35 20 0 20 0.000 2 0 -1 0 0 5
	 495 1354 542 1354 542 1346 495 1346 495 1354
2 2 0 1 0 35 20 0 20 0.000 2 0 -1 0 0 5
	 812 1354 860 1354 860 1346 812 1346 812 1354
2 2 0 1 0 38 20 0 20 0.000 2 0 -1 0 0 5
	 495 1258 860 1258 860 1346 495 1346 495 1258
-6
-6
# Desktop computer
6 450 2340 900 2910
6 487 2349 868 2698
2 2 0 1 0 38 20 0 20 0.000 2 0 7 0 0 5
	 487 2349 868 2349 868 2667 487 2667 487 2349
2 2 0 0 0 35 19 0 22 0.000 1 0 -1 0 0 5
	 788 2381 757 2381 757 2635 788 2635 788 2381
2 2 0 0 0 35 19 0 24 0.000 1 0 -1 0 0 5
	 757 2381 725 2381 725 2635 757 2635 757 2381
2 2 0 0 0 35 19 0 26 0.000 1 0 -1 0 0 5
	 725 2381 677 2381 677 2635 725 2635 725 2381
2 2 0 0 0 35 19 0 28 0.000 1 0 -1 0 0 5
	 677 2381 630 2381 630 2635 677 2635 677 2381
2 2 0 0 0 35 19 0 30 0.000 1 0 -1 0 0 5
	 630 2381 598 2381 598 2635 630 2635 630 2381
2 2 0 0 0 35 19 0 33 0.000 1 0 -1 0 0 5
	 598 2381 566 2381 566 2635 598 2635 598 2381
2 2 0 0 0 35 19 0 33 0.000 1 0 -1 0 0 5
	 566 2381 534 2381 534 2635 566 2635 566 2381
2 2 0 1 0 36 20 0 20 0.000 2 0 7 0 0 5
	 598 2667 757 2667 757 2683 598 2683 598 2667
2 2 0 1 0 36 20 0 20 0.000 2 0 -1 0 0 5
	 582 2683 773 2683 773 2698 582 2698 582 2683
2 2 0 0 0 35 19 0 20 0.000 1 0 7 0 0 5
	 820 2381 788 2381 788 2635 820 2635 820 2381
3 5 0 0 0 37 18 0 20 0.000 0 0 0 4
	 519 2381 519 2635 534 2619 534 2397
	 0.000 0.000 0.000 0.000
3 5 0 0 0 7 18 0 20 0.000 0 0 0 5
	 519 2635 534 2619 681 2626 820 2619 836 2635
	 0.000 0.000 -1.000 0.000 0.000
3 5 0 0 0 37 18 0 20 0.000 0 0 0 4
	 836 2381 836 2635 820 2619 820 2397
	 0.000 0.000 0.000 0.000
3 5 0 0 0 36 18 0 20 0.000 0 0 0 5
	 519 2381 534 2397 681 2390 820 2397 836 2381
	 0.000 0.000 -1.000 0.000 0.000
-6
6 455 2810 900 2905
2 3 0 1 0 38 20 0 20 0.000 2 0 7 0 0 7
	 503 2810 852 2810 900 2889 900 2905 455 2905 455 2889
	 503 2810
2 1 0 1 0 37 19 0 20 0.000 2 0 -1 0 0 4
	 455 2889 455 2905 900 2905 900 2889
2 3 0 0 0 7 19 0 20 0.000 2 0 -1 0 0 5
	 519 2827 487 2873 773 2873 757 2827 519 2827
2 2 0 0 0 36 18 0 20 0.000 2 0 -1 0 0 5
	 487 2873 773 2873 773 2879 487 2879 487 2873
2 3 0 0 0 37 18 0 20 0.000 2 0 -1 0 0 9
	 513 2827 487 2873 534 2873 541 2857 530 2857 536 2841
	 526 2841 534 2827 513 2827
2 3 0 0 0 37 18 0 20 0.000 2 0 -1 0 0 10
	 773 2873 725 2873 725 2857 735 2857 734 2841 741 2841
	 743 2841 740 2827 760 2827 773 2873
2 3 0 0 0 7 19 0 20 0.000 2 0 -1 0 0 5
	 836 2827 773 2827 788 2873 868 2873 836 2827
2 3 0 0 0 37 18 0 20 0.000 2 0 -1 0 0 7
	 868 2873 853 2873 836 2835 776 2835 772 2827 843 2827
	 868 2873
2 2 0 0 0 36 18 0 20 0.000 2 0 -1 0 0 5
	 788 2873 868 2873 868 2879 788 2879 788 2873
2 3 0 0 0 36 18 0 20 0.000 2 0 -1 0 0 5
	 788 2873 788 2879 772 2830 772 2827 788 2873
-6
6 495 2698 860 2794
6 730 2715 841 2747
6 730 2715 841 2747
2 1 0 1 36 -1 19 0 -1 0.000 2 0 -1 0 0 5
	 730 2731 730 2723 764 2723 764 2715 806 2715
2 1 0 1 36 -1 19 0 -1 0.000 2 0 -1 0 0 3
	 764 2747 764 2731 806 2731
2 1 0 1 36 -1 19 0 -1 0.000 2 0 -1 0 0 2
	 806 2723 841 2723
2 1 0 1 7 -1 19 0 -1 0.000 2 0 -1 0 0 2
	 806 2715 806 2723
2 1 0 1 7 -1 19 0 -1 0.000 2 0 -1 0 0 2
	 730 2731 764 2731
2 1 0 1 7 -1 19 0 -1 0.000 2 0 -1 0 0 5
	 764 2747 806 2747 806 2731 841 2731 841 2723
2 1 0 1 36 -1 19 0 -1 0.000 2 0 -1 0 0 3
	 815 2747 832 2747 832 2739
2 1 0 1 7 -1 19 0 -1 0.000 2 0 -1 0 0 3
	 815 2747 815 2739 832 2739
-6
-6
2 2 0 1 0 35 20 0 20 0.000 2 0 -1 0 0 5
	 495 2794 542 2794 542 2786 495 2786 495 2794
2 2 0 1 0 35 20 0 20 0.000 2 0 -1 0 0 5
	 812 2794 860 2794 860 2786 812 2786 812 2794
2 2 0 1 0 38 20 0 20 0.000 2 0 -1 0 0 5
	 495 2698 860 2698 860 2786 495 2786 495 2698
-6
-6
1 1 0 1 0 7 50 -1 -1 0.000 1 0.0000 2835 2520 225 90 2835 2520 3060 2430
1 1 0 1 0 7 52 -1 -1 0.000 1 0.0000 2835 2790 225 90 2835 2790 3060 2790
2 1 0 1 0 7 50 -1 -1 0.000 0 0 -1 1 0 2
	1 1 1.00 60.00 120.00
	 3149 1799 4815 900
2 1 0 1 0 7 50 -1 -1 0.000 0 0 -1 1 0 2
	1 1 1.00 60.00 120.00
	 3150 1890 4860 2430
2 1 0 1 0 7 50 -1 -1 0.000 0 0 -1 1 0 2
	1 1 1.00 60.00 120.00
	 990 1800 2520 1800
2 1 0 1 0 7 50 -1 -1 0.000 0 0 -1 0 0 2
	 2610 2520 2610 2790
2 1 0 1 0 7 50 -1 -1 0.000 0 0 -1 0 0 2
	 2835 2295 2835 2430
2 1 2 1 0 7 50 -1 -1 2.000 0 0 -1 0 0 2
	 5175 1665 5175 2295
2 1 0 1 0 7 50 -1 -1 0.000 0 0 -1 1 0 2
	1 1 1.00 60.00 120.00
	 990 1080 2520 1620
2 1 0 1 0 7 50 -1 -1 0.000 0 0 -1 1 0 2
	1 1 1.00 60.00 120.00
	 990 2520 2520 1980
2 1 0 1 0 7 50 -1 -1 0.000 0 0 -1 0 0 2
	 3060 2520 3060 2790
2 2 0 1 7 7 51 -1 20 0.000 0 0 -1 0 0 5
	 2610 2520 3060 2520 3060 2790 2610 2790 2610 2520
4 1 0 50 -1 16 8 0.0000 4 75 465 2835 1170 serveur\001
4 1 0 50 -1 16 8 0.0000 4 105 690 2835 1335 mandataire\001
4 1 0 50 -1 16 8 0.0000 4 105 570 2835 3015 cache du\001
4 1 0 50 -1 16 8 0.0000 4 105 690 2835 3180 mandataire\001
4 1 0 50 -1 16 8 0.0000 4 135 540 4050 1620 requ\352tes\001
4 1 0 50 -1 16 8 0.0000 4 75 225 4050 1785 non\001
4 1 0 50 -1 16 8 0.0000 4 105 645 4050 1950 r\351cursives\001
4 1 0 50 -1 16 8 0.0000 4 135 1230 1710 1980 requ\352tes r\351cursives\001
