#FIG 3.2  Produced by xfig version 3.2.8b
Portrait
Center
Metric
A4
100.00
Single
-2
1200 2
2 1 0 1 0 0 50 0 -1 0.000 0 0 0 0 0 2
	 5625 3600 5400 4275
2 1 0 1 0 0 50 0 -1 0.000 0 0 0 0 0 2
	 5625 3600 6075 4275
2 1 0 1 0 0 50 0 -1 0.000 0 0 0 0 0 2
	 3975 3600 4425 4275
2 1 0 1 0 0 50 0 -1 0.000 0 0 0 0 0 2
	 3975 3600 3525 4275
2 1 0 1 0 0 50 0 -1 0.000 0 0 0 0 0 2
	 2475 3600 3150 4275
2 1 0 1 0 0 50 0 -1 0.000 0 0 0 0 0 2
	 1875 3600 1875 4275
2 1 0 1 0 0 50 0 -1 0.000 0 0 0 0 0 2
	 2475 3600 2475 4275
2 1 0 1 0 0 50 0 -1 0.000 0 0 0 0 0 2
	 4725 2700 5625 3375
2 1 0 1 0 0 50 0 -1 0.000 0 0 0 0 0 2
	 4725 2700 3960 3375
2 1 0 1 0 0 50 0 -1 0.000 0 0 0 0 0 2
	 4725 2700 4725 3300
2 1 0 1 0 0 50 0 -1 0.000 0 0 0 0 0 2
	 2475 2700 1875 3300
2 1 0 1 0 0 50 0 -1 0.000 0 0 0 0 0 2
	 2475 2700 2925 3300
2 1 0 1 0 0 50 0 -1 0.000 0 0 0 0 0 2
	 2475 2700 2475 3300
2 1 0 1 0 0 50 0 -1 0.000 0 0 0 0 0 2
	 4725 1800 5325 2400
2 1 0 1 0 0 50 0 -1 0.000 0 0 0 0 0 2
	 4725 1800 4125 2400
2 1 0 1 0 0 50 0 -1 0.000 0 0 0 0 0 2
	 4725 1800 4725 2400
2 1 0 1 0 0 50 0 -1 0.000 0 0 0 0 0 2
	 2475 1800 2025 2400
2 1 0 1 0 0 50 0 -1 0.000 0 0 0 0 0 2
	 2475 1800 3075 2400
2 1 0 1 0 0 50 0 -1 0.000 0 0 0 0 0 2
	 2475 1800 2475 2400
2 1 0 1 0 0 50 0 -1 0.000 0 0 0 0 0 2
	 900 1800 1200 2400
2 1 0 1 0 0 50 0 -1 0.000 0 0 0 0 0 2
	 900 1800 450 2400
2 1 0 1 0 0 50 0 -1 0.000 0 0 0 0 0 2
	 3600 450 6300 1575
2 1 0 1 0 0 50 0 -1 0.000 0 0 0 0 0 2
	 3600 450 4725 1575
2 1 0 1 0 0 50 0 -1 0.000 0 0 0 0 0 2
	 3600 450 3600 1575
2 1 0 1 0 0 50 0 -1 0.000 0 0 0 0 0 2
	 3600 450 2475 1575
2 1 0 1 0 0 50 0 -1 0.000 0 0 0 0 0 2
	 3600 450 975 1500
2 2 1 1 0 12 52 0 37 4.000 0 0 0 0 0 5
	 450 225 6750 225 6750 1800 450 1800 450 225
2 2 1 1 0 12 52 0 37 4.000 0 0 7 0 0 5
	 3825 1875 3825 2700 5850 2700 5850 1875 3825 1875
2 2 1 1 0 12 52 0 37 4.000 0 0 7 0 0 5
	 3600 2775 6075 2775 6075 3600 3600 3600 3600 2775
2 2 1 1 0 12 52 0 37 4.000 0 0 7 0 0 5
	 5100 3675 6525 3675 6525 4575 5100 4575 5100 3675
2 2 1 1 0 12 52 0 37 4.000 0 0 7 0 0 5
	 3300 3675 4950 3675 4950 4575 3300 4575 3300 3675
4 1 1 50 0 17 10 0.0000 4 120 195 900 1725 mil\001
4 1 1 50 0 17 10 0.0000 4 120 270 450 2625 ddn\001
4 1 1 50 0 17 10 0.0000 4 120 240 1200 2625 brn\001
4 1 1 50 0 17 10 0.0000 4 120 150 2025 2625 isi\001
4 1 1 50 0 17 10 0.0000 4 120 210 2475 2625 mit\001
4 1 1 50 0 17 10 0.0000 4 150 510 3075 2625 purdue\001
4 1 1 50 0 17 10 0.0000 4 120 270 2475 1725 edu\001
4 1 1 50 0 17 10 0.0000 4 90 315 3600 1725 com\001
4 1 1 50 0 17 10 0.0000 4 120 105 4725 1725 fr\001
4 1 1 50 0 18 12 0.0000 4 30 60 3600 375 .\001
4 1 1 50 0 17 10 0.0000 4 120 225 6300 1725 net\001
4 1 1 50 0 17 10 0.0000 4 120 300 5400 2625 inria\001
4 1 1 50 0 17 10 0.0000 4 150 510 4725 2625 jussieu\001
4 1 1 50 0 17 10 0.0000 4 120 495 4125 2625 unistra\001
4 1 1 50 0 17 10 0.0000 4 150 195 3975 3525 lptl\001
4 1 1 50 0 17 10 0.0000 4 120 390 4725 3525 shiva\001
4 1 1 50 0 17 10 0.0000 4 90 240 5625 3525 ccr\001
4 1 1 50 0 17 10 0.0000 4 120 390 5475 4500 eclair\001
4 1 1 50 0 17 10 0.0000 4 120 405 6075 4500 moka\001
4 1 1 50 0 17 10 0.0000 4 120 690 4425 4500 cendrillon\001
4 1 1 50 0 17 10 0.0000 4 120 435 3600 4500 bambi\001
4 1 1 50 0 17 10 0.0000 4 90 180 3150 4500 xx\001
4 1 1 50 0 17 10 0.0000 4 150 465 2475 4500 export\001
4 1 1 50 0 17 10 0.0000 4 120 330 1875 4500 prep\001
4 1 1 50 0 17 10 0.0000 4 120 120 1875 3525 ai\001
4 1 1 50 0 17 10 0.0000 4 120 210 2475 3525 lcs\001
4 0 0 51 0 16 10 0.0000 4 150 900 525 450 zone . (root)\001
4 2 0 51 0 16 10 0.0000 4 120 510 5775 2025 zone fr\001
4 2 0 51 0 16 10 0.0000 4 150 915 6000 2925 zone jussieu\001
4 2 0 51 0 16 10 0.0000 4 90 645 6450 3825 zone ccr\001
4 2 0 51 0 16 10 0.0000 4 150 600 4875 3825 zone lptl\001
