#FIG 3.2  Produced by xfig version 3.2.5c
Landscape
Center
Metric
A4      
100.00
Single
-2
1200 2
6 645 540 2160 1710
2 1 0 1 20 7 50 -1 -1 0.000 0 0 7 0 0 2
	 2160 540 2160 1710
4 2 20 50 -1 16 8 0.0000 4 135 1425 2070 720 tant que l'acquittement\001
4 2 20 50 -1 16 8 0.0000 4 120 1395 2070 885 n'est pas re\347u, ou que\001
4 2 20 50 -1 16 8 0.0000 4 135 1395 2070 1050 MSS n'est pas atteint,\001
4 2 20 50 -1 16 8 0.0000 4 105 1095 2070 1215 TCP bufferise les\001
4 2 20 50 -1 16 8 0.0000 4 105 1260 2070 1380 donn\351es transmises\001
4 2 20 50 -1 16 8 0.0000 4 135 960 2070 1545 par l'application\001
-6
2 1 0 1 -1 -1 50 0 -1 0.000 0 0 -1 1 0 2
	1 1 1.00 45.00 90.00
	 2295 540 4005 1080
2 1 0 1 -1 -1 50 0 -1 0.000 0 0 7 1 0 2
	1 1 1.00 45.00 90.00
	 2250 450 2250 2475
2 1 0 1 -1 -1 50 0 -1 0.000 0 0 -1 1 0 2
	1 1 1.00 45.00 90.00
	 4005 1170 2295 1710
2 1 0 1 -1 -1 50 0 -1 0.000 0 0 -1 1 0 2
	1 1 1.00 45.00 90.00
	 2295 1800 4005 2340
2 1 0 1 -1 -1 50 0 -1 0.000 0 0 7 1 0 2
	1 1 1.00 45.00 90.00
	 4050 450 4050 2475
4 1 -1 50 0 17 10 0.0000 4 120 645 2250 360 \351metteur\001
4 1 -1 50 0 17 10 0.0000 4 150 705 4050 360 r\351cepteur\001
4 1 -1 50 0 16 10 0.0000 4 120 45 4140 2475 t\001
4 1 -1 50 0 16 10 0.0000 4 120 45 2160 2475 t\001
4 0 8 50 0 16 10 0.0000 4 120 195 2565 1845 S2\001
4 0 8 50 0 16 10 0.0000 4 120 195 2565 585 S1\001
4 2 12 50 0 16 10 0.0000 4 120 195 3735 1215 A2\001
