#FIG 3.2  Produced by xfig version 3.2.5c
Portrait
Center
Metric
A4      
100.00
Single
-2
1200 2
0 32 #c6b797
0 33 #eff8ff
0 34 #dccba6
0 35 #404040
0 36 #808080
0 37 #c0c0c0
0 38 #e0e0e0
0 39 #8e8f8e
0 40 #aaaaaa
0 41 #555555
0 42 #bebebe
0 43 #515151
0 44 #e7e3e7
0 45 #000049
0 46 #797979
0 47 #303430
0 48 #414141
0 49 #c7b696
0 50 #8e8e8e
0 51 #414541
0 52 #8e8e8e
0 53 #cccccc
0 54 #868286
0 55 #c7c3c7
0 56 #444444
0 57 #868686
0 58 #c7c7c7
0 59 #e7e7e7
0 60 #f7f7f7
0 61 #9e9e9e
0 62 #717571
0 63 #effbff
0 64 #666666
0 65 #000000
0 66 #ffffff
0 67 #dd9d93
0 68 #f1ece0
0 69 #c3c3c3
0 70 #e2c8a8
0 71 #e1e1e1
0 72 #d2d2d2
0 73 #ededed
0 74 #da7a1a
0 75 #f1e41a
0 76 #887dc2
0 77 #d6d6d6
0 78 #8c8ca5
0 79 #4a4a4a
0 80 #5a5a5a
0 81 #636363
0 82 #b79b73
0 83 #4193ff
0 84 #bf703b
0 85 #db7700
0 86 #dab800
0 87 #006400
0 88 #5a6b3b
0 89 #d3d3d3
0 90 #8e8ea4
0 91 #f3b95d
0 92 #89996b
0 93 #646464
0 94 #b7e6ff
0 95 #86c0ec
0 96 #bdbdbd
0 97 #d39552
0 98 #98d2fe
0 99 #8c6b6b
0 100 #eeeeee
0 101 #848484
0 102 #7b7b7b
0 103 #005a00
0 104 #e77373
0 105 #ffcb31
0 106 #29794a
0 107 #de2821
0 108 #2159c6
0 109 #f8f8f8
0 110 #e6e6e6
0 111 #a5b5c6
0 112 #6b6b94
0 113 #846b6b
0 114 #529c4a
0 115 #d6e7e7
0 116 #526363
0 117 #186b4a
0 118 #21845a
0 119 #f3eed3
0 120 #f5ae5d
0 121 #95ce99
0 122 #b5157d
0 123 #5a6b39
0 124 #8c9c6b
0 125 #8c9c7b
0 126 #184a18
0 127 #adadad
0 128 #f7bd5a
0 129 #636b9c
0 130 #de0000
0 131 #adadad
0 132 #f7bd5a
0 133 #adadad
0 134 #f7bd5a
0 135 #636b9c
0 136 #526b29
0 137 #949494
0 138 #006300
0 139 #9ca5b5
0 140 #ff9400
0 141 #ff9400
0 142 #00634a
0 143 #7b844a
0 144 #63737b
0 145 #e7bd7b
0 146 #184a18
0 147 #f7bd5a
0 148 #dedede
0 149 #f76b00
0 150 #565151
0 151 #d7d7d7
0 152 #85807d
0 153 #3a3a3a
0 154 #4573aa
0 155 #aeaeae
0 156 #7b79a5
0 157 #73758c
0 158 #635dce
6 900 1035 1350 1260
2 2 0 1 -1 5 51 0 34 0.000 0 0 0 0 0 5
	 1350 1260 945 1260 945 1035 1350 1035 1350 1260
4 1 -1 50 0 17 8 0.0000 4 135 450 1125 1215 vnode\001
-6
6 540 1350 990 1575
2 2 0 1 -1 2 51 0 34 0.000 0 0 0 0 0 5
	 990 1575 585 1575 585 1350 990 1350 990 1575
4 1 -1 50 0 17 8 0.0000 4 135 450 765 1530 inode\001
-6
6 1215 1350 1665 1575
2 2 0 1 -1 3 51 0 34 0.000 0 0 0 0 0 5
	 1665 1575 1260 1575 1260 1350 1665 1350 1665 1575
4 1 -1 50 0 17 8 0.0000 4 135 450 1440 1530 rnode\001
-6
6 540 2160 1035 3060
6 540 2340 1035 3060
6 540 2340 990 3015
1 1 0 1 0 31 60 0 37 0.000 1 0.0000 765 2475 225 91 765 2475 990 2475
1 1 0 1 0 31 62 0 37 0.000 1 0.0000 765 2924 225 91 765 2924 990 2924
2 2 0 0 7 31 61 0 37 0.000 0 0 -1 0 0 5
	 540 2475 990 2475 990 2924 540 2924 540 2475
2 1 0 1 0 31 60 0 37 0.000 0 0 -1 0 0 2
	 540 2475 540 2924
2 1 0 1 0 31 60 0 37 0.000 0 0 -1 0 0 2
	 990 2475 990 2924
-6
6 585 2475 945 2880
2 1 0 1 0 -1 50 0 -1 0.000 0 0 -1 0 0 5
	 765 2475 675 2610 720 2700 675 2790 765 2880
2 1 0 1 0 -1 50 0 -1 0.000 0 0 -1 0 0 2
	 675 2610 585 2700
2 1 0 1 0 -1 50 0 -1 0.000 0 0 -1 0 0 2
	 675 2790 585 2880
2 1 0 1 0 -1 50 0 -1 0.000 0 0 -1 0 0 2
	 765 2475 855 2655
2 1 0 1 0 -1 50 0 -1 0.000 0 0 -1 0 0 3
	 855 2655 810 2745 855 2835
2 1 0 1 0 -1 50 0 -1 0.000 0 0 -1 0 0 2
	 855 2655 945 2745
2 1 0 1 0 -1 50 0 -1 0.000 0 0 -1 0 0 2
	 810 2745 810 2880
2 1 0 1 0 -1 50 0 -1 0.000 0 0 -1 0 0 2
	 765 2475 900 2520
2 1 0 1 0 -1 50 0 -1 0.000 0 0 -1 0 0 2
	 765 2475 765 2610
-6
6 585 2429 1035 3060
1 1 0 1 0 0 65 0 20 0.000 1 0.0000 810 2520 225 91 810 2520 1035 2520
1 1 0 1 0 0 67 0 20 0.000 1 0.0000 810 2969 225 91 810 2969 1035 2969
2 2 0 0 7 0 66 0 20 0.000 0 0 -1 0 0 5
	 585 2520 1035 2520 1035 2969 585 2969 585 2520
2 1 0 1 0 0 65 0 20 0.000 0 0 -1 0 0 2
	 585 2520 585 2969
2 1 0 1 0 0 65 0 20 0.000 0 0 -1 0 0 2
	 1035 2520 1035 2969
-6
-6
2 1 0 1 -1 -1 70 0 -1 0.000 0 0 -1 1 0 2
	1 1 1.00 45.00 90.00
	 765 2160 765 2385
-6
6 1229 2385 2160 3015
5 1 0 1 0 11 52 -1 30 0.000 0 0 0 0 1505.395 2620.111 1311 2714 1448 2412 1721 2631
5 1 0 1 0 11 53 -1 30 0.000 0 0 0 0 1791.006 2589.918 1613 2576 1776 2412 1969 2604
5 1 0 1 0 11 54 -1 30 0.000 0 0 0 0 1982.000 2645.500 1859 2550 2105 2550 1859 2741
5 1 0 1 0 11 55 -1 30 0.000 0 0 0 0 1804.500 2768.125 1941 2686 1886 2905 1668 2686
5 1 0 1 0 11 56 -1 30 0.000 0 1 0 0 1639.500 2809.500 1503 2659 1503 2960 1776 2659
5 1 0 1 0 11 57 -1 30 0.000 0 0 0 0 1407.000 2764.875 1530 2851 1284 2851 1339 2631
2 2 0 0 0 11 51 -1 30 0.000 0 0 -1 0 0 5
	 1394 2576 1914 2576 1914 2824 1394 2824 1394 2576
-6
6 1125 1620 1800 1800
2 2 0 1 0 11 52 -1 21 0.000 0 0 -1 0 0 5
	 1125 1620 1800 1620 1800 1800 1125 1800 1125 1620
4 1 -1 50 0 17 8 0.0000 4 135 270 1485 1755 RPC\001
-6
6 1125 1800 1800 1980
2 2 0 1 0 11 52 -1 25 0.000 0 0 -1 0 0 5
	 1125 1800 1800 1800 1800 1980 1125 1980 1125 1800
4 1 -1 50 0 17 8 0.0000 4 135 270 1485 1935 XDR\001
-6
6 1125 1980 1800 2160
2 2 0 1 0 11 52 -1 29 0.000 0 0 -1 0 0 5
	 1125 1980 1800 1980 1800 2160 1125 2160 1125 1980
4 1 -1 50 0 17 8 0.0000 4 135 270 1485 2115 UDP\001
-6
2 2 0 1 0 11 52 -1 38 0.000 0 0 -1 0 0 5
	 450 225 1800 225 1800 495 450 495 450 225
2 2 0 1 0 12 52 -1 38 0.000 0 0 -1 0 0 5
	 450 495 1800 495 1800 675 450 675 450 495
2 2 0 1 0 20 52 -1 38 0.000 0 0 -1 0 0 5
	 450 675 1800 675 1800 855 450 855 450 675
2 2 0 1 0 5 52 -1 38 0.000 0 0 -1 0 0 5
	 450 855 1800 855 1800 1305 450 1305 450 855
2 2 0 1 0 2 52 -1 38 0.000 0 0 -1 0 0 5
	 450 1305 1125 1305 1125 1620 450 1620 450 1305
2 2 0 1 0 3 52 -1 38 0.000 0 0 -1 0 0 5
	 1125 1305 1800 1305 1800 1620 1125 1620 1125 1305
2 2 0 1 0 8 52 -1 38 0.000 0 0 -1 0 0 5
	 450 1620 1125 1620 1125 2160 450 2160 450 1620
2 1 0 1 -1 -1 70 0 -1 0.000 0 0 -1 1 0 2
	1 1 1.00 60.00 120.00
	 1475 2167 1655 2437
2 2 0 1 -1 -1 55 0 20 0.000 0 0 0 0 0 5
	 1845 2205 495 2205 495 270 1845 270 1845 2205
4 1 -1 50 0 17 8 0.0000 4 165 1350 1125 630 interface noyau\001
4 1 -1 50 0 17 8 0.0000 4 120 810 1125 405 processus\001
4 1 -1 50 0 17 8 0.0000 4 135 270 1125 810 SGF\001
4 1 -1 50 0 17 8 0.0000 4 165 1710 1125 990 Virtual File System\001
4 1 -1 50 0 17 8 0.0000 4 135 630 810 1845 drivers\001
4 1 -1 50 0 17 8 0.0000 4 135 720 1665 2745 Internet\001
