#FIG 3.2  Produced by xfig version 3.2.5c
Portrait
Center
Metric
A4      
100.00
Single
-3
1200 2
0 32 #c6b797
0 33 #eff8ff
0 34 #dccba6
0 35 #404040
0 36 #808080
0 37 #c0c0c0
0 38 #e0e0e0
0 39 #8e8f8e
0 40 #aaaaaa
0 41 #555555
0 42 #bebebe
0 43 #515151
0 44 #e7e3e7
0 45 #000049
0 46 #797979
0 47 #303430
0 48 #414141
0 49 #c7b696
0 50 #8e8e8e
0 51 #414541
0 52 #8e8e8e
0 53 #cccccc
0 54 #868286
0 55 #c7c3c7
0 56 #444444
0 57 #868686
0 58 #c7c7c7
0 59 #e7e7e7
0 60 #f7f7f7
0 61 #9e9e9e
0 62 #717571
0 63 #effbff
0 64 #666666
0 65 #000000
0 66 #ffffff
0 67 #dd9d93
0 68 #f1ece0
0 69 #c3c3c3
0 70 #e2c8a8
0 71 #e1e1e1
0 72 #d2d2d2
0 73 #ededed
0 74 #da7a1a
0 75 #f1e41a
0 76 #887dc2
0 77 #d6d6d6
0 78 #8c8ca5
0 79 #4a4a4a
0 80 #5a5a5a
0 81 #636363
0 82 #b79b73
0 83 #4193ff
0 84 #bf703b
0 85 #db7700
0 86 #dab800
0 87 #006400
0 88 #5a6b3b
0 89 #d3d3d3
0 90 #8e8ea4
0 91 #f3b95d
0 92 #89996b
0 93 #646464
0 94 #b7e6ff
0 95 #86c0ec
0 96 #bdbdbd
0 97 #d39552
0 98 #98d2fe
0 99 #8c6b6b
0 100 #eeeeee
0 101 #848484
0 102 #7b7b7b
0 103 #005a00
0 104 #e77373
0 105 #ffcb31
0 106 #29794a
0 107 #de2821
0 108 #2159c6
0 109 #f8f8f8
0 110 #e6e6e6
0 111 #a5b5c6
0 112 #6b6b94
0 113 #846b6b
0 114 #529c4a
0 115 #d6e7e7
0 116 #526363
0 117 #186b4a
0 118 #21845a
0 119 #f3eed3
0 120 #f5ae5d
0 121 #95ce99
0 122 #b5157d
0 123 #5a6b39
0 124 #8c9c6b
0 125 #8c9c7b
0 126 #184a18
0 127 #adadad
0 128 #f7bd5a
0 129 #636b9c
0 130 #de0000
0 131 #adadad
0 132 #f7bd5a
0 133 #adadad
0 134 #f7bd5a
0 135 #636b9c
0 136 #526b29
0 137 #949494
0 138 #006300
0 139 #9ca5b5
0 140 #ff9400
0 141 #ff9400
0 142 #00634a
0 143 #7b844a
0 144 #63737b
0 145 #e7bd7b
0 146 #184a18
0 147 #f7bd5a
0 148 #dedede
0 149 #f76b00
6 450 3060 900 3735
1 1 0 1 0 11 51 0 36 0.000 1 0.0000 675 3151 225 91 675 3151 900 3151
1 1 0 1 0 11 52 0 36 0.000 1 0.0000 675 3600 225 91 675 3600 900 3600
2 1 0 1 0 7 49 0 -1 0.000 0 0 -1 0 0 2
	 450 3151 450 3600
2 1 0 1 0 7 49 0 -1 0.000 0 0 -1 0 0 2
	 900 3151 900 3600
2 2 0 0 0 11 52 0 36 0.000 0 0 7 0 0 5
	 450 3151 900 3151 900 3600 450 3600 450 3151
-6
6 2700 3060 3150 3735
1 1 0 1 0 11 51 0 36 0.000 1 0.0000 2925 3151 225 91 2925 3151 3150 3151
1 1 0 1 0 11 52 0 36 0.000 1 0.0000 2925 3600 225 91 2925 3600 3150 3600
2 1 0 1 0 7 49 0 -1 0.000 0 0 -1 0 0 2
	 2700 3151 2700 3600
2 1 0 1 0 7 49 0 -1 0.000 0 0 -1 0 0 2
	 3150 3151 3150 3600
2 2 0 0 0 11 52 0 36 0.000 0 0 7 0 0 5
	 2700 3151 3150 3151 3150 3600 2700 3600 2700 3151
-6
6 675 1980 1125 2655
1 1 0 1 0 11 51 0 36 0.000 1 0.0000 900 2071 225 91 900 2071 1125 2071
1 1 0 1 0 11 52 0 36 0.000 1 0.0000 900 2520 225 91 900 2520 1125 2520
2 1 0 1 0 7 49 0 -1 0.000 0 0 -1 0 0 2
	 675 2071 675 2520
2 1 0 1 0 7 49 0 -1 0.000 0 0 -1 0 0 2
	 1125 2071 1125 2520
2 2 0 0 0 11 52 0 36 0.000 0 0 7 0 0 5
	 675 2071 1125 2071 1125 2520 675 2520 675 2071
-6
6 1575 1980 2025 2655
1 1 0 1 0 11 51 0 36 0.000 1 0.0000 1800 2071 225 91 1800 2071 2025 2071
1 1 0 1 0 11 52 0 36 0.000 1 0.0000 1800 2520 225 91 1800 2520 2025 2520
2 1 0 1 0 7 49 0 -1 0.000 0 0 -1 0 0 2
	 1575 2071 1575 2520
2 1 0 1 0 7 49 0 -1 0.000 0 0 -1 0 0 2
	 2025 2071 2025 2520
2 2 0 0 0 11 52 0 36 0.000 0 0 7 0 0 5
	 1575 2071 2025 2071 2025 2520 1575 2520 1575 2071
-6
6 2475 1980 2925 2655
1 1 0 1 0 11 51 0 36 0.000 1 0.0000 2700 2071 225 91 2700 2071 2925 2071
1 1 0 1 0 11 52 0 36 0.000 1 0.0000 2700 2520 225 91 2700 2520 2925 2520
2 1 0 1 0 7 49 0 -1 0.000 0 0 -1 0 0 2
	 2475 2071 2475 2520
2 1 0 1 0 7 49 0 -1 0.000 0 0 -1 0 0 2
	 2925 2071 2925 2520
2 2 0 0 0 11 52 0 36 0.000 0 0 7 0 0 5
	 2475 2071 2925 2071 2925 2520 2475 2520 2475 2071
-6
6 45 225 495 900
1 1 0 1 0 11 51 0 36 0.000 1 0.0000 270 316 225 91 270 316 495 316
1 1 0 1 0 11 52 0 36 0.000 1 0.0000 270 765 225 91 270 765 495 765
2 1 0 1 0 7 49 0 -1 0.000 0 0 -1 0 0 2
	 45 316 45 765
2 1 0 1 0 7 49 0 -1 0.000 0 0 -1 0 0 2
	 495 316 495 765
2 2 0 0 0 11 52 0 36 0.000 0 0 7 0 0 5
	 45 316 495 316 495 765 45 765 45 316
-6
6 1575 225 2025 900
1 1 0 1 0 11 51 0 36 0.000 1 0.0000 1800 316 225 91 1800 316 2025 316
1 1 0 1 0 11 52 0 36 0.000 1 0.0000 1800 765 225 91 1800 765 2025 765
2 1 0 1 0 7 49 0 -1 0.000 0 0 -1 0 0 2
	 1575 316 1575 765
2 1 0 1 0 7 49 0 -1 0.000 0 0 -1 0 0 2
	 2025 316 2025 765
2 2 0 0 0 11 52 0 36 0.000 0 0 7 0 0 5
	 1575 316 2025 316 2025 765 1575 765 1575 316
-6
6 3150 225 3600 900
1 1 0 1 0 11 51 0 36 0.000 1 0.0000 3375 316 225 91 3375 316 3600 316
1 1 0 1 0 11 52 0 36 0.000 1 0.0000 3375 765 225 91 3375 765 3600 765
2 1 0 1 0 7 49 0 -1 0.000 0 0 -1 0 0 2
	 3150 316 3150 765
2 1 0 1 0 7 49 0 -1 0.000 0 0 -1 0 0 2
	 3600 316 3600 765
2 2 0 0 0 11 52 0 36 0.000 0 0 7 0 0 5
	 3150 316 3600 316 3600 765 3150 765 3150 316
-6
# Coffee grinder
6 1575 1056 2025 1620
1 4 0 0 0 26 60 -1 24 0.000 1 0.0000 1848 1538 32 32 1816 1544 1879 1531
2 3 0 0 0 0 60 -1 16 0.000 0 0 -1 0 0 9
	 1768 1211 1768 1132 1984 1157 2003 1157 2003 1176 1984 1176
	 1787 1151 1787 1211 1768 1211
2 3 0 0 0 26 60 -1 24 0.000 0 0 7 0 0 18
	 1984 1157 1984 1123 1981 1113 1968 1100 1962 1091 1962 1078
	 1968 1066 1977 1059 1993 1056 2009 1059 2019 1066 2025 1078
	 2025 1091 2019 1100 2006 1113 2003 1123 2003 1157 1984 1157
2 3 0 0 0 26 62 -1 20 0.000 0 0 7 0 0 5
	 1689 1344 1958 1322 1958 1557 1689 1582 1689 1344
2 3 0 0 0 26 62 -1 24 0.000 0 0 7 0 0 5
	 1689 1582 1958 1557 1990 1588 1676 1620 1689 1582
2 3 0 0 0 26 62 -1 16 0.000 0 0 7 0 0 5
	 1604 1512 1604 1294 1689 1344 1689 1582 1604 1512
2 3 0 0 0 26 62 -1 16 0.000 0 0 7 0 0 5
	 1604 1512 1575 1534 1676 1620 1689 1582 1604 1512
2 3 0 0 0 26 61 -1 24 0.000 0 0 7 0 0 5
	 1705 1484 1946 1462 1936 1481 1727 1500 1705 1484
2 3 0 0 0 26 61 -1 24 0.000 0 0 7 0 0 5
	 1946 1462 1946 1557 1936 1563 1936 1481 1946 1462
2 3 0 0 0 26 61 -1 20 0.000 0 0 7 0 0 5
	 1727 1500 1727 1582 1936 1563 1936 1481 1727 1500
2 3 0 0 0 26 61 -1 16 0.000 0 0 7 0 0 5
	 1705 1484 1705 1582 1727 1582 1727 1500 1705 1484
2 3 0 0 0 26 61 -1 16 0.000 0 0 7 0 0 5
	 1597 1271 1575 1290 1673 1354 1683 1325 1597 1271
2 3 0 0 0 26 61 -1 24 0.000 0 0 7 0 0 5
	 1597 1271 1683 1325 1974 1303 1863 1252 1597 1271
2 3 0 0 0 26 61 -1 24 0.000 0 0 7 0 0 5
	 1683 1325 1974 1303 1996 1328 1673 1354 1683 1325
2 3 0 0 0 31 60 -1 16 0.000 0 0 -1 0 0 21
	 1676 1284 1689 1294 1718 1300 1759 1303 1800 1303 1848 1300
	 1876 1290 1882 1281 1873 1259 1863 1246 1848 1233 1825 1221
	 1806 1214 1787 1211 1768 1211 1749 1214 1724 1224 1708 1237
	 1692 1252 1683 1271 1676 1284
-6
2 1 1 1 -1 -1 60 0 -1 4.000 0 0 -1 1 0 2
	1 1 1.00 45.00 90.00
	 990 3375 2610 3375
2 1 0 1 -1 -1 60 0 -1 0.000 0 0 -1 1 0 2
	1 1 1.00 45.00 90.00
	 1800 810 1800 1080
2 1 0 1 -1 -1 60 0 -1 0.000 0 0 -1 1 0 2
	1 1 1.00 45.00 90.00
	 1800 1620 1125 1800
2 1 0 1 -1 -1 60 0 -1 0.000 0 0 -1 1 0 2
	1 1 1.00 45.00 90.00
	 1800 1620 1800 1800
2 1 0 1 -1 -1 60 0 -1 0.000 0 0 -1 1 0 2
	1 1 1.00 45.00 90.00
	 1800 1620 2475 1800
2 1 0 1 -1 -1 60 0 -1 0.000 0 0 -1 1 0 2
	1 1 1.00 45.00 90.00
	 3375 810 2970 3060
2 1 0 1 -1 -1 60 0 -1 0.000 0 0 -1 1 0 2
	1 1 1.00 45.00 90.00
	 2700 2565 2925 3060
2 1 0 1 -1 -1 60 0 -1 0.000 0 0 -1 1 0 2
	1 1 1.00 45.00 90.00
	 1800 2565 2880 3060
2 1 0 1 -1 -1 60 0 -1 0.000 0 0 -1 1 0 2
	1 1 1.00 45.00 90.00
	 1800 2565 720 3060
2 1 0 1 -1 -1 60 0 -1 0.000 0 0 -1 1 0 2
	1 1 1.00 45.00 90.00
	 900 2565 675 3060
2 1 0 1 -1 -1 60 0 -1 0.000 0 0 -1 1 0 2
	1 1 1.00 45.00 90.00
	 225 810 630 3060
4 1 -1 50 0 12 6 0.0000 4 135 540 675 3825 client\001
4 1 -1 50 0 12 6 0.0000 4 90 630 2925 3825 serveur\001
4 1 -1 50 0 12 6 0.0000 4 135 900 2700 1935 toto_svc.c\001
4 1 -1 50 0 12 6 0.0000 4 150 900 1800 1935 toto_xdr.c\001
4 1 -1 50 0 12 6 0.0000 4 150 990 900 1935 toto_clnt.c\001
4 1 -1 50 0 12 6 0.0000 4 135 540 1800 180 toto.x\001
4 1 -1 50 0 12 6 0.0000 4 150 720 270 180 client.c\001
4 1 -1 50 0 12 6 0.0000 4 105 810 3375 180 serveur.c\001
4 0 -1 50 0 12 8 0.0000 4 120 540 2025 1485 rpcgen\001
