#FIG 3.2  Produced by xfig version 3.2.5c
Portrait
Center
Metric
A4      
100.00
Single
-2
1200 2
2 2 0 1 -1 6 51 0 20 0.000 0 0 0 0 0 5
	 450 675 225 675 225 450 450 450 450 675
2 2 0 1 0 6 51 0 45 0.000 0 0 7 0 0 5
	 2025 675 450 675 450 450 2025 450 2025 675
2 2 0 1 0 0 52 -1 45 0.000 0 0 -1 0 0 5
	 270 495 2070 495 2070 720 270 720 270 495
2 1 0 1 0 0 50 0 -1 0.000 0 0 7 1 0 2
	1 1 1.00 45.00 60.00
	 360 270 360 405
2 2 0 1 -1 6 51 0 20 0.000 0 0 7 0 0 5
	 450 3015 450 2790 225 2790 225 3015 450 3015
2 2 0 1 -1 6 51 0 20 0.000 0 0 7 0 0 5
	 675 3015 675 2790 450 2790 450 3015 675 3015
2 2 0 1 -1 6 51 0 20 0.000 0 0 7 0 0 5
	 1125 3015 1125 2790 675 2790 675 3015 1125 3015
2 1 0 1 -1 6 51 0 20 0.000 0 0 7 0 0 4
	 1125 2790 2925 2790 2925 3015 1125 3015
2 2 0 1 -1 6 51 0 20 0.000 0 0 7 0 0 5
	 3375 3015 3375 2790 2925 2790 2925 3015 3375 3015
2 2 0 1 0 0 52 -1 45 0.000 0 0 -1 0 0 5
	 270 2835 3420 2835 3420 3060 270 3060 270 2835
2 1 0 1 0 0 50 0 -1 0.000 0 0 -1 1 0 2
	1 1 1.00 45.00 60.00
	 2025 2610 2025 2745
2 1 0 1 0 0 50 0 -1 0.000 0 0 7 1 0 2
	1 1 1.00 45.00 60.00
	 3150 2610 3150 2745
2 1 0 1 0 0 50 0 -1 0.000 0 0 7 1 0 2
	1 1 1.00 45.00 60.00
	 900 2610 900 2745
2 1 0 1 0 0 50 0 -1 0.000 0 0 7 1 0 2
	1 1 1.00 45.00 60.00
	 540 2475 540 2745
2 1 0 1 0 0 50 0 -1 0.000 0 0 7 1 0 2
	1 1 1.00 45.00 60.00
	 315 2340 315 2745
2 2 0 1 -1 6 51 0 20 0.000 0 0 7 0 0 5
	 450 1845 450 1620 225 1620 225 1845 450 1845
2 2 0 1 -1 6 51 0 20 0.000 0 0 7 0 0 5
	 675 1845 675 1620 450 1620 450 1845 675 1845
2 2 0 1 -1 6 51 0 20 0.000 0 0 7 0 0 5
	 1125 1845 1125 1620 675 1620 675 1845 1125 1845
2 2 0 1 0 6 51 0 45 0.000 0 0 7 0 0 5
	 2025 1845 1125 1845 1125 1620 2025 1620 2025 1845
2 2 0 1 0 0 52 -1 45 0.000 0 0 -1 0 0 5
	 270 1665 2070 1665 2070 1890 270 1890 270 1665
2 1 0 1 0 0 50 0 -1 0.000 0 0 7 1 0 2
	1 1 1.00 45.00 60.00
	 315 1170 315 1575
2 1 0 1 0 0 50 0 -1 0.000 0 0 7 1 0 2
	1 1 1.00 45.00 60.00
	 540 1305 540 1575
2 1 0 1 0 0 50 0 -1 0.000 0 0 7 1 0 2
	1 1 1.00 45.00 60.00
	 900 1440 900 1575
4 0 1 50 0 16 8 0.0000 4 105 975 225 855 struct sockaddr\001
4 0 0 50 0 17 8 0.0000 4 135 690 1080 855 (g\351n\351rique)\001
4 0 0 50 0 17 6 0.0000 4 75 330 315 225 famille\001
4 1 0 50 0 17 6 0.0000 4 90 420 3150 2565 scope id\001
4 0 1 50 0 16 8 0.0000 4 120 1230 225 3195 struct sockaddr_in6\001
4 0 0 50 0 17 8 0.0000 4 135 375 1350 3195 (IPv6)\001
4 0 1 50 0 16 6 0.0000 4 90 495 270 2295 AF_INET6\001
4 0 0 50 0 17 6 0.0000 4 90 825 495 2430 port TCP ou UDP\001
4 0 0 50 0 17 6 0.0000 4 75 405 855 2565 flow info\001
4 0 0 50 0 17 6 0.0000 4 75 645 1980 2565 adresse IPv6\001
4 0 1 50 0 16 8 0.0000 4 120 1155 225 2025 struct sockaddr_in\001
4 0 0 50 0 17 8 0.0000 4 135 375 1260 2025 (IPv4)\001
4 0 0 50 0 17 6 0.0000 4 75 645 855 1395 adresse IPv4\001
4 0 1 50 0 16 6 0.0000 4 90 435 270 1125 AF_INET\001
4 0 0 50 0 17 6 0.0000 4 90 825 495 1260 port TCP ou UDP\001
