#FIG 3.2  Produced by xfig version 3.2.7b
Landscape
Center
Metric
A4
100.00
Single
-2
1200 2
6 2535 510 2655 1680
4 2 0 50 -1 16 6 0.0000 4 90 120 2655 585 $0\001
4 2 0 50 -1 16 6 0.0000 4 90 120 2655 765 $1\001
4 2 0 50 -1 16 6 0.0000 4 90 120 2655 945 $2\001
4 2 0 50 -1 16 6 0.0000 4 90 120 2655 1125 $3\001
4 2 0 50 -1 16 6 0.0000 4 90 120 2655 1485 $8\001
4 2 0 50 -1 16 6 0.0000 4 90 120 2655 1665 $9\001
-6
2 1 0 1 0 7 50 -1 -1 0.000 0 0 -1 0 0 2
	 900 630 1620 630
2 1 0 1 0 7 50 -1 -1 0.000 0 0 -1 0 0 2
	 900 810 1620 810
2 1 0 1 0 7 50 -1 -1 0.000 0 0 -1 0 0 2
	 900 990 1620 990
2 1 0 1 0 7 50 -1 -1 0.000 0 0 -1 0 0 2
	 900 1170 1620 1170
2 1 0 1 0 7 50 -1 -1 0.000 0 0 -1 0 0 2
	 900 1350 1620 1350
2 1 0 1 0 7 50 -1 -1 0.000 0 0 -1 0 0 2
	 900 1530 1620 1530
2 1 0 1 0 7 50 -1 -1 0.000 0 0 -1 0 0 2
	 900 1710 1620 1710
2 1 0 1 0 7 50 -1 -1 0.000 0 0 -1 0 0 2
	 900 1890 1620 1890
2 1 0 1 0 7 50 -1 -1 0.000 0 0 -1 0 0 2
	 900 2070 1620 2070
2 2 0 1 -1 22 51 -1 37 0.000 0 0 -1 0 0 5
	 900 450 1620 450 1620 2610 900 2610 900 450
2 2 0 1 -1 -1 52 -1 20 0.000 0 0 -1 0 0 5
	 945 495 1665 495 1665 2655 945 2655 945 495
2 1 0 2 12 0 50 -1 -1 0.000 0 0 7 1 0 2
	1 1 1.00 60.00 120.00
	 1710 1975 2475 1795
2 1 0 2 12 0 50 -1 -1 0.000 0 0 7 1 0 2
	1 1 1.00 60.00 120.00
	 1710 1794 2475 1614
2 1 0 2 12 0 50 -1 -1 0.000 0 0 7 1 0 2
	1 1 1.00 60.00 120.00
	 1710 1650 2475 1470
2 1 0 2 12 0 50 -1 -1 0.000 0 0 7 1 0 2
	1 1 1.00 60.00 120.00
	 1710 1435 2475 1255
2 1 0 2 12 0 50 -1 -1 0.000 0 0 7 1 0 2
	1 1 1.00 60.00 120.00
	 1710 1075 2475 895
2 1 0 2 12 0 50 -1 -1 0.000 0 0 7 1 0 2
	1 1 1.00 60.00 120.00
	 1710 900 2475 720
2 1 0 2 12 0 50 -1 -1 0.000 0 0 -1 1 0 2
	1 1 1.00 60.00 120.00
	 1710 540 2475 540
2 1 0 2 12 0 50 -1 -1 0.000 0 0 -1 1 0 2
	1 1 1.00 60.00 120.00
	 1710 720 1890 675
2 1 0 1 0 7 50 -1 -1 0.000 0 0 -1 0 0 2
	 2700 630 3420 630
2 1 0 1 0 7 50 -1 -1 0.000 0 0 -1 0 0 2
	 2700 810 3420 810
2 1 0 1 0 7 50 -1 -1 0.000 0 0 -1 0 0 2
	 2700 990 3420 990
2 1 0 1 0 7 50 -1 -1 0.000 0 0 -1 0 0 2
	 2700 1170 3420 1170
2 1 0 1 0 7 50 -1 -1 0.000 0 0 -1 0 0 2
	 2700 1350 3420 1350
2 1 0 1 0 7 50 -1 -1 0.000 0 0 -1 0 0 2
	 2700 1530 3420 1530
2 1 0 1 0 7 50 -1 -1 0.000 0 0 -1 0 0 2
	 2700 1710 3420 1710
2 1 0 1 0 7 50 -1 -1 0.000 0 0 -1 0 0 2
	 2700 1890 3420 1890
2 1 0 1 0 7 50 -1 -1 0.000 0 0 -1 0 0 2
	 2700 2070 3420 2070
2 2 0 1 -1 22 51 -1 37 0.000 0 0 7 0 0 5
	 2700 450 3420 450 3420 2430 2700 2430 2700 450
2 2 0 1 -1 0 52 -1 20 0.000 0 0 7 0 0 5
	 2745 495 3465 495 3465 2475 2745 2475 2745 495
4 1 0 50 -1 16 8 0.0000 4 15 225 1260 1260 . . .\001
4 1 0 50 -1 16 8 0.0000 4 15 225 1260 2250 . . .\001
4 1 1 50 -1 16 8 0.0000 4 105 300 1260 585 echo\001
4 1 1 50 -1 16 8 0.0000 4 120 270 1260 765 arg1\001
4 1 1 50 -1 16 8 0.0000 4 135 270 1260 945 arg2\001
4 1 1 50 -1 16 8 0.0000 4 135 270 1260 1125 arg3\001
4 1 1 50 -1 16 8 0.0000 4 135 270 1260 1485 arg8\001
4 1 1 50 -1 16 8 0.0000 4 135 270 1260 1665 arg9\001
4 1 1 50 -1 16 8 0.0000 4 135 345 1260 1845 arg10\001
4 1 1 50 -1 16 8 0.0000 4 120 345 1260 2025 arg11\001
4 1 0 50 -1 16 8 0.0000 4 120 465 1260 2790 $# = 28\001
4 1 -1 51 -1 17 10 0.0000 4 150 780 1260 405 arguments\001
4 1 1 50 -1 16 8 0.0000 4 105 270 2070 450 shift\001
4 0 4 50 -1 17 6 0.0000 4 105 330 1890 720 perdu !\001
4 1 1 50 -1 16 8 0.0000 4 105 300 3060 585 echo\001
4 1 1 50 -1 16 8 0.0000 4 135 270 3060 765 arg2\001
4 1 1 50 -1 16 8 0.0000 4 135 270 3060 945 arg3\001
4 1 1 50 -1 16 8 0.0000 4 135 270 3060 1125 arg4\001
4 1 1 50 -1 16 8 0.0000 4 135 270 3060 1485 arg9\001
4 1 1 50 -1 16 8 0.0000 4 135 345 3060 1665 arg10\001
4 1 1 50 -1 16 8 0.0000 4 120 345 3060 1845 arg11\001
4 1 1 50 -1 16 8 0.0000 4 135 345 3060 2025 arg12\001
4 1 0 50 -1 16 8 0.0000 4 15 225 3060 2250 . . .\001
4 1 0 50 -1 16 8 0.0000 4 15 225 3060 1260 . . .\001
4 1 0 50 -1 16 8 0.0000 4 120 465 3060 2610 $# = 27\001
4 1 -1 51 -1 17 10 0.0000 4 150 780 3060 405 arguments\001
4 2 0 50 -1 16 6 0.0000 4 90 180 2655 2025 $11\001
4 2 0 50 -1 16 6 0.0000 4 90 180 2655 1845 $10\001
4 2 0 50 -1 16 6 0.0000 4 90 120 855 585 $0\001
4 2 0 50 -1 16 6 0.0000 4 90 120 855 765 $1\001
4 2 0 50 -1 16 6 0.0000 4 90 120 855 945 $2\001
4 2 0 50 -1 16 6 0.0000 4 90 120 855 1125 $3\001
4 2 0 50 -1 16 6 0.0000 4 90 120 855 1485 $8\001
4 2 0 50 -1 16 6 0.0000 4 90 120 855 1665 $9\001
4 2 0 50 -1 16 6 0.0000 4 90 180 855 1845 $10\001
4 2 0 50 -1 16 6 0.0000 4 90 180 855 2025 $11\001
