#FIG 3.2  Produced by xfig version 3.2.5c
Landscape
Center
Metric
A4      
100.00
Single
-2
1200 2
0 32 #525d6b
0 33 #9c9a9c
0 34 #b5b6c6
0 35 #848284
0 36 #c6c3c6
0 37 #e7e3e7
0 38 #c6c7c6
0 39 #868286
0 40 #c7c3c7
0 41 #c7c7c7
0 42 #757575
0 43 #9e9e9e
0 44 #8e8e8e
0 45 #444444
0 46 #414541
0 47 #d7d3d7
0 48 #aeaaae
0 49 #303030
0 50 #515551
0 51 #f7f3f7
0 52 #dedfde
0 53 #424542
0 54 #808080
0 55 #c0c0c0
0 56 #e0e0e0
0 57 #717571
0 58 #aaaaaa
0 59 #555555
0 60 #f3f3f3
0 61 #868686
0 62 #e7e7e7
0 63 #f7f7f7
0 64 #414141
0 65 #effbff
0 66 #c6b797
0 67 #eff8ff
0 68 #dccba6
0 69 #404040
0 70 #8e8f8e
0 71 #565151
0 72 #d7d7d7
0 73 #85807d
0 74 #d2d2d2
0 75 #3a3a3a
0 76 #4573aa
0 77 #aeaeae
0 78 #7b79a5
0 79 #73758c
0 80 #635dce
0 81 #bebebe
0 82 #515151
0 83 #000049
0 84 #797979
0 85 #303430
0 86 #c7b696
# Netgear 4 port ethernet 10/100 hub
# By Bill Chimiak w.chimiak@ieee.org 10/2001
6 257 1969 1035 2430
2 3 0 1 0 9 57 0 20 0.000 1 0 -1 0 0 5
	 257 2270 411 2193 1033 2197 887 2273 257 2270
2 1 0 3 2 7 50 0 -1 0.000 0 0 -1 0 0 1
	 328 2352
2 1 0 3 6 7 50 0 -1 0.000 0 0 -1 0 0 1
	 471 2352
2 1 0 3 2 7 50 0 -1 0.000 0 0 -1 0 0 1
	 400 2352
2 1 0 3 2 7 50 0 -1 0.000 0 0 -1 0 0 1
	 543 2352
2 3 0 1 0 8 57 0 20 0.000 1 0 -1 0 0 5
	 881 2276 881 2430 1035 2314 1035 2199 881 2276
2 2 0 1 0 9 70 0 20 0.000 0 1 -1 0 0 5
	 257 2273 885 2273 885 2430 257 2430 257 2273
2 3 0 1 0 0 71 -1 20 0.000 0 0 -1 0 0 6
	 868 2215 889 1980 893 1969 898 1982 906 2215 868 2215
-6
# Netgear 4 port ethernet 10/100 hub
# By Bill Chimiak w.chimiak@ieee.org 10/2001
6 2012 1969 2790 2430
2 3 0 1 0 9 57 0 20 0.000 1 0 -1 0 0 5
	 2012 2270 2166 2193 2788 2197 2642 2273 2012 2270
2 1 0 3 2 7 50 0 -1 0.000 0 0 -1 0 0 1
	 2083 2352
2 1 0 3 6 7 50 0 -1 0.000 0 0 -1 0 0 1
	 2226 2352
2 1 0 3 2 7 50 0 -1 0.000 0 0 -1 0 0 1
	 2155 2352
2 1 0 3 2 7 50 0 -1 0.000 0 0 -1 0 0 1
	 2298 2352
2 3 0 1 0 8 57 0 20 0.000 1 0 -1 0 0 5
	 2636 2276 2636 2430 2790 2314 2790 2199 2636 2276
2 2 0 1 0 9 70 0 20 0.000 0 1 -1 0 0 5
	 2012 2273 2640 2273 2640 2430 2012 2430 2012 2273
2 3 0 1 0 0 71 -1 20 0.000 0 0 -1 0 0 6
	 2623 2215 2644 1980 2648 1969 2653 1982 2661 2215 2623 2215
-6
# Netgear 4 port ethernet 10/100 hub
# By Bill Chimiak w.chimiak@ieee.org 10/2001
6 3812 1969 4590 2430
2 3 0 1 0 9 57 0 20 0.000 1 0 -1 0 0 5
	 3812 2270 3966 2193 4588 2197 4442 2273 3812 2270
2 1 0 3 2 7 50 0 -1 0.000 0 0 -1 0 0 1
	 3883 2352
2 1 0 3 6 7 50 0 -1 0.000 0 0 -1 0 0 1
	 4026 2352
2 1 0 3 2 7 50 0 -1 0.000 0 0 -1 0 0 1
	 3955 2352
2 1 0 3 2 7 50 0 -1 0.000 0 0 -1 0 0 1
	 4098 2352
2 3 0 1 0 8 57 0 20 0.000 1 0 -1 0 0 5
	 4436 2276 4436 2430 4590 2314 4590 2199 4436 2276
2 2 0 1 0 9 70 0 20 0.000 0 1 -1 0 0 5
	 3812 2273 4440 2273 4440 2430 3812 2430 3812 2273
2 3 0 1 0 0 71 -1 20 0.000 0 0 -1 0 0 6
	 4423 2215 4444 1980 4448 1969 4453 1982 4461 2215 4423 2215
-6
# A laptop
# drawn by P. David
6 2115 765 2655 1112
2 2 0 0 0 7 60 -1 16 0.000 0 0 -1 0 0 5
	 2173 784 2597 784 2597 1028 2173 1028 2173 784
2 3 0 0 0 7 60 -1 2 0.000 1 0 -1 0 0 5
	 2173 1054 2147 1080 2623 1080 2597 1054 2173 1054
2 3 0 0 0 7 61 -1 6 0.000 1 0 -1 0 0 5
	 2166 1048 2604 1048 2655 1099 2115 1099 2166 1048
2 2 0 0 0 7 60 -1 3 0.000 0 0 -1 0 0 5
	 2115 1099 2655 1099 2655 1106 2115 1106 2115 1099
2 3 0 0 0 7 60 -1 3 0.000 1 0 -1 0 0 5
	 2115 1106 2134 1112 2636 1112 2655 1106 2115 1106
2 3 0 0 0 7 60 -1 10 0.000 0 0 -1 0 0 5
	 2335 1082 2403 1082 2408 1096 2325 1096 2335 1082
2 4 0 0 0 7 61 -1 3 0.000 0 0 1 0 0 5
	 2610 1048 2160 1048 2160 765 2610 765 2610 1048
-6
# A laptop
# drawn by P. David
6 3015 810 3555 1157
2 2 0 0 0 7 60 -1 16 0.000 0 0 -1 0 0 5
	 3073 829 3497 829 3497 1073 3073 1073 3073 829
2 3 0 0 0 7 60 -1 2 0.000 1 0 -1 0 0 5
	 3073 1099 3047 1125 3523 1125 3497 1099 3073 1099
2 3 0 0 0 7 61 -1 6 0.000 1 0 -1 0 0 5
	 3066 1093 3504 1093 3555 1144 3015 1144 3066 1093
2 2 0 0 0 7 60 -1 3 0.000 0 0 -1 0 0 5
	 3015 1144 3555 1144 3555 1151 3015 1151 3015 1144
2 3 0 0 0 7 60 -1 3 0.000 1 0 -1 0 0 5
	 3015 1151 3034 1157 3536 1157 3555 1151 3015 1151
2 3 0 0 0 7 60 -1 10 0.000 0 0 -1 0 0 5
	 3235 1127 3303 1127 3308 1141 3225 1141 3235 1127
2 4 0 0 0 7 61 -1 3 0.000 0 0 1 0 0 5
	 3510 1093 3060 1093 3060 810 3510 810 3510 1093
-6
# A laptop
# drawn by P. David
6 4140 630 4680 977
2 2 0 0 0 7 60 -1 16 0.000 0 0 -1 0 0 5
	 4198 649 4622 649 4622 893 4198 893 4198 649
2 3 0 0 0 7 60 -1 2 0.000 1 0 -1 0 0 5
	 4198 919 4172 945 4648 945 4622 919 4198 919
2 3 0 0 0 7 61 -1 6 0.000 1 0 -1 0 0 5
	 4191 913 4629 913 4680 964 4140 964 4191 913
2 2 0 0 0 7 60 -1 3 0.000 0 0 -1 0 0 5
	 4140 964 4680 964 4680 971 4140 971 4140 964
2 3 0 0 0 7 60 -1 3 0.000 1 0 -1 0 0 5
	 4140 971 4159 977 4661 977 4680 971 4140 971
2 3 0 0 0 7 60 -1 10 0.000 0 0 -1 0 0 5
	 4360 947 4428 947 4433 961 4350 961 4360 947
2 4 0 0 0 7 61 -1 3 0.000 0 0 1 0 0 5
	 4635 913 4185 913 4185 630 4635 630 4635 913
-6
# A laptop
# drawn by P. David
6 1440 540 1980 887
2 2 0 0 0 7 60 -1 16 0.000 0 0 -1 0 0 5
	 1498 559 1922 559 1922 803 1498 803 1498 559
2 3 0 0 0 7 60 -1 2 0.000 1 0 -1 0 0 5
	 1498 829 1472 855 1948 855 1922 829 1498 829
2 3 0 0 0 7 61 -1 6 0.000 1 0 -1 0 0 5
	 1491 823 1929 823 1980 874 1440 874 1491 823
2 2 0 0 0 7 60 -1 3 0.000 0 0 -1 0 0 5
	 1440 874 1980 874 1980 881 1440 881 1440 874
2 3 0 0 0 7 60 -1 3 0.000 1 0 -1 0 0 5
	 1440 881 1459 887 1961 887 1980 881 1440 881
2 3 0 0 0 7 60 -1 10 0.000 0 0 -1 0 0 5
	 1660 857 1728 857 1733 871 1650 871 1660 857
2 4 0 0 0 7 61 -1 3 0.000 0 0 1 0 0 5
	 1935 823 1485 823 1485 540 1935 540 1935 823
-6
# A laptop
# drawn by P. David
6 540 180 1080 527
2 2 0 0 0 7 60 -1 16 0.000 0 0 -1 0 0 5
	 598 199 1022 199 1022 443 598 443 598 199
2 3 0 0 0 7 60 -1 2 0.000 1 0 -1 0 0 5
	 598 469 572 495 1048 495 1022 469 598 469
2 3 0 0 0 7 61 -1 6 0.000 1 0 -1 0 0 5
	 591 463 1029 463 1080 514 540 514 591 463
2 2 0 0 0 7 60 -1 3 0.000 0 0 -1 0 0 5
	 540 514 1080 514 1080 521 540 521 540 514
2 3 0 0 0 7 60 -1 3 0.000 1 0 -1 0 0 5
	 540 521 559 527 1061 527 1080 521 540 521
2 3 0 0 0 7 60 -1 10 0.000 0 0 -1 0 0 5
	 760 497 828 497 833 511 750 511 760 497
2 4 0 0 0 7 61 -1 3 0.000 0 0 1 0 0 5
	 1035 463 585 463 585 180 1035 180 1035 463
-6
3 0 0 1 0 0 71 -1 -1 4.000 0 1 0 3
	1 1 1.00 60.00 120.00
	 1710 945 1665 1620 2205 2115
	 0.000 1.000 0.000
3 0 0 1 0 0 71 -1 -1 4.000 0 1 0 3
	1 1 1.00 60.00 120.00
	 2205 1170 2115 1530 2295 2115
	 0.000 1.000 0.000
3 0 0 1 0 0 71 -1 -1 4.000 0 1 0 3
	1 1 1.00 60.00 120.00
	 2025 2160 1575 1980 1080 2160
	 0.000 1.000 0.000
3 0 0 1 0 0 71 -1 -1 4.000 0 1 0 3
	1 1 1.00 60.00 120.00
	 4410 1035 4365 1530 4140 2160
	 0.000 1.000 0.000
3 0 0 1 0 0 71 -1 -1 4.000 0 1 0 3
	1 1 1.00 60.00 120.00
	 720 585 315 1170 450 2070
	 0.000 1.000 0.000
3 0 0 1 0 0 71 -1 -1 4.000 0 1 0 3
	1 1 1.00 60.00 120.00
	 2790 2115 3105 1710 3240 1215
	 0.000 1.000 0.000
3 0 1 3 20 0 71 -1 -1 8.000 0 1 0 4
	1 1 1.00 90.00 180.00
	 315 180 2160 1035 3285 1170 5220 675
	 0.000 1.000 1.000 0.000
4 1 0 71 -1 16 8 0.0000 4 105 435 1575 2205 4- notif\001
4 0 0 71 -1 16 8 0.0000 4 105 990 495 1080 1- auth & assoc\001
4 2 0 71 -1 16 8 0.0000 4 135 675 1665 1305 2- pre-auth\001
4 0 0 71 -1 16 8 0.0000 4 90 660 2205 1440 3- reassoc\001
4 2 0 71 -1 16 8 0.0000 4 105 735 3060 1755 5- deassoc \001
4 2 0 71 -1 16 8 0.0000 4 105 990 4185 1935 6- auth & assoc\001
4 1 0 71 -1 16 8 0.0000 4 105 255 585 2565 AP1\001
4 1 0 71 -1 16 8 0.0000 4 105 255 2340 2565 AP2\001
4 1 0 71 -1 16 8 0.0000 4 105 255 4140 2565 AP3\001
