#FIG 3.2  Produced by xfig version 3.2.5b
Landscape
Center
Metric
A4      
100.00
Single
-2
1200 2
6 90 720 315 1035
4 0 0 50 -1 16 8 0.0000 4 105 210 90 1035 0 V\001
4 0 0 50 -1 16 8 0.0000 4 105 210 90 855 5 V\001
-6
6 90 1800 315 2115
4 0 0 50 -1 16 8 0.0000 4 105 210 90 2115 0 V\001
4 0 0 50 -1 16 8 0.0000 4 105 210 90 1935 5 V\001
-6
6 90 2520 360 3015
4 0 0 50 -1 16 8 0.0000 4 105 210 90 2835 0 V\001
4 0 0 50 -1 16 8 0.0000 4 105 210 90 2655 5 V\001
4 0 0 50 -1 16 8 0.0000 4 105 255 90 3015 -5 V\001
-6
6 90 1260 315 1575
4 0 0 50 -1 16 8 0.0000 4 105 210 90 1575 0 V\001
4 0 0 50 -1 16 8 0.0000 4 105 210 90 1395 5 V\001
-6
6 450 2160 3330 2250
2 1 0 1 0 7 50 -1 -1 0.000 0 0 -1 0 0 5
	 450 2250 630 2250 630 2160 810 2160 810 2250
2 1 0 1 0 7 50 -1 -1 0.000 0 0 -1 0 0 5
	 810 2250 990 2250 990 2160 1170 2160 1170 2250
2 1 0 1 0 7 50 -1 -1 0.000 0 0 -1 0 0 5
	 1170 2250 1350 2250 1350 2160 1530 2160 1530 2250
2 1 0 1 0 7 50 -1 -1 0.000 0 0 -1 0 0 5
	 1530 2250 1710 2250 1710 2160 1890 2160 1890 2250
2 1 0 1 0 7 50 -1 -1 0.000 0 0 -1 0 0 5
	 1890 2250 2070 2250 2070 2160 2250 2160 2250 2250
2 1 0 1 0 7 50 -1 -1 0.000 0 0 -1 0 0 5
	 2250 2250 2430 2250 2430 2160 2610 2160 2610 2250
2 1 0 1 0 7 50 -1 -1 0.000 0 0 -1 0 0 5
	 2610 2250 2790 2250 2790 2160 2970 2160 2970 2250
2 1 0 1 0 7 50 -1 -1 0.000 0 0 -1 0 0 5
	 2970 2250 3150 2250 3150 2160 3330 2160 3330 2250
-6
6 90 3240 360 3735
4 0 0 50 -1 16 8 0.0000 4 105 210 90 3555 0 V\001
4 0 0 50 -1 16 8 0.0000 4 105 210 90 3375 5 V\001
4 0 0 50 -1 16 8 0.0000 4 105 255 90 3735 -5 V\001
-6
6 3510 2610 4725 3015
4 0 0 50 -1 16 10 0.0000 4 165 1185 3510 2745 codage bipolaire\001
4 0 0 50 -1 16 10 0.0000 4 165 1215 3510 2940 (ou codage AMI)\001
-6
1 1 0 3 4 7 49 -1 -1 0.000 1 0.0000 2430 1530 225 90 2430 1530 2655 1440
1 1 0 3 4 7 49 -1 -1 0.000 1 0.0000 1350 990 225 90 1350 990 1575 900
1 1 0 3 4 7 49 -1 -1 0.000 1 0.0000 630 1440 90 180 630 1440 720 1260
1 1 0 3 4 7 49 -1 -1 0.000 1 0.0000 630 810 225 90 630 810 855 720
1 1 0 3 4 7 49 -1 -1 0.000 1 0.0000 2070 1980 90 180 2070 1980 2160 1800
1 1 0 3 4 7 49 -1 -1 0.000 1 0.0000 1350 1980 90 180 1350 1980 1440 1800
1 1 0 3 4 7 49 -1 -1 0.000 1 0.0000 990 2790 225 90 990 2790 1215 2700
1 1 0 3 4 7 49 -1 -1 0.000 1 0.0000 630 2610 225 90 630 2610 855 2520
1 1 0 3 4 7 49 -1 -1 0.000 1 0.0000 2070 2970 225 90 2070 2970 2295 2880
1 1 0 3 4 7 49 -1 -1 0.000 1 0.0000 1890 3420 90 180 1890 3420 1980 3240
1 1 0 3 4 7 49 -1 -1 0.000 1 0.0000 810 3330 225 90 810 3330 1035 3240
2 1 0 1 0 7 50 -1 -1 0.000 0 0 -1 0 0 2
	 1170 360 1170 450
2 1 0 1 0 7 50 -1 -1 0.000 0 0 -1 0 0 4
	 450 360 450 450 3330 450 3330 360
2 1 0 1 0 7 50 -1 -1 0.000 0 0 -1 0 0 2
	 810 360 810 450
2 1 0 1 0 7 50 -1 -1 0.000 0 0 -1 0 0 2
	 1530 360 1530 450
2 1 0 1 0 7 50 -1 -1 0.000 0 0 -1 0 0 2
	 1890 360 1890 450
2 1 0 1 0 7 50 -1 -1 0.000 0 0 -1 0 0 2
	 2250 360 2250 450
2 1 0 1 0 7 50 -1 -1 0.000 0 0 -1 0 0 2
	 2610 360 2610 450
2 1 0 1 0 7 50 -1 -1 0.000 0 0 -1 0 0 2
	 2970 360 2970 450
2 1 0 2 0 7 50 -1 -1 0.000 0 0 -1 0 0 11
	 450 990 450 810 810 810 810 990 1890 990 1890 810
	 2250 810 2250 990 2610 990 2610 810 3330 810
2 1 0 2 0 7 50 -1 -1 0.000 0 0 -1 0 0 10
	 450 1530 630 1530 630 1350 2070 1350 2070 1530 2790 1530
	 2790 1350 3150 1350 3150 1530 3330 1530
2 1 0 2 0 7 50 -1 -1 0.000 0 0 -1 0 0 26
	 450 1890 630 1890 630 2070 990 2070 990 1890 1170 1890
	 1170 2070 1350 2070 1350 1890 1530 1890 1530 2070 1710 2070
	 1710 1890 2070 1890 2070 2070 2430 2070 2430 1890 2610 1890
	 2610 2070 2790 2070 2790 1890 2970 1890 2970 2070 3150 2070
	 3150 1890 3330 1890
2 1 0 2 0 7 50 -1 -1 0.000 0 0 -1 0 0 12
	 450 2610 810 2610 810 2790 1890 2790 1890 2970 2250 2970
	 2250 2790 2610 2790 2610 2610 2970 2610 2970 2970 3330 2970
2 1 2 1 0 7 50 -1 -1 3.000 0 0 -1 0 0 2
	 810 450 810 3780
2 1 2 1 0 7 50 -1 -1 3.000 0 0 -1 0 0 2
	 450 450 450 3780
2 1 2 1 0 7 50 -1 -1 3.000 0 0 -1 0 0 2
	 1170 450 1170 3780
2 1 2 1 0 7 50 -1 -1 3.000 0 0 -1 0 0 2
	 1530 450 1530 3780
2 1 2 1 0 7 50 -1 -1 3.000 0 0 -1 0 0 2
	 1890 450 1890 3780
2 1 2 1 0 7 50 -1 -1 3.000 0 0 -1 0 0 2
	 2250 450 2250 3780
2 1 2 1 0 7 50 -1 -1 3.000 0 0 -1 0 0 2
	 2610 450 2610 3780
2 1 2 1 0 7 50 -1 -1 3.000 0 0 -1 0 0 2
	 2970 450 2970 3780
2 1 2 1 0 7 50 -1 -1 3.000 0 0 -1 0 0 2
	 3330 450 3330 3780
2 1 0 2 0 7 50 -1 -1 0.000 0 0 -1 0 0 9
	 450 3510 450 3330 1890 3330 1890 3510 2610 3510 2610 3690
	 2970 3690 2970 3330 3330 3330
4 1 0 50 -1 16 10 0.0000 4 120 90 630 405 1\001
4 1 0 50 -1 16 10 0.0000 4 120 90 990 405 0\001
4 1 0 50 -1 16 10 0.0000 4 120 90 1350 405 0\001
4 1 0 50 -1 16 10 0.0000 4 120 90 1710 405 0\001
4 1 0 50 -1 16 10 0.0000 4 120 90 2070 405 1\001
4 1 0 50 -1 16 10 0.0000 4 120 90 2430 405 0\001
4 1 0 50 -1 16 10 0.0000 4 120 90 2790 405 1\001
4 1 0 50 -1 16 10 0.0000 4 120 90 3150 405 1\001
4 0 0 50 -1 16 10 0.0000 4 120 1215 3510 405 flux d'information\001
4 0 0 50 -1 16 10 0.0000 4 165 930 3510 945 codage NRZ\001
4 0 0 50 -1 16 10 0.0000 4 165 975 3510 1485 codage NRZI\001
4 0 0 50 -1 16 10 0.0000 4 165 1455 3510 2025 codage Manchester\001
4 0 0 50 -1 16 10 0.0000 4 165 1365 3510 2250 (horloge associ\351e)\001
4 0 0 50 -1 16 10 0.0000 4 165 1065 3510 3555 codage MLT-3\001
